^C:\BITBUCKET\SPRINTBURST\EZLIB\PCH\PCH.CPP
/c /I.\SRC /I..\EZLIB /I..\LIB\BULLETPHYSICS\SRC /I..\LIB\DIRECTXTEX\INC /I..\LIB\DIRECTXTK\INC /I..\LIB\JSON11 /I..\LIB\IMGUI /I..\LIB\OPENVR /I..\LIB\CEREAL /I..\LIB /I..\LIB\EFFEKSEER\INCLUDE /I..\COMMON /IC:\BITBUCKET\SPRINTBURST\ /ZI /JMC /nologo /W3 /WX- /diagnostics:classic /Od /Ob2 /Oy- /D WIN32 /D _DEBUG /D _WINDOWS /D DEBUG_DIRECT3D11 /D _MBCS /Gm- /EHsc /RTC1 /MTd /GS /fp:precise /Zc:wchar_t /Zc:forScope /Zc:inline /Yc"pch.h" /Fp"SERVER\DEBUG\SERVER.PCH" /Fo"SERVER\DEBUG\\" /Fd"SERVER\DEBUG\VC141.PDB" /Gd /TP /FIPCH.H /analyze- /FC C:\BITBUCKET\SPRINTBURST\EZLIB\PCH\PCH.CPP
^C:\BITBUCKET\SPRINTBURST\EZLIB\ANIMATION\ZBONECONTROLLER.CPP
/c /I.\SRC /I..\EZLIB /I..\LIB\BULLETPHYSICS\SRC /I..\LIB\DIRECTXTEX\INC /I..\LIB\DIRECTXTK\INC /I..\LIB\JSON11 /I..\LIB\IMGUI /I..\LIB\OPENVR /I..\LIB\CEREAL /I..\LIB /I..\LIB\EFFEKSEER\INCLUDE /I..\COMMON /IC:\BITBUCKET\SPRINTBURST\ /ZI /JMC /nologo /W3 /WX- /diagnostics:classic /Od /Ob2 /Oy- /D WIN32 /D _DEBUG /D _WINDOWS /D DEBUG_DIRECT3D11 /D _MBCS /Gm- /EHsc /RTC1 /MTd /GS /fp:precise /Zc:wchar_t /Zc:forScope /Zc:inline /Yu"pch.h" /Fp"SERVER\DEBUG\SERVER.PCH" /Fo"SERVER\DEBUG\\" /Fd"SERVER\DEBUG\VC141.PDB" /Gd /TP /FIPCH.H /analyze- /FC C:\BITBUCKET\SPRINTBURST\EZLIB\ANIMATION\ZBONECONTROLLER.CPP
^C:\BITBUCKET\SPRINTBURST\EZLIB\ANIMATION\ZKEYFRAMEANIMATION.CPP
/c /I.\SRC /I..\EZLIB /I..\LIB\BULLETPHYSICS\SRC /I..\LIB\DIRECTXTEX\INC /I..\LIB\DIRECTXTK\INC /I..\LIB\JSON11 /I..\LIB\IMGUI /I..\LIB\OPENVR /I..\LIB\CEREAL /I..\LIB /I..\LIB\EFFEKSEER\INCLUDE /I..\COMMON /IC:\BITBUCKET\SPRINTBURST\ /ZI /JMC /nologo /W3 /WX- /diagnostics:classic /Od /Ob2 /Oy- /D WIN32 /D _DEBUG /D _WINDOWS /D DEBUG_DIRECT3D11 /D _MBCS /Gm- /EHsc /RTC1 /MTd /GS /fp:precise /Zc:wchar_t /Zc:forScope /Zc:inline /Yu"pch.h" /Fp"SERVER\DEBUG\SERVER.PCH" /Fo"SERVER\DEBUG\\" /Fd"SERVER\DEBUG\VC141.PDB" /Gd /TP /FIPCH.H /analyze- /FC C:\BITBUCKET\SPRINTBURST\EZLIB\ANIMATION\ZKEYFRAMEANIMATION.CPP
^C:\BITBUCKET\SPRINTBURST\EZLIB\ANIMATION\ZUVANIMATION.CPP
/c /I.\SRC /I..\EZLIB /I..\LIB\BULLETPHYSICS\SRC /I..\LIB\DIRECTXTEX\INC /I..\LIB\DIRECTXTK\INC /I..\LIB\JSON11 /I..\LIB\IMGUI /I..\LIB\OPENVR /I..\LIB\CEREAL /I..\LIB /I..\LIB\EFFEKSEER\INCLUDE /I..\COMMON /IC:\BITBUCKET\SPRINTBURST\ /ZI /JMC /nologo /W3 /WX- /diagnostics:classic /Od /Ob2 /Oy- /D WIN32 /D _DEBUG /D _WINDOWS /D DEBUG_DIRECT3D11 /D _MBCS /Gm- /EHsc /RTC1 /MTd /GS /fp:precise /Zc:wchar_t /Zc:forScope /Zc:inline /Yu"pch.h" /Fp"SERVER\DEBUG\SERVER.PCH" /Fo"SERVER\DEBUG\\" /Fd"SERVER\DEBUG\VC141.PDB" /Gd /TP /FIPCH.H /analyze- /FC C:\BITBUCKET\SPRINTBURST\EZLIB\ANIMATION\ZUVANIMATION.CPP
^C:\BITBUCKET\SPRINTBURST\EZLIB\CAMERA\ZCAMERA.CPP
/c /I.\SRC /I..\EZLIB /I..\LIB\BULLETPHYSICS\SRC /I..\LIB\DIRECTXTEX\INC /I..\LIB\DIRECTXTK\INC /I..\LIB\JSON11 /I..\LIB\IMGUI /I..\LIB\OPENVR /I..\LIB\CEREAL /I..\LIB /I..\LIB\EFFEKSEER\INCLUDE /I..\COMMON /IC:\BITBUCKET\SPRINTBURST\ /ZI /JMC /nologo /W3 /WX- /diagnostics:classic /Od /Ob2 /Oy- /D WIN32 /D _DEBUG /D _WINDOWS /D DEBUG_DIRECT3D11 /D _MBCS /Gm- /EHsc /RTC1 /MTd /GS /fp:precise /Zc:wchar_t /Zc:forScope /Zc:inline /Yu"pch.h" /Fp"SERVER\DEBUG\SERVER.PCH" /Fo"SERVER\DEBUG\\" /Fd"SERVER\DEBUG\VC141.PDB" /Gd /TP /FIPCH.H /analyze- /FC C:\BITBUCKET\SPRINTBURST\EZLIB\CAMERA\ZCAMERA.CPP
^C:\BITBUCKET\SPRINTBURST\EZLIB\COLLISION\ZCOLLISION.CPP
/c /I.\SRC /I..\EZLIB /I..\LIB\BULLETPHYSICS\SRC /I..\LIB\DIRECTXTEX\INC /I..\LIB\DIRECTXTK\INC /I..\LIB\JSON11 /I..\LIB\IMGUI /I..\LIB\OPENVR /I..\LIB\CEREAL /I..\LIB /I..\LIB\EFFEKSEER\INCLUDE /I..\COMMON /IC:\BITBUCKET\SPRINTBURST\ /ZI /JMC /nologo /W3 /WX- /diagnostics:classic /Od /Ob2 /Oy- /D WIN32 /D _DEBUG /D _WINDOWS /D DEBUG_DIRECT3D11 /D _MBCS /Gm- /EHsc /RTC1 /MTd /GS /fp:precise /Zc:wchar_t /Zc:forScope /Zc:inline /Yu"pch.h" /Fp"SERVER\DEBUG\SERVER.PCH" /Fo"SERVER\DEBUG\\" /Fd"SERVER\DEBUG\VC141.PDB" /Gd /TP /FIPCH.H /analyze- /FC C:\BITBUCKET\SPRINTBURST\EZLIB\COLLISION\ZCOLLISION.CPP
^C:\BITBUCKET\SPRINTBURST\EZLIB\DEBUGWINDOW\DEBUGWINDOW.CPP
/c /I.\SRC /I..\EZLIB /I..\LIB\BULLETPHYSICS\SRC /I..\LIB\DIRECTXTEX\INC /I..\LIB\DIRECTXTK\INC /I..\LIB\JSON11 /I..\LIB\IMGUI /I..\LIB\OPENVR /I..\LIB\CEREAL /I..\LIB /I..\LIB\EFFEKSEER\INCLUDE /I..\COMMON /IC:\BITBUCKET\SPRINTBURST\ /ZI /JMC /nologo /W3 /WX- /diagnostics:classic /Od /Ob2 /Oy- /D WIN32 /D _DEBUG /D _WINDOWS /D DEBUG_DIRECT3D11 /D _MBCS /Gm- /EHsc /RTC1 /MTd /GS /fp:precise /Zc:wchar_t /Zc:forScope /Zc:inline /Yu"pch.h" /Fp"SERVER\DEBUG\SERVER.PCH" /Fo"SERVER\DEBUG\\" /Fd"SERVER\DEBUG\VC141.PDB" /Gd /TP /FIPCH.H /analyze- /FC C:\BITBUCKET\SPRINTBURST\EZLIB\DEBUGWINDOW\DEBUGWINDOW.CPP
^C:\BITBUCKET\SPRINTBURST\EZLIB\EFFECT\ZEFFECTMANAGER.CPP
/c /I.\SRC /I..\EZLIB /I..\LIB\BULLETPHYSICS\SRC /I..\LIB\DIRECTXTEX\INC /I..\LIB\DIRECTXTK\INC /I..\LIB\JSON11 /I..\LIB\IMGUI /I..\LIB\OPENVR /I..\LIB\CEREAL /I..\LIB /I..\LIB\EFFEKSEER\INCLUDE /I..\COMMON /IC:\BITBUCKET\SPRINTBURST\ /ZI /JMC /nologo /W3 /WX- /diagnostics:classic /Od /Ob2 /Oy- /D WIN32 /D _DEBUG /D _WINDOWS /D DEBUG_DIRECT3D11 /D _MBCS /Gm- /EHsc /RTC1 /MTd /GS /fp:precise /Zc:wchar_t /Zc:forScope /Zc:inline /Yu"pch.h" /Fp"SERVER\DEBUG\SERVER.PCH" /Fo"SERVER\DEBUG\\" /Fd"SERVER\DEBUG\VC141.PDB" /Gd /TP /FIPCH.H /analyze- /FC C:\BITBUCKET\SPRINTBURST\EZLIB\EFFECT\ZEFFECTMANAGER.CPP
^C:\BITBUCKET\SPRINTBURST\EZLIB\FONT\ZFONT.CPP
/c /I.\SRC /I..\EZLIB /I..\LIB\BULLETPHYSICS\SRC /I..\LIB\DIRECTXTEX\INC /I..\LIB\DIRECTXTK\INC /I..\LIB\JSON11 /I..\LIB\IMGUI /I..\LIB\OPENVR /I..\LIB\CEREAL /I..\LIB /I..\LIB\EFFEKSEER\INCLUDE /I..\COMMON /IC:\BITBUCKET\SPRINTBURST\ /ZI /JMC /nologo /W3 /WX- /diagnostics:classic /Od /Ob2 /Oy- /D WIN32 /D _DEBUG /D _WINDOWS /D DEBUG_DIRECT3D11 /D _MBCS /Gm- /EHsc /RTC1 /MTd /GS /fp:precise /Zc:wchar_t /Zc:forScope /Zc:inline /Yu"pch.h" /Fp"SERVER\DEBUG\SERVER.PCH" /Fo"SERVER\DEBUG\\" /Fd"SERVER\DEBUG\VC141.PDB" /Gd /TP /FIPCH.H /analyze- /FC C:\BITBUCKET\SPRINTBURST\EZLIB\FONT\ZFONT.CPP
^C:\BITBUCKET\SPRINTBURST\EZLIB\GRAPHICS\ZBILLBOARD.CPP
/c /I.\SRC /I..\EZLIB /I..\LIB\BULLETPHYSICS\SRC /I..\LIB\DIRECTXTEX\INC /I..\LIB\DIRECTXTK\INC /I..\LIB\JSON11 /I..\LIB\IMGUI /I..\LIB\OPENVR /I..\LIB\CEREAL /I..\LIB /I..\LIB\EFFEKSEER\INCLUDE /I..\COMMON /IC:\BITBUCKET\SPRINTBURST\ /ZI /JMC /nologo /W3 /WX- /diagnostics:classic /Od /Ob2 /Oy- /D WIN32 /D _DEBUG /D _WINDOWS /D DEBUG_DIRECT3D11 /D _MBCS /Gm- /EHsc /RTC1 /MTd /GS /fp:precise /Zc:wchar_t /Zc:forScope /Zc:inline /Yu"pch.h" /Fp"SERVER\DEBUG\SERVER.PCH" /Fo"SERVER\DEBUG\\" /Fd"SERVER\DEBUG\VC141.PDB" /Gd /TP /FIPCH.H /analyze- /FC C:\BITBUCKET\SPRINTBURST\EZLIB\GRAPHICS\ZBILLBOARD.CPP
^C:\BITBUCKET\SPRINTBURST\EZLIB\GRAPHICS\ZDIRECTXGRAPHICS.CPP
/c /I.\SRC /I..\EZLIB /I..\LIB\BULLETPHYSICS\SRC /I..\LIB\DIRECTXTEX\INC /I..\LIB\DIRECTXTK\INC /I..\LIB\JSON11 /I..\LIB\IMGUI /I..\LIB\OPENVR /I..\LIB\CEREAL /I..\LIB /I..\LIB\EFFEKSEER\INCLUDE /I..\COMMON /IC:\BITBUCKET\SPRINTBURST\ /ZI /JMC /nologo /W3 /WX- /diagnostics:classic /Od /Ob2 /Oy- /D WIN32 /D _DEBUG /D _WINDOWS /D DEBUG_DIRECT3D11 /D _MBCS /Gm- /EHsc /RTC1 /MTd /GS /fp:precise /Zc:wchar_t /Zc:forScope /Zc:inline /Yu"pch.h" /Fp"SERVER\DEBUG\SERVER.PCH" /Fo"SERVER\DEBUG\\" /Fd"SERVER\DEBUG\VC141.PDB" /Gd /TP /FIPCH.H /analyze- /FC C:\BITBUCKET\SPRINTBURST\EZLIB\GRAPHICS\ZDIRECTXGRAPHICS.CPP
^C:\BITBUCKET\SPRINTBURST\EZLIB\GRAPHICS\ZGAMEMODEL.CPP
/c /I.\SRC /I..\EZLIB /I..\LIB\BULLETPHYSICS\SRC /I..\LIB\DIRECTXTEX\INC /I..\LIB\DIRECTXTK\INC /I..\LIB\JSON11 /I..\LIB\IMGUI /I..\LIB\OPENVR /I..\LIB\CEREAL /I..\LIB /I..\LIB\EFFEKSEER\INCLUDE /I..\COMMON /IC:\BITBUCKET\SPRINTBURST\ /ZI /JMC /nologo /W3 /WX- /diagnostics:classic /Od /Ob2 /Oy- /D WIN32 /D _DEBUG /D _WINDOWS /D DEBUG_DIRECT3D11 /D _MBCS /Gm- /EHsc /RTC1 /MTd /GS /fp:precise /Zc:wchar_t /Zc:forScope /Zc:inline /Yu"pch.h" /Fp"SERVER\DEBUG\SERVER.PCH" /Fo"SERVER\DEBUG\\" /Fd"SERVER\DEBUG\VC141.PDB" /Gd /TP /FIPCH.H /analyze- /FC C:\BITBUCKET\SPRINTBURST\EZLIB\GRAPHICS\ZGAMEMODEL.CPP
^C:\BITBUCKET\SPRINTBURST\EZLIB\GRAPHICS\ZLASER.CPP
/c /I.\SRC /I..\EZLIB /I..\LIB\BULLETPHYSICS\SRC /I..\LIB\DIRECTXTEX\INC /I..\LIB\DIRECTXTK\INC /I..\LIB\JSON11 /I..\LIB\IMGUI /I..\LIB\OPENVR /I..\LIB\CEREAL /I..\LIB /I..\LIB\EFFEKSEER\INCLUDE /I..\COMMON /IC:\BITBUCKET\SPRINTBURST\ /ZI /JMC /nologo /W3 /WX- /diagnostics:classic /Od /Ob2 /Oy- /D WIN32 /D _DEBUG /D _WINDOWS /D DEBUG_DIRECT3D11 /D _MBCS /Gm- /EHsc /RTC1 /MTd /GS /fp:precise /Zc:wchar_t /Zc:forScope /Zc:inline /Yu"pch.h" /Fp"SERVER\DEBUG\SERVER.PCH" /Fo"SERVER\DEBUG\\" /Fd"SERVER\DEBUG\VC141.PDB" /Gd /TP /FIPCH.H /analyze- /FC C:\BITBUCKET\SPRINTBURST\EZLIB\GRAPHICS\ZLASER.CPP
^C:\BITBUCKET\SPRINTBURST\EZLIB\GRAPHICS\ZMESH.CPP
/c /I.\SRC /I..\EZLIB /I..\LIB\BULLETPHYSICS\SRC /I..\LIB\DIRECTXTEX\INC /I..\LIB\DIRECTXTK\INC /I..\LIB\JSON11 /I..\LIB\IMGUI /I..\LIB\OPENVR /I..\LIB\CEREAL /I..\LIB /I..\LIB\EFFEKSEER\INCLUDE /I..\COMMON /IC:\BITBUCKET\SPRINTBURST\ /ZI /JMC /nologo /W3 /WX- /diagnostics:classic /Od /Ob2 /Oy- /D WIN32 /D _DEBUG /D _WINDOWS /D DEBUG_DIRECT3D11 /D _MBCS /Gm- /EHsc /RTC1 /MTd /GS /fp:precise /Zc:wchar_t /Zc:forScope /Zc:inline /Yu"pch.h" /Fp"SERVER\DEBUG\SERVER.PCH" /Fo"SERVER\DEBUG\\" /Fd"SERVER\DEBUG\VC141.PDB" /Gd /TP /FIPCH.H /analyze- /FC C:\BITBUCKET\SPRINTBURST\EZLIB\GRAPHICS\ZMESH.CPP
^C:\BITBUCKET\SPRINTBURST\EZLIB\GRAPHICS\ZPIXELSHADER.CPP
/c /I.\SRC /I..\EZLIB /I..\LIB\BULLETPHYSICS\SRC /I..\LIB\DIRECTXTEX\INC /I..\LIB\DIRECTXTK\INC /I..\LIB\JSON11 /I..\LIB\IMGUI /I..\LIB\OPENVR /I..\LIB\CEREAL /I..\LIB /I..\LIB\EFFEKSEER\INCLUDE /I..\COMMON /IC:\BITBUCKET\SPRINTBURST\ /ZI /JMC /nologo /W3 /WX- /diagnostics:classic /Od /Ob2 /Oy- /D WIN32 /D _DEBUG /D _WINDOWS /D DEBUG_DIRECT3D11 /D _MBCS /Gm- /EHsc /RTC1 /MTd /GS /fp:precise /Zc:wchar_t /Zc:forScope /Zc:inline /Yu"pch.h" /Fp"SERVER\DEBUG\SERVER.PCH" /Fo"SERVER\DEBUG\\" /Fd"SERVER\DEBUG\VC141.PDB" /Gd /TP /FIPCH.H /analyze- /FC C:\BITBUCKET\SPRINTBURST\EZLIB\GRAPHICS\ZPIXELSHADER.CPP
^C:\BITBUCKET\SPRINTBURST\EZLIB\GRAPHICS\ZPOLYGON.CPP
/c /I.\SRC /I..\EZLIB /I..\LIB\BULLETPHYSICS\SRC /I..\LIB\DIRECTXTEX\INC /I..\LIB\DIRECTXTK\INC /I..\LIB\JSON11 /I..\LIB\IMGUI /I..\LIB\OPENVR /I..\LIB\CEREAL /I..\LIB /I..\LIB\EFFEKSEER\INCLUDE /I..\COMMON /IC:\BITBUCKET\SPRINTBURST\ /ZI /JMC /nologo /W3 /WX- /diagnostics:classic /Od /Ob2 /Oy- /D WIN32 /D _DEBUG /D _WINDOWS /D DEBUG_DIRECT3D11 /D _MBCS /Gm- /EHsc /RTC1 /MTd /GS /fp:precise /Zc:wchar_t /Zc:forScope /Zc:inline /Yu"pch.h" /Fp"SERVER\DEBUG\SERVER.PCH" /Fo"SERVER\DEBUG\\" /Fd"SERVER\DEBUG\VC141.PDB" /Gd /TP /FIPCH.H /analyze- /FC C:\BITBUCKET\SPRINTBURST\EZLIB\GRAPHICS\ZPOLYGON.CPP
^C:\BITBUCKET\SPRINTBURST\EZLIB\GRAPHICS\ZPOSTEFFECTS.CPP
/c /I.\SRC /I..\EZLIB /I..\LIB\BULLETPHYSICS\SRC /I..\LIB\DIRECTXTEX\INC /I..\LIB\DIRECTXTK\INC /I..\LIB\JSON11 /I..\LIB\IMGUI /I..\LIB\OPENVR /I..\LIB\CEREAL /I..\LIB /I..\LIB\EFFEKSEER\INCLUDE /I..\COMMON /IC:\BITBUCKET\SPRINTBURST\ /ZI /JMC /nologo /W3 /WX- /diagnostics:classic /Od /Ob2 /Oy- /D WIN32 /D _DEBUG /D _WINDOWS /D DEBUG_DIRECT3D11 /D _MBCS /Gm- /EHsc /RTC1 /MTd /GS /fp:precise /Zc:wchar_t /Zc:forScope /Zc:inline /Yu"pch.h" /Fp"SERVER\DEBUG\SERVER.PCH" /Fo"SERVER\DEBUG\\" /Fd"SERVER\DEBUG\VC141.PDB" /Gd /TP /FIPCH.H /analyze- /FC C:\BITBUCKET\SPRINTBURST\EZLIB\GRAPHICS\ZPOSTEFFECTS.CPP
^C:\BITBUCKET\SPRINTBURST\EZLIB\GRAPHICS\ZSHADERSET.CPP
/c /I.\SRC /I..\EZLIB /I..\LIB\BULLETPHYSICS\SRC /I..\LIB\DIRECTXTEX\INC /I..\LIB\DIRECTXTK\INC /I..\LIB\JSON11 /I..\LIB\IMGUI /I..\LIB\OPENVR /I..\LIB\CEREAL /I..\LIB /I..\LIB\EFFEKSEER\INCLUDE /I..\COMMON /IC:\BITBUCKET\SPRINTBURST\ /ZI /JMC /nologo /W3 /WX- /diagnostics:classic /Od /Ob2 /Oy- /D WIN32 /D _DEBUG /D _WINDOWS /D DEBUG_DIRECT3D11 /D _MBCS /Gm- /EHsc /RTC1 /MTd /GS /fp:precise /Zc:wchar_t /Zc:forScope /Zc:inline /Yu"pch.h" /Fp"SERVER\DEBUG\SERVER.PCH" /Fo"SERVER\DEBUG\\" /Fd"SERVER\DEBUG\VC141.PDB" /Gd /TP /FIPCH.H /analyze- /FC C:\BITBUCKET\SPRINTBURST\EZLIB\GRAPHICS\ZSHADERSET.CPP
^C:\BITBUCKET\SPRINTBURST\EZLIB\GRAPHICS\ZSINGLEMODEL.CPP
/c /I.\SRC /I..\EZLIB /I..\LIB\BULLETPHYSICS\SRC /I..\LIB\DIRECTXTEX\INC /I..\LIB\DIRECTXTK\INC /I..\LIB\JSON11 /I..\LIB\IMGUI /I..\LIB\OPENVR /I..\LIB\CEREAL /I..\LIB /I..\LIB\EFFEKSEER\INCLUDE /I..\COMMON /IC:\BITBUCKET\SPRINTBURST\ /ZI /JMC /nologo /W3 /WX- /diagnostics:classic /Od /Ob2 /Oy- /D WIN32 /D _DEBUG /D _WINDOWS /D DEBUG_DIRECT3D11 /D _MBCS /Gm- /EHsc /RTC1 /MTd /GS /fp:precise /Zc:wchar_t /Zc:forScope /Zc:inline /Yu"pch.h" /Fp"SERVER\DEBUG\SERVER.PCH" /Fo"SERVER\DEBUG\\" /Fd"SERVER\DEBUG\VC141.PDB" /Gd /TP /FIPCH.H /analyze- /FC C:\BITBUCKET\SPRINTBURST\EZLIB\GRAPHICS\ZSINGLEMODEL.CPP
^C:\BITBUCKET\SPRINTBURST\EZLIB\GRAPHICS\ZSTATES.CPP
/c /I.\SRC /I..\EZLIB /I..\LIB\BULLETPHYSICS\SRC /I..\LIB\DIRECTXTEX\INC /I..\LIB\DIRECTXTK\INC /I..\LIB\JSON11 /I..\LIB\IMGUI /I..\LIB\OPENVR /I..\LIB\CEREAL /I..\LIB /I..\LIB\EFFEKSEER\INCLUDE /I..\COMMON /IC:\BITBUCKET\SPRINTBURST\ /ZI /JMC /nologo /W3 /WX- /diagnostics:classic /Od /Ob2 /Oy- /D WIN32 /D _DEBUG /D _WINDOWS /D DEBUG_DIRECT3D11 /D _MBCS /Gm- /EHsc /RTC1 /MTd /GS /fp:precise /Zc:wchar_t /Zc:forScope /Zc:inline /Yu"pch.h" /Fp"SERVER\DEBUG\SERVER.PCH" /Fo"SERVER\DEBUG\\" /Fd"SERVER\DEBUG\VC141.PDB" /Gd /TP /FIPCH.H /analyze- /FC C:\BITBUCKET\SPRINTBURST\EZLIB\GRAPHICS\ZSTATES.CPP
^C:\BITBUCKET\SPRINTBURST\EZLIB\GRAPHICS\ZTEXTURE.CPP
/c /I.\SRC /I..\EZLIB /I..\LIB\BULLETPHYSICS\SRC /I..\LIB\DIRECTXTEX\INC /I..\LIB\DIRECTXTK\INC /I..\LIB\JSON11 /I..\LIB\IMGUI /I..\LIB\OPENVR /I..\LIB\CEREAL /I..\LIB /I..\LIB\EFFEKSEER\INCLUDE /I..\COMMON /IC:\BITBUCKET\SPRINTBURST\ /ZI /JMC /nologo /W3 /WX- /diagnostics:classic /Od /Ob2 /Oy- /D WIN32 /D _DEBUG /D _WINDOWS /D DEBUG_DIRECT3D11 /D _MBCS /Gm- /EHsc /RTC1 /MTd /GS /fp:precise /Zc:wchar_t /Zc:forScope /Zc:inline /Yu"pch.h" /Fp"SERVER\DEBUG\SERVER.PCH" /Fo"SERVER\DEBUG\\" /Fd"SERVER\DEBUG\VC141.PDB" /Gd /TP /FIPCH.H /analyze- /FC C:\BITBUCKET\SPRINTBURST\EZLIB\GRAPHICS\ZTEXTURE.CPP
^C:\BITBUCKET\SPRINTBURST\EZLIB\GRAPHICS\ZVERTEXSHADER.CPP
/c /I.\SRC /I..\EZLIB /I..\LIB\BULLETPHYSICS\SRC /I..\LIB\DIRECTXTEX\INC /I..\LIB\DIRECTXTK\INC /I..\LIB\JSON11 /I..\LIB\IMGUI /I..\LIB\OPENVR /I..\LIB\CEREAL /I..\LIB /I..\LIB\EFFEKSEER\INCLUDE /I..\COMMON /IC:\BITBUCKET\SPRINTBURST\ /ZI /JMC /nologo /W3 /WX- /diagnostics:classic /Od /Ob2 /Oy- /D WIN32 /D _DEBUG /D _WINDOWS /D DEBUG_DIRECT3D11 /D _MBCS /Gm- /EHsc /RTC1 /MTd /GS /fp:precise /Zc:wchar_t /Zc:forScope /Zc:inline /Yu"pch.h" /Fp"SERVER\DEBUG\SERVER.PCH" /Fo"SERVER\DEBUG\\" /Fd"SERVER\DEBUG\VC141.PDB" /Gd /TP /FIPCH.H /analyze- /FC C:\BITBUCKET\SPRINTBURST\EZLIB\GRAPHICS\ZVERTEXSHADER.CPP
^C:\BITBUCKET\SPRINTBURST\EZLIB\INPUT\ZINPUT.CPP
/c /I.\SRC /I..\EZLIB /I..\LIB\BULLETPHYSICS\SRC /I..\LIB\DIRECTXTEX\INC /I..\LIB\DIRECTXTK\INC /I..\LIB\JSON11 /I..\LIB\IMGUI /I..\LIB\OPENVR /I..\LIB\CEREAL /I..\LIB /I..\LIB\EFFEKSEER\INCLUDE /I..\COMMON /IC:\BITBUCKET\SPRINTBURST\ /ZI /JMC /nologo /W3 /WX- /diagnostics:classic /Od /Ob2 /Oy- /D WIN32 /D _DEBUG /D _WINDOWS /D DEBUG_DIRECT3D11 /D _MBCS /Gm- /EHsc /RTC1 /MTd /GS /fp:precise /Zc:wchar_t /Zc:forScope /Zc:inline /Yu"pch.h" /Fp"SERVER\DEBUG\SERVER.PCH" /Fo"SERVER\DEBUG\\" /Fd"SERVER\DEBUG\VC141.PDB" /Gd /TP /FIPCH.H /analyze- /FC C:\BITBUCKET\SPRINTBURST\EZLIB\INPUT\ZINPUT.CPP
^C:\BITBUCKET\SPRINTBURST\EZLIB\MMD\ZMMDMATERIAL.CPP
/c /I.\SRC /I..\EZLIB /I..\LIB\BULLETPHYSICS\SRC /I..\LIB\DIRECTXTEX\INC /I..\LIB\DIRECTXTK\INC /I..\LIB\JSON11 /I..\LIB\IMGUI /I..\LIB\OPENVR /I..\LIB\CEREAL /I..\LIB /I..\LIB\EFFEKSEER\INCLUDE /I..\COMMON /IC:\BITBUCKET\SPRINTBURST\ /ZI /JMC /nologo /W3 /WX- /diagnostics:classic /Od /Ob2 /Oy- /D WIN32 /D _DEBUG /D _WINDOWS /D DEBUG_DIRECT3D11 /D _MBCS /Gm- /EHsc /RTC1 /MTd /GS /fp:precise /Zc:wchar_t /Zc:forScope /Zc:inline /Yu"pch.h" /Fp"SERVER\DEBUG\SERVER.PCH" /Fo"SERVER\DEBUG\\" /Fd"SERVER\DEBUG\VC141.PDB" /Gd /TP /FIPCH.H /analyze- /FC C:\BITBUCKET\SPRINTBURST\EZLIB\MMD\ZMMDMATERIAL.CPP
^C:\BITBUCKET\SPRINTBURST\EZLIB\MMD\ZPMD.CPP
/c /I.\SRC /I..\EZLIB /I..\LIB\BULLETPHYSICS\SRC /I..\LIB\DIRECTXTEX\INC /I..\LIB\DIRECTXTK\INC /I..\LIB\JSON11 /I..\LIB\IMGUI /I..\LIB\OPENVR /I..\LIB\CEREAL /I..\LIB /I..\LIB\EFFEKSEER\INCLUDE /I..\COMMON /IC:\BITBUCKET\SPRINTBURST\ /ZI /JMC /nologo /W3 /WX- /diagnostics:classic /Od /Ob2 /Oy- /D WIN32 /D _DEBUG /D _WINDOWS /D DEBUG_DIRECT3D11 /D _MBCS /Gm- /EHsc /RTC1 /MTd /GS /fp:precise /Zc:wchar_t /Zc:forScope /Zc:inline /Yu"pch.h" /Fp"SERVER\DEBUG\SERVER.PCH" /Fo"SERVER\DEBUG\\" /Fd"SERVER\DEBUG\VC141.PDB" /Gd /TP /FIPCH.H /analyze- /FC C:\BITBUCKET\SPRINTBURST\EZLIB\MMD\ZPMD.CPP
^C:\BITBUCKET\SPRINTBURST\EZLIB\MMD\ZPMX.CPP
/c /I.\SRC /I..\EZLIB /I..\LIB\BULLETPHYSICS\SRC /I..\LIB\DIRECTXTEX\INC /I..\LIB\DIRECTXTK\INC /I..\LIB\JSON11 /I..\LIB\IMGUI /I..\LIB\OPENVR /I..\LIB\CEREAL /I..\LIB /I..\LIB\EFFEKSEER\INCLUDE /I..\COMMON /IC:\BITBUCKET\SPRINTBURST\ /ZI /JMC /nologo /W3 /WX- /diagnostics:classic /Od /Ob2 /Oy- /D WIN32 /D _DEBUG /D _WINDOWS /D DEBUG_DIRECT3D11 /D _MBCS /Gm- /EHsc /RTC1 /MTd /GS /fp:precise /Zc:wchar_t /Zc:forScope /Zc:inline /Yu"pch.h" /Fp"SERVER\DEBUG\SERVER.PCH" /Fo"SERVER\DEBUG\\" /Fd"SERVER\DEBUG\VC141.PDB" /Gd /TP /FIPCH.H /analyze- /FC C:\BITBUCKET\SPRINTBURST\EZLIB\MMD\ZPMX.CPP
^C:\BITBUCKET\SPRINTBURST\EZLIB\MMD\ZPMX2ZGAMEMODEL.CPP
/c /I.\SRC /I..\EZLIB /I..\LIB\BULLETPHYSICS\SRC /I..\LIB\DIRECTXTEX\INC /I..\LIB\DIRECTXTK\INC /I..\LIB\JSON11 /I..\LIB\IMGUI /I..\LIB\OPENVR /I..\LIB\CEREAL /I..\LIB /I..\LIB\EFFEKSEER\INCLUDE /I..\COMMON /IC:\BITBUCKET\SPRINTBURST\ /ZI /JMC /nologo /W3 /WX- /diagnostics:classic /Od /Ob2 /Oy- /D WIN32 /D _DEBUG /D _WINDOWS /D DEBUG_DIRECT3D11 /D _MBCS /Gm- /EHsc /RTC1 /MTd /GS /fp:precise /Zc:wchar_t /Zc:forScope /Zc:inline /Yu"pch.h" /Fp"SERVER\DEBUG\SERVER.PCH" /Fo"SERVER\DEBUG\\" /Fd"SERVER\DEBUG\VC141.PDB" /Gd /TP /FIPCH.H /analyze- /FC C:\BITBUCKET\SPRINTBURST\EZLIB\MMD\ZPMX2ZGAMEMODEL.CPP
^C:\BITBUCKET\SPRINTBURST\EZLIB\MMD\ZVMD.CPP
/c /I.\SRC /I..\EZLIB /I..\LIB\BULLETPHYSICS\SRC /I..\LIB\DIRECTXTEX\INC /I..\LIB\DIRECTXTK\INC /I..\LIB\JSON11 /I..\LIB\IMGUI /I..\LIB\OPENVR /I..\LIB\CEREAL /I..\LIB /I..\LIB\EFFEKSEER\INCLUDE /I..\COMMON /IC:\BITBUCKET\SPRINTBURST\ /ZI /JMC /nologo /W3 /WX- /diagnostics:classic /Od /Ob2 /Oy- /D WIN32 /D _DEBUG /D _WINDOWS /D DEBUG_DIRECT3D11 /D _MBCS /Gm- /EHsc /RTC1 /MTd /GS /fp:precise /Zc:wchar_t /Zc:forScope /Zc:inline /Yu"pch.h" /Fp"SERVER\DEBUG\SERVER.PCH" /Fo"SERVER\DEBUG\\" /Fd"SERVER\DEBUG\VC141.PDB" /Gd /TP /FIPCH.H /analyze- /FC C:\BITBUCKET\SPRINTBURST\EZLIB\MMD\ZVMD.CPP
^C:\BITBUCKET\SPRINTBURST\EZLIB\MAINFRAME\ZMAINFRAME.CPP
/c /I.\SRC /I..\EZLIB /I..\LIB\BULLETPHYSICS\SRC /I..\LIB\DIRECTXTEX\INC /I..\LIB\DIRECTXTK\INC /I..\LIB\JSON11 /I..\LIB\IMGUI /I..\LIB\OPENVR /I..\LIB\CEREAL /I..\LIB /I..\LIB\EFFEKSEER\INCLUDE /I..\COMMON /IC:\BITBUCKET\SPRINTBURST\ /ZI /JMC /nologo /W3 /WX- /diagnostics:classic /Od /Ob2 /Oy- /D WIN32 /D _DEBUG /D _WINDOWS /D DEBUG_DIRECT3D11 /D _MBCS /Gm- /EHsc /RTC1 /MTd /GS /fp:precise /Zc:wchar_t /Zc:forScope /Zc:inline /Yu"pch.h" /Fp"SERVER\DEBUG\SERVER.PCH" /Fo"SERVER\DEBUG\\" /Fd"SERVER\DEBUG\VC141.PDB" /Gd /TP /FIPCH.H /analyze- /FC C:\BITBUCKET\SPRINTBURST\EZLIB\MAINFRAME\ZMAINFRAME.CPP
^C:\BITBUCKET\SPRINTBURST\EZLIB\MATH\ZMATRIX.CPP
/c /I.\SRC /I..\EZLIB /I..\LIB\BULLETPHYSICS\SRC /I..\LIB\DIRECTXTEX\INC /I..\LIB\DIRECTXTK\INC /I..\LIB\JSON11 /I..\LIB\IMGUI /I..\LIB\OPENVR /I..\LIB\CEREAL /I..\LIB /I..\LIB\EFFEKSEER\INCLUDE /I..\COMMON /IC:\BITBUCKET\SPRINTBURST\ /ZI /JMC /nologo /W3 /WX- /diagnostics:classic /Od /Ob2 /Oy- /D WIN32 /D _DEBUG /D _WINDOWS /D DEBUG_DIRECT3D11 /D _MBCS /Gm- /EHsc /RTC1 /MTd /GS /fp:precise /Zc:wchar_t /Zc:forScope /Zc:inline /Yu"pch.h" /Fp"SERVER\DEBUG\SERVER.PCH" /Fo"SERVER\DEBUG\\" /Fd"SERVER\DEBUG\VC141.PDB" /Gd /TP /FIPCH.H /analyze- /FC C:\BITBUCKET\SPRINTBURST\EZLIB\MATH\ZMATRIX.CPP
^C:\BITBUCKET\SPRINTBURST\EZLIB\MATH\ZQUAT.CPP
/c /I.\SRC /I..\EZLIB /I..\LIB\BULLETPHYSICS\SRC /I..\LIB\DIRECTXTEX\INC /I..\LIB\DIRECTXTK\INC /I..\LIB\JSON11 /I..\LIB\IMGUI /I..\LIB\OPENVR /I..\LIB\CEREAL /I..\LIB /I..\LIB\EFFEKSEER\INCLUDE /I..\COMMON /IC:\BITBUCKET\SPRINTBURST\ /ZI /JMC /nologo /W3 /WX- /diagnostics:classic /Od /Ob2 /Oy- /D WIN32 /D _DEBUG /D _WINDOWS /D DEBUG_DIRECT3D11 /D _MBCS /Gm- /EHsc /RTC1 /MTd /GS /fp:precise /Zc:wchar_t /Zc:forScope /Zc:inline /Yu"pch.h" /Fp"SERVER\DEBUG\SERVER.PCH" /Fo"SERVER\DEBUG\\" /Fd"SERVER\DEBUG\VC141.PDB" /Gd /TP /FIPCH.H /analyze- /FC C:\BITBUCKET\SPRINTBURST\EZLIB\MATH\ZQUAT.CPP
^C:\BITBUCKET\SPRINTBURST\EZLIB\MATH\ZVEC2.CPP
/c /I.\SRC /I..\EZLIB /I..\LIB\BULLETPHYSICS\SRC /I..\LIB\DIRECTXTEX\INC /I..\LIB\DIRECTXTK\INC /I..\LIB\JSON11 /I..\LIB\IMGUI /I..\LIB\OPENVR /I..\LIB\CEREAL /I..\LIB /I..\LIB\EFFEKSEER\INCLUDE /I..\COMMON /IC:\BITBUCKET\SPRINTBURST\ /ZI /JMC /nologo /W3 /WX- /diagnostics:classic /Od /Ob2 /Oy- /D WIN32 /D _DEBUG /D _WINDOWS /D DEBUG_DIRECT3D11 /D _MBCS /Gm- /EHsc /RTC1 /MTd /GS /fp:precise /Zc:wchar_t /Zc:forScope /Zc:inline /Yu"pch.h" /Fp"SERVER\DEBUG\SERVER.PCH" /Fo"SERVER\DEBUG\\" /Fd"SERVER\DEBUG\VC141.PDB" /Gd /TP /FIPCH.H /analyze- /FC C:\BITBUCKET\SPRINTBURST\EZLIB\MATH\ZVEC2.CPP
^C:\BITBUCKET\SPRINTBURST\EZLIB\MATH\ZVEC3.CPP
/c /I.\SRC /I..\EZLIB /I..\LIB\BULLETPHYSICS\SRC /I..\LIB\DIRECTXTEX\INC /I..\LIB\DIRECTXTK\INC /I..\LIB\JSON11 /I..\LIB\IMGUI /I..\LIB\OPENVR /I..\LIB\CEREAL /I..\LIB /I..\LIB\EFFEKSEER\INCLUDE /I..\COMMON /IC:\BITBUCKET\SPRINTBURST\ /ZI /JMC /nologo /W3 /WX- /diagnostics:classic /Od /Ob2 /Oy- /D WIN32 /D _DEBUG /D _WINDOWS /D DEBUG_DIRECT3D11 /D _MBCS /Gm- /EHsc /RTC1 /MTd /GS /fp:precise /Zc:wchar_t /Zc:forScope /Zc:inline /Yu"pch.h" /Fp"SERVER\DEBUG\SERVER.PCH" /Fo"SERVER\DEBUG\\" /Fd"SERVER\DEBUG\VC141.PDB" /Gd /TP /FIPCH.H /analyze- /FC C:\BITBUCKET\SPRINTBURST\EZLIB\MATH\ZVEC3.CPP
^C:\BITBUCKET\SPRINTBURST\EZLIB\MATH\ZVEC4.CPP
/c /I.\SRC /I..\EZLIB /I..\LIB\BULLETPHYSICS\SRC /I..\LIB\DIRECTXTEX\INC /I..\LIB\DIRECTXTK\INC /I..\LIB\JSON11 /I..\LIB\IMGUI /I..\LIB\OPENVR /I..\LIB\CEREAL /I..\LIB /I..\LIB\EFFEKSEER\INCLUDE /I..\COMMON /IC:\BITBUCKET\SPRINTBURST\ /ZI /JMC /nologo /W3 /WX- /diagnostics:classic /Od /Ob2 /Oy- /D WIN32 /D _DEBUG /D _WINDOWS /D DEBUG_DIRECT3D11 /D _MBCS /Gm- /EHsc /RTC1 /MTd /GS /fp:precise /Zc:wchar_t /Zc:forScope /Zc:inline /Yu"pch.h" /Fp"SERVER\DEBUG\SERVER.PCH" /Fo"SERVER\DEBUG\\" /Fd"SERVER\DEBUG\VC141.PDB" /Gd /TP /FIPCH.H /analyze- /FC C:\BITBUCKET\SPRINTBURST\EZLIB\MATH\ZVEC4.CPP
^C:\BITBUCKET\SPRINTBURST\EZLIB\MEMORYALLOCATER\MEMORY.CPP
/c /I.\SRC /I..\EZLIB /I..\LIB\BULLETPHYSICS\SRC /I..\LIB\DIRECTXTEX\INC /I..\LIB\DIRECTXTK\INC /I..\LIB\JSON11 /I..\LIB\IMGUI /I..\LIB\OPENVR /I..\LIB\CEREAL /I..\LIB /I..\LIB\EFFEKSEER\INCLUDE /I..\COMMON /IC:\BITBUCKET\SPRINTBURST\ /ZI /JMC /nologo /W3 /WX- /diagnostics:classic /Od /Ob2 /Oy- /D WIN32 /D _DEBUG /D _WINDOWS /D DEBUG_DIRECT3D11 /D _MBCS /Gm- /EHsc /RTC1 /MTd /GS /fp:precise /Zc:wchar_t /Zc:forScope /Zc:inline /Yu"pch.h" /Fp"SERVER\DEBUG\SERVER.PCH" /Fo"SERVER\DEBUG\\" /Fd"SERVER\DEBUG\VC141.PDB" /Gd /TP /FIPCH.H /analyze- /FC C:\BITBUCKET\SPRINTBURST\EZLIB\MEMORYALLOCATER\MEMORY.CPP
^C:\BITBUCKET\SPRINTBURST\EZLIB\MEMORYALLOCATER\ZMEMORYALLOCATOR.CPP
/c /I.\SRC /I..\EZLIB /I..\LIB\BULLETPHYSICS\SRC /I..\LIB\DIRECTXTEX\INC /I..\LIB\DIRECTXTK\INC /I..\LIB\JSON11 /I..\LIB\IMGUI /I..\LIB\OPENVR /I..\LIB\CEREAL /I..\LIB /I..\LIB\EFFEKSEER\INCLUDE /I..\COMMON /IC:\BITBUCKET\SPRINTBURST\ /ZI /JMC /nologo /W3 /WX- /diagnostics:classic /Od /Ob2 /Oy- /D WIN32 /D _DEBUG /D _WINDOWS /D DEBUG_DIRECT3D11 /D _MBCS /Gm- /EHsc /RTC1 /MTd /GS /fp:precise /Zc:wchar_t /Zc:forScope /Zc:inline /Yu"pch.h" /Fp"SERVER\DEBUG\SERVER.PCH" /Fo"SERVER\DEBUG\\" /Fd"SERVER\DEBUG\VC141.PDB" /Gd /TP /FIPCH.H /analyze- /FC C:\BITBUCKET\SPRINTBURST\EZLIB\MEMORYALLOCATER\ZMEMORYALLOCATOR.CPP
^C:\BITBUCKET\SPRINTBURST\EZLIB\MEMORYALLOCATER\ZSMARTPOINTER.CPP
/c /I.\SRC /I..\EZLIB /I..\LIB\BULLETPHYSICS\SRC /I..\LIB\DIRECTXTEX\INC /I..\LIB\DIRECTXTK\INC /I..\LIB\JSON11 /I..\LIB\IMGUI /I..\LIB\OPENVR /I..\LIB\CEREAL /I..\LIB /I..\LIB\EFFEKSEER\INCLUDE /I..\COMMON /IC:\BITBUCKET\SPRINTBURST\ /ZI /JMC /nologo /W3 /WX- /diagnostics:classic /Od /Ob2 /Oy- /D WIN32 /D _DEBUG /D _WINDOWS /D DEBUG_DIRECT3D11 /D _MBCS /Gm- /EHsc /RTC1 /MTd /GS /fp:precise /Zc:wchar_t /Zc:forScope /Zc:inline /Yu"pch.h" /Fp"SERVER\DEBUG\SERVER.PCH" /Fo"SERVER\DEBUG\\" /Fd"SERVER\DEBUG\VC141.PDB" /Gd /TP /FIPCH.H /analyze- /FC C:\BITBUCKET\SPRINTBURST\EZLIB\MEMORYALLOCATER\ZSMARTPOINTER.CPP
^C:\BITBUCKET\SPRINTBURST\EZLIB\NETWORK\NETWORKCOMMON.CPP
/c /I.\SRC /I..\EZLIB /I..\LIB\BULLETPHYSICS\SRC /I..\LIB\DIRECTXTEX\INC /I..\LIB\DIRECTXTK\INC /I..\LIB\JSON11 /I..\LIB\IMGUI /I..\LIB\OPENVR /I..\LIB\CEREAL /I..\LIB /I..\LIB\EFFEKSEER\INCLUDE /I..\COMMON /IC:\BITBUCKET\SPRINTBURST\ /ZI /JMC /nologo /W3 /WX- /diagnostics:classic /Od /Ob2 /Oy- /D WIN32 /D _DEBUG /D _WINDOWS /D DEBUG_DIRECT3D11 /D _MBCS /Gm- /EHsc /RTC1 /MTd /GS /fp:precise /Zc:wchar_t /Zc:forScope /Zc:inline /Yu"pch.h" /Fp"SERVER\DEBUG\SERVER.PCH" /Fo"SERVER\DEBUG\\" /Fd"SERVER\DEBUG\VC141.PDB" /Gd /TP /FIPCH.H /analyze- /FC C:\BITBUCKET\SPRINTBURST\EZLIB\NETWORK\NETWORKCOMMON.CPP
^C:\BITBUCKET\SPRINTBURST\EZLIB\NETWORK\ZCLIENT.CPP
/c /I.\SRC /I..\EZLIB /I..\LIB\BULLETPHYSICS\SRC /I..\LIB\DIRECTXTEX\INC /I..\LIB\DIRECTXTK\INC /I..\LIB\JSON11 /I..\LIB\IMGUI /I..\LIB\OPENVR /I..\LIB\CEREAL /I..\LIB /I..\LIB\EFFEKSEER\INCLUDE /I..\COMMON /IC:\BITBUCKET\SPRINTBURST\ /ZI /JMC /nologo /W3 /WX- /diagnostics:classic /Od /Ob2 /Oy- /D WIN32 /D _DEBUG /D _WINDOWS /D DEBUG_DIRECT3D11 /D _MBCS /Gm- /EHsc /RTC1 /MTd /GS /fp:precise /Zc:wchar_t /Zc:forScope /Zc:inline /Yu"pch.h" /Fp"SERVER\DEBUG\SERVER.PCH" /Fo"SERVER\DEBUG\\" /Fd"SERVER\DEBUG\VC141.PDB" /Gd /TP /FIPCH.H /analyze- /FC C:\BITBUCKET\SPRINTBURST\EZLIB\NETWORK\ZCLIENT.CPP
^C:\BITBUCKET\SPRINTBURST\EZLIB\NETWORK\ZSERVER.CPP
/c /I.\SRC /I..\EZLIB /I..\LIB\BULLETPHYSICS\SRC /I..\LIB\DIRECTXTEX\INC /I..\LIB\DIRECTXTK\INC /I..\LIB\JSON11 /I..\LIB\IMGUI /I..\LIB\OPENVR /I..\LIB\CEREAL /I..\LIB /I..\LIB\EFFEKSEER\INCLUDE /I..\COMMON /IC:\BITBUCKET\SPRINTBURST\ /ZI /JMC /nologo /W3 /WX- /diagnostics:classic /Od /Ob2 /Oy- /D WIN32 /D _DEBUG /D _WINDOWS /D DEBUG_DIRECT3D11 /D _MBCS /Gm- /EHsc /RTC1 /MTd /GS /fp:precise /Zc:wchar_t /Zc:forScope /Zc:inline /Yu"pch.h" /Fp"SERVER\DEBUG\SERVER.PCH" /Fo"SERVER\DEBUG\\" /Fd"SERVER\DEBUG\VC141.PDB" /Gd /TP /FIPCH.H /analyze- /FC C:\BITBUCKET\SPRINTBURST\EZLIB\NETWORK\ZSERVER.CPP
^C:\BITBUCKET\SPRINTBURST\EZLIB\PHYSICS\ZBULLETPHYSICSENGINE.CPP
/c /I.\SRC /I..\EZLIB /I..\LIB\BULLETPHYSICS\SRC /I..\LIB\DIRECTXTEX\INC /I..\LIB\DIRECTXTK\INC /I..\LIB\JSON11 /I..\LIB\IMGUI /I..\LIB\OPENVR /I..\LIB\CEREAL /I..\LIB /I..\LIB\EFFEKSEER\INCLUDE /I..\COMMON /IC:\BITBUCKET\SPRINTBURST\ /ZI /JMC /nologo /W3 /WX- /diagnostics:classic /Od /Ob2 /Oy- /D WIN32 /D _DEBUG /D _WINDOWS /D DEBUG_DIRECT3D11 /D _MBCS /Gm- /EHsc /RTC1 /MTd /GS /fp:precise /Zc:wchar_t /Zc:forScope /Zc:inline /Yu"pch.h" /Fp"SERVER\DEBUG\SERVER.PCH" /Fo"SERVER\DEBUG\\" /Fd"SERVER\DEBUG\VC141.PDB" /Gd /TP /FIPCH.H /analyze- /FC C:\BITBUCKET\SPRINTBURST\EZLIB\PHYSICS\ZBULLETPHYSICSENGINE.CPP
^C:\BITBUCKET\SPRINTBURST\EZLIB\PHYSICS\ZBULLET_DEBUGDRAW.CPP
/c /I.\SRC /I..\EZLIB /I..\LIB\BULLETPHYSICS\SRC /I..\LIB\DIRECTXTEX\INC /I..\LIB\DIRECTXTK\INC /I..\LIB\JSON11 /I..\LIB\IMGUI /I..\LIB\OPENVR /I..\LIB\CEREAL /I..\LIB /I..\LIB\EFFEKSEER\INCLUDE /I..\COMMON /IC:\BITBUCKET\SPRINTBURST\ /ZI /JMC /nologo /W3 /WX- /diagnostics:classic /Od /Ob2 /Oy- /D WIN32 /D _DEBUG /D _WINDOWS /D DEBUG_DIRECT3D11 /D _MBCS /Gm- /EHsc /RTC1 /MTd /GS /fp:precise /Zc:wchar_t /Zc:forScope /Zc:inline /Yu"pch.h" /Fp"SERVER\DEBUG\SERVER.PCH" /Fo"SERVER\DEBUG\\" /Fd"SERVER\DEBUG\VC141.PDB" /Gd /TP /FIPCH.H /analyze- /FC C:\BITBUCKET\SPRINTBURST\EZLIB\PHYSICS\ZBULLET_DEBUGDRAW.CPP
^C:\BITBUCKET\SPRINTBURST\EZLIB\PHYSICS\ZBULLET_JOINT.CPP
/c /I.\SRC /I..\EZLIB /I..\LIB\BULLETPHYSICS\SRC /I..\LIB\DIRECTXTEX\INC /I..\LIB\DIRECTXTK\INC /I..\LIB\JSON11 /I..\LIB\IMGUI /I..\LIB\OPENVR /I..\LIB\CEREAL /I..\LIB /I..\LIB\EFFEKSEER\INCLUDE /I..\COMMON /IC:\BITBUCKET\SPRINTBURST\ /ZI /JMC /nologo /W3 /WX- /diagnostics:classic /Od /Ob2 /Oy- /D WIN32 /D _DEBUG /D _WINDOWS /D DEBUG_DIRECT3D11 /D _MBCS /Gm- /EHsc /RTC1 /MTd /GS /fp:precise /Zc:wchar_t /Zc:forScope /Zc:inline /Yu"pch.h" /Fp"SERVER\DEBUG\SERVER.PCH" /Fo"SERVER\DEBUG\\" /Fd"SERVER\DEBUG\VC141.PDB" /Gd /TP /FIPCH.H /analyze- /FC C:\BITBUCKET\SPRINTBURST\EZLIB\PHYSICS\ZBULLET_JOINT.CPP
^C:\BITBUCKET\SPRINTBURST\EZLIB\PHYSICS\ZBULLET_RIGIDBODY.CPP
/c /I.\SRC /I..\EZLIB /I..\LIB\BULLETPHYSICS\SRC /I..\LIB\DIRECTXTEX\INC /I..\LIB\DIRECTXTK\INC /I..\LIB\JSON11 /I..\LIB\IMGUI /I..\LIB\OPENVR /I..\LIB\CEREAL /I..\LIB /I..\LIB\EFFEKSEER\INCLUDE /I..\COMMON /IC:\BITBUCKET\SPRINTBURST\ /ZI /JMC /nologo /W3 /WX- /diagnostics:classic /Od /Ob2 /Oy- /D WIN32 /D _DEBUG /D _WINDOWS /D DEBUG_DIRECT3D11 /D _MBCS /Gm- /EHsc /RTC1 /MTd /GS /fp:precise /Zc:wchar_t /Zc:forScope /Zc:inline /Yu"pch.h" /Fp"SERVER\DEBUG\SERVER.PCH" /Fo"SERVER\DEBUG\\" /Fd"SERVER\DEBUG\VC141.PDB" /Gd /TP /FIPCH.H /analyze- /FC C:\BITBUCKET\SPRINTBURST\EZLIB\PHYSICS\ZBULLET_RIGIDBODY.CPP
^C:\BITBUCKET\SPRINTBURST\EZLIB\PHYSICS\ZBULLET_SHAPE.CPP
/c /I.\SRC /I..\EZLIB /I..\LIB\BULLETPHYSICS\SRC /I..\LIB\DIRECTXTEX\INC /I..\LIB\DIRECTXTK\INC /I..\LIB\JSON11 /I..\LIB\IMGUI /I..\LIB\OPENVR /I..\LIB\CEREAL /I..\LIB /I..\LIB\EFFEKSEER\INCLUDE /I..\COMMON /IC:\BITBUCKET\SPRINTBURST\ /ZI /JMC /nologo /W3 /WX- /diagnostics:classic /Od /Ob2 /Oy- /D WIN32 /D _DEBUG /D _WINDOWS /D DEBUG_DIRECT3D11 /D _MBCS /Gm- /EHsc /RTC1 /MTd /GS /fp:precise /Zc:wchar_t /Zc:forScope /Zc:inline /Yu"pch.h" /Fp"SERVER\DEBUG\SERVER.PCH" /Fo"SERVER\DEBUG\\" /Fd"SERVER\DEBUG\VC141.PDB" /Gd /TP /FIPCH.H /analyze- /FC C:\BITBUCKET\SPRINTBURST\EZLIB\PHYSICS\ZBULLET_SHAPE.CPP
^C:\BITBUCKET\SPRINTBURST\EZLIB\SCENE\ZSCENE.CPP
/c /I.\SRC /I..\EZLIB /I..\LIB\BULLETPHYSICS\SRC /I..\LIB\DIRECTXTEX\INC /I..\LIB\DIRECTXTK\INC /I..\LIB\JSON11 /I..\LIB\IMGUI /I..\LIB\OPENVR /I..\LIB\CEREAL /I..\LIB /I..\LIB\EFFEKSEER\INCLUDE /I..\COMMON /IC:\BITBUCKET\SPRINTBURST\ /ZI /JMC /nologo /W3 /WX- /diagnostics:classic /Od /Ob2 /Oy- /D WIN32 /D _DEBUG /D _WINDOWS /D DEBUG_DIRECT3D11 /D _MBCS /Gm- /EHsc /RTC1 /MTd /GS /fp:precise /Zc:wchar_t /Zc:forScope /Zc:inline /Yu"pch.h" /Fp"SERVER\DEBUG\SERVER.PCH" /Fo"SERVER\DEBUG\\" /Fd"SERVER\DEBUG\VC141.PDB" /Gd /TP /FIPCH.H /analyze- /FC C:\BITBUCKET\SPRINTBURST\EZLIB\SCENE\ZSCENE.CPP
^C:\BITBUCKET\SPRINTBURST\EZLIB\SOUNDS\ZSOUND.CPP
/c /I.\SRC /I..\EZLIB /I..\LIB\BULLETPHYSICS\SRC /I..\LIB\DIRECTXTEX\INC /I..\LIB\DIRECTXTK\INC /I..\LIB\JSON11 /I..\LIB\IMGUI /I..\LIB\OPENVR /I..\LIB\CEREAL /I..\LIB /I..\LIB\EFFEKSEER\INCLUDE /I..\COMMON /IC:\BITBUCKET\SPRINTBURST\ /ZI /JMC /nologo /W3 /WX- /diagnostics:classic /Od /Ob2 /Oy- /D WIN32 /D _DEBUG /D _WINDOWS /D DEBUG_DIRECT3D11 /D _MBCS /Gm- /EHsc /RTC1 /MTd /GS /fp:precise /Zc:wchar_t /Zc:forScope /Zc:inline /Yu"pch.h" /Fp"SERVER\DEBUG\SERVER.PCH" /Fo"SERVER\DEBUG\\" /Fd"SERVER\DEBUG\VC141.PDB" /Gd /TP /FIPCH.H /analyze- /FC C:\BITBUCKET\SPRINTBURST\EZLIB\SOUNDS\ZSOUND.CPP
^C:\BITBUCKET\SPRINTBURST\EZLIB\SUBSYSTEM\ZSUBSYSTEM.CPP
/c /I.\SRC /I..\EZLIB /I..\LIB\BULLETPHYSICS\SRC /I..\LIB\DIRECTXTEX\INC /I..\LIB\DIRECTXTK\INC /I..\LIB\JSON11 /I..\LIB\IMGUI /I..\LIB\OPENVR /I..\LIB\CEREAL /I..\LIB /I..\LIB\EFFEKSEER\INCLUDE /I..\COMMON /IC:\BITBUCKET\SPRINTBURST\ /ZI /JMC /nologo /W3 /WX- /diagnostics:classic /Od /Ob2 /Oy- /D WIN32 /D _DEBUG /D _WINDOWS /D DEBUG_DIRECT3D11 /D _MBCS /Gm- /EHsc /RTC1 /MTd /GS /fp:precise /Zc:wchar_t /Zc:forScope /Zc:inline /Yu"pch.h" /Fp"SERVER\DEBUG\SERVER.PCH" /Fo"SERVER\DEBUG\\" /Fd"SERVER\DEBUG\VC141.PDB" /Gd /TP /FIPCH.H /analyze- /FC C:\BITBUCKET\SPRINTBURST\EZLIB\SUBSYSTEM\ZSUBSYSTEM.CPP
^C:\BITBUCKET\SPRINTBURST\EZLIB\TOOLS\CSV\ZCSV.CPP
/c /I.\SRC /I..\EZLIB /I..\LIB\BULLETPHYSICS\SRC /I..\LIB\DIRECTXTEX\INC /I..\LIB\DIRECTXTK\INC /I..\LIB\JSON11 /I..\LIB\IMGUI /I..\LIB\OPENVR /I..\LIB\CEREAL /I..\LIB /I..\LIB\EFFEKSEER\INCLUDE /I..\COMMON /IC:\BITBUCKET\SPRINTBURST\ /ZI /JMC /nologo /W3 /WX- /diagnostics:classic /Od /Ob2 /Oy- /D WIN32 /D _DEBUG /D _WINDOWS /D DEBUG_DIRECT3D11 /D _MBCS /Gm- /EHsc /RTC1 /MTd /GS /fp:precise /Zc:wchar_t /Zc:forScope /Zc:inline /Yu"pch.h" /Fp"SERVER\DEBUG\SERVER.PCH" /Fo"SERVER\DEBUG\\" /Fd"SERVER\DEBUG\VC141.PDB" /Gd /TP /FIPCH.H /analyze- /FC C:\BITBUCKET\SPRINTBURST\EZLIB\TOOLS\CSV\ZCSV.CPP
^C:\BITBUCKET\SPRINTBURST\EZLIB\TOOLS\XEDLOADER\ZXEDLOADER.CPP
/c /I.\SRC /I..\EZLIB /I..\LIB\BULLETPHYSICS\SRC /I..\LIB\DIRECTXTEX\INC /I..\LIB\DIRECTXTK\INC /I..\LIB\JSON11 /I..\LIB\IMGUI /I..\LIB\OPENVR /I..\LIB\CEREAL /I..\LIB /I..\LIB\EFFEKSEER\INCLUDE /I..\COMMON /IC:\BITBUCKET\SPRINTBURST\ /ZI /JMC /nologo /W3 /WX- /diagnostics:classic /Od /Ob2 /Oy- /D WIN32 /D _DEBUG /D _WINDOWS /D DEBUG_DIRECT3D11 /D _MBCS /Gm- /EHsc /RTC1 /MTd /GS /fp:precise /Zc:wchar_t /Zc:forScope /Zc:inline /Yu"pch.h" /Fp"SERVER\DEBUG\SERVER.PCH" /Fo"SERVER\DEBUG\\" /Fd"SERVER\DEBUG\VC141.PDB" /Gd /TP /FIPCH.H /analyze- /FC C:\BITBUCKET\SPRINTBURST\EZLIB\TOOLS\XEDLOADER\ZXEDLOADER.CPP
^C:\BITBUCKET\SPRINTBURST\EZLIB\TOOLS\ZRESOURCESTORAGE.CPP
/c /I.\SRC /I..\EZLIB /I..\LIB\BULLETPHYSICS\SRC /I..\LIB\DIRECTXTEX\INC /I..\LIB\DIRECTXTK\INC /I..\LIB\JSON11 /I..\LIB\IMGUI /I..\LIB\OPENVR /I..\LIB\CEREAL /I..\LIB /I..\LIB\EFFEKSEER\INCLUDE /I..\COMMON /IC:\BITBUCKET\SPRINTBURST\ /ZI /JMC /nologo /W3 /WX- /diagnostics:classic /Od /Ob2 /Oy- /D WIN32 /D _DEBUG /D _WINDOWS /D DEBUG_DIRECT3D11 /D _MBCS /Gm- /EHsc /RTC1 /MTd /GS /fp:precise /Zc:wchar_t /Zc:forScope /Zc:inline /Yu"pch.h" /Fp"SERVER\DEBUG\SERVER.PCH" /Fo"SERVER\DEBUG\\" /Fd"SERVER\DEBUG\VC141.PDB" /Gd /TP /FIPCH.H /analyze- /FC C:\BITBUCKET\SPRINTBURST\EZLIB\TOOLS\ZRESOURCESTORAGE.CPP
^C:\BITBUCKET\SPRINTBURST\EZLIB\UTILS\TEXTFILEREADER.CPP
/c /I.\SRC /I..\EZLIB /I..\LIB\BULLETPHYSICS\SRC /I..\LIB\DIRECTXTEX\INC /I..\LIB\DIRECTXTK\INC /I..\LIB\JSON11 /I..\LIB\IMGUI /I..\LIB\OPENVR /I..\LIB\CEREAL /I..\LIB /I..\LIB\EFFEKSEER\INCLUDE /I..\COMMON /IC:\BITBUCKET\SPRINTBURST\ /ZI /JMC /nologo /W3 /WX- /diagnostics:classic /Od /Ob2 /Oy- /D WIN32 /D _DEBUG /D _WINDOWS /D DEBUG_DIRECT3D11 /D _MBCS /Gm- /EHsc /RTC1 /MTd /GS /fp:precise /Zc:wchar_t /Zc:forScope /Zc:inline /Yu"pch.h" /Fp"SERVER\DEBUG\SERVER.PCH" /Fo"SERVER\DEBUG\\" /Fd"SERVER\DEBUG\VC141.PDB" /Gd /TP /FIPCH.H /analyze- /FC C:\BITBUCKET\SPRINTBURST\EZLIB\UTILS\TEXTFILEREADER.CPP
^C:\BITBUCKET\SPRINTBURST\EZLIB\UTILS\ZFILE.CPP
/c /I.\SRC /I..\EZLIB /I..\LIB\BULLETPHYSICS\SRC /I..\LIB\DIRECTXTEX\INC /I..\LIB\DIRECTXTK\INC /I..\LIB\JSON11 /I..\LIB\IMGUI /I..\LIB\OPENVR /I..\LIB\CEREAL /I..\LIB /I..\LIB\EFFEKSEER\INCLUDE /I..\COMMON /IC:\BITBUCKET\SPRINTBURST\ /ZI /JMC /nologo /W3 /WX- /diagnostics:classic /Od /Ob2 /Oy- /D WIN32 /D _DEBUG /D _WINDOWS /D DEBUG_DIRECT3D11 /D _MBCS /Gm- /EHsc /RTC1 /MTd /GS /fp:precise /Zc:wchar_t /Zc:forScope /Zc:inline /Yu"pch.h" /Fp"SERVER\DEBUG\SERVER.PCH" /Fo"SERVER\DEBUG\\" /Fd"SERVER\DEBUG\VC141.PDB" /Gd /TP /FIPCH.H /analyze- /FC C:\BITBUCKET\SPRINTBURST\EZLIB\UTILS\ZFILE.CPP
^C:\BITBUCKET\SPRINTBURST\EZLIB\UTILS\ZMTRAND.CPP
/c /I.\SRC /I..\EZLIB /I..\LIB\BULLETPHYSICS\SRC /I..\LIB\DIRECTXTEX\INC /I..\LIB\DIRECTXTK\INC /I..\LIB\JSON11 /I..\LIB\IMGUI /I..\LIB\OPENVR /I..\LIB\CEREAL /I..\LIB /I..\LIB\EFFEKSEER\INCLUDE /I..\COMMON /IC:\BITBUCKET\SPRINTBURST\ /ZI /JMC /nologo /W3 /WX- /diagnostics:classic /Od /Ob2 /Oy- /D WIN32 /D _DEBUG /D _WINDOWS /D DEBUG_DIRECT3D11 /D _MBCS /Gm- /EHsc /RTC1 /MTd /GS /fp:precise /Zc:wchar_t /Zc:forScope /Zc:inline /Yu"pch.h" /Fp"SERVER\DEBUG\SERVER.PCH" /Fo"SERVER\DEBUG\\" /Fd"SERVER\DEBUG\VC141.PDB" /Gd /TP /FIPCH.H /analyze- /FC C:\BITBUCKET\SPRINTBURST\EZLIB\UTILS\ZMTRAND.CPP
^C:\BITBUCKET\SPRINTBURST\EZLIB\UTILS\ZPATHUTIL.CPP
/c /I.\SRC /I..\EZLIB /I..\LIB\BULLETPHYSICS\SRC /I..\LIB\DIRECTXTEX\INC /I..\LIB\DIRECTXTK\INC /I..\LIB\JSON11 /I..\LIB\IMGUI /I..\LIB\OPENVR /I..\LIB\CEREAL /I..\LIB /I..\LIB\EFFEKSEER\INCLUDE /I..\COMMON /IC:\BITBUCKET\SPRINTBURST\ /ZI /JMC /nologo /W3 /WX- /diagnostics:classic /Od /Ob2 /Oy- /D WIN32 /D _DEBUG /D _WINDOWS /D DEBUG_DIRECT3D11 /D _MBCS /Gm- /EHsc /RTC1 /MTd /GS /fp:precise /Zc:wchar_t /Zc:forScope /Zc:inline /Yu"pch.h" /Fp"SERVER\DEBUG\SERVER.PCH" /Fo"SERVER\DEBUG\\" /Fd"SERVER\DEBUG\VC141.PDB" /Gd /TP /FIPCH.H /analyze- /FC C:\BITBUCKET\SPRINTBURST\EZLIB\UTILS\ZPATHUTIL.CPP
^C:\BITBUCKET\SPRINTBURST\EZLIB\UTILS\ZTHREADPOOL.CPP
/c /I.\SRC /I..\EZLIB /I..\LIB\BULLETPHYSICS\SRC /I..\LIB\DIRECTXTEX\INC /I..\LIB\DIRECTXTK\INC /I..\LIB\JSON11 /I..\LIB\IMGUI /I..\LIB\OPENVR /I..\LIB\CEREAL /I..\LIB /I..\LIB\EFFEKSEER\INCLUDE /I..\COMMON /IC:\BITBUCKET\SPRINTBURST\ /ZI /JMC /nologo /W3 /WX- /diagnostics:classic /Od /Ob2 /Oy- /D WIN32 /D _DEBUG /D _WINDOWS /D DEBUG_DIRECT3D11 /D _MBCS /Gm- /EHsc /RTC1 /MTd /GS /fp:precise /Zc:wchar_t /Zc:forScope /Zc:inline /Yu"pch.h" /Fp"SERVER\DEBUG\SERVER.PCH" /Fo"SERVER\DEBUG\\" /Fd"SERVER\DEBUG\VC141.PDB" /Gd /TP /FIPCH.H /analyze- /FC C:\BITBUCKET\SPRINTBURST\EZLIB\UTILS\ZTHREADPOOL.CPP
^C:\BITBUCKET\SPRINTBURST\EZLIB\UTILS\ZUUID.CPP
/c /I.\SRC /I..\EZLIB /I..\LIB\BULLETPHYSICS\SRC /I..\LIB\DIRECTXTEX\INC /I..\LIB\DIRECTXTK\INC /I..\LIB\JSON11 /I..\LIB\IMGUI /I..\LIB\OPENVR /I..\LIB\CEREAL /I..\LIB /I..\LIB\EFFEKSEER\INCLUDE /I..\COMMON /IC:\BITBUCKET\SPRINTBURST\ /ZI /JMC /nologo /W3 /WX- /diagnostics:classic /Od /Ob2 /Oy- /D WIN32 /D _DEBUG /D _WINDOWS /D DEBUG_DIRECT3D11 /D _MBCS /Gm- /EHsc /RTC1 /MTd /GS /fp:precise /Zc:wchar_t /Zc:forScope /Zc:inline /Yu"pch.h" /Fp"SERVER\DEBUG\SERVER.PCH" /Fo"SERVER\DEBUG\\" /Fd"SERVER\DEBUG\VC141.PDB" /Gd /TP /FIPCH.H /analyze- /FC C:\BITBUCKET\SPRINTBURST\EZLIB\UTILS\ZUUID.CPP
^C:\BITBUCKET\SPRINTBURST\EZLIB\UTILS\ZVFS.CPP
/c /I.\SRC /I..\EZLIB /I..\LIB\BULLETPHYSICS\SRC /I..\LIB\DIRECTXTEX\INC /I..\LIB\DIRECTXTK\INC /I..\LIB\JSON11 /I..\LIB\IMGUI /I..\LIB\OPENVR /I..\LIB\CEREAL /I..\LIB /I..\LIB\EFFEKSEER\INCLUDE /I..\COMMON /IC:\BITBUCKET\SPRINTBURST\ /ZI /JMC /nologo /W3 /WX- /diagnostics:classic /Od /Ob2 /Oy- /D WIN32 /D _DEBUG /D _WINDOWS /D DEBUG_DIRECT3D11 /D _MBCS /Gm- /EHsc /RTC1 /MTd /GS /fp:precise /Zc:wchar_t /Zc:forScope /Zc:inline /Yu"pch.h" /Fp"SERVER\DEBUG\SERVER.PCH" /Fo"SERVER\DEBUG\\" /Fd"SERVER\DEBUG\VC141.PDB" /Gd /TP /FIPCH.H /analyze- /FC C:\BITBUCKET\SPRINTBURST\EZLIB\UTILS\ZVFS.CPP
^C:\BITBUCKET\SPRINTBURST\EZLIB\WINDOW\ZWINDOW.CPP
/c /I.\SRC /I..\EZLIB /I..\LIB\BULLETPHYSICS\SRC /I..\LIB\DIRECTXTEX\INC /I..\LIB\DIRECTXTK\INC /I..\LIB\JSON11 /I..\LIB\IMGUI /I..\LIB\OPENVR /I..\LIB\CEREAL /I..\LIB /I..\LIB\EFFEKSEER\INCLUDE /I..\COMMON /IC:\BITBUCKET\SPRINTBURST\ /ZI /JMC /nologo /W3 /WX- /diagnostics:classic /Od /Ob2 /Oy- /D WIN32 /D _DEBUG /D _WINDOWS /D DEBUG_DIRECT3D11 /D _MBCS /Gm- /EHsc /RTC1 /MTd /GS /fp:precise /Zc:wchar_t /Zc:forScope /Zc:inline /Yu"pch.h" /Fp"SERVER\DEBUG\SERVER.PCH" /Fo"SERVER\DEBUG\\" /Fd"SERVER\DEBUG\VC141.PDB" /Gd /TP /FIPCH.H /analyze- /FC C:\BITBUCKET\SPRINTBURST\EZLIB\WINDOW\ZWINDOW.CPP
^C:\BITBUCKET\SPRINTBURST\EZLIB\ZECS\ECS.CPP
/c /I.\SRC /I..\EZLIB /I..\LIB\BULLETPHYSICS\SRC /I..\LIB\DIRECTXTEX\INC /I..\LIB\DIRECTXTK\INC /I..\LIB\JSON11 /I..\LIB\IMGUI /I..\LIB\OPENVR /I..\LIB\CEREAL /I..\LIB /I..\LIB\EFFEKSEER\INCLUDE /I..\COMMON /IC:\BITBUCKET\SPRINTBURST\ /ZI /JMC /nologo /W3 /WX- /diagnostics:classic /Od /Ob2 /Oy- /D WIN32 /D _DEBUG /D _WINDOWS /D DEBUG_DIRECT3D11 /D _MBCS /Gm- /EHsc /RTC1 /MTd /GS /fp:precise /Zc:wchar_t /Zc:forScope /Zc:inline /Yu"pch.h" /Fp"SERVER\DEBUG\SERVER.PCH" /Fo"SERVER\DEBUG\\" /Fd"SERVER\DEBUG\VC141.PDB" /Gd /TP /FIPCH.H /analyze- /FC C:\BITBUCKET\SPRINTBURST\EZLIB\ZECS\ECS.CPP
^C:\BITBUCKET\SPRINTBURST\EZLIB\ZECS\ECSCOMPONENT.CPP
/c /I.\SRC /I..\EZLIB /I..\LIB\BULLETPHYSICS\SRC /I..\LIB\DIRECTXTEX\INC /I..\LIB\DIRECTXTK\INC /I..\LIB\JSON11 /I..\LIB\IMGUI /I..\LIB\OPENVR /I..\LIB\CEREAL /I..\LIB /I..\LIB\EFFEKSEER\INCLUDE /I..\COMMON /IC:\BITBUCKET\SPRINTBURST\ /ZI /JMC /nologo /W3 /WX- /diagnostics:classic /Od /Ob2 /Oy- /D WIN32 /D _DEBUG /D _WINDOWS /D DEBUG_DIRECT3D11 /D _MBCS /Gm- /EHsc /RTC1 /MTd /GS /fp:precise /Zc:wchar_t /Zc:forScope /Zc:inline /Yu"pch.h" /Fp"SERVER\DEBUG\SERVER.PCH" /Fo"SERVER\DEBUG\\" /Fd"SERVER\DEBUG\VC141.PDB" /Gd /TP /FIPCH.H /analyze- /FC C:\BITBUCKET\SPRINTBURST\EZLIB\ZECS\ECSCOMPONENT.CPP
^C:\BITBUCKET\SPRINTBURST\EZLIB\ZECS\ECSENTITY.CPP
/c /I.\SRC /I..\EZLIB /I..\LIB\BULLETPHYSICS\SRC /I..\LIB\DIRECTXTEX\INC /I..\LIB\DIRECTXTK\INC /I..\LIB\JSON11 /I..\LIB\IMGUI /I..\LIB\OPENVR /I..\LIB\CEREAL /I..\LIB /I..\LIB\EFFEKSEER\INCLUDE /I..\COMMON /IC:\BITBUCKET\SPRINTBURST\ /ZI /JMC /nologo /W3 /WX- /diagnostics:classic /Od /Ob2 /Oy- /D WIN32 /D _DEBUG /D _WINDOWS /D DEBUG_DIRECT3D11 /D _MBCS /Gm- /EHsc /RTC1 /MTd /GS /fp:precise /Zc:wchar_t /Zc:forScope /Zc:inline /Yu"pch.h" /Fp"SERVER\DEBUG\SERVER.PCH" /Fo"SERVER\DEBUG\\" /Fd"SERVER\DEBUG\VC141.PDB" /Gd /TP /FIPCH.H /analyze- /FC C:\BITBUCKET\SPRINTBURST\EZLIB\ZECS\ECSENTITY.CPP
^C:\BITBUCKET\SPRINTBURST\EZLIB\ZECS\ECSLISTENER.CPP
/c /I.\SRC /I..\EZLIB /I..\LIB\BULLETPHYSICS\SRC /I..\LIB\DIRECTXTEX\INC /I..\LIB\DIRECTXTK\INC /I..\LIB\JSON11 /I..\LIB\IMGUI /I..\LIB\OPENVR /I..\LIB\CEREAL /I..\LIB /I..\LIB\EFFEKSEER\INCLUDE /I..\COMMON /IC:\BITBUCKET\SPRINTBURST\ /ZI /JMC /nologo /W3 /WX- /diagnostics:classic /Od /Ob2 /Oy- /D WIN32 /D _DEBUG /D _WINDOWS /D DEBUG_DIRECT3D11 /D _MBCS /Gm- /EHsc /RTC1 /MTd /GS /fp:precise /Zc:wchar_t /Zc:forScope /Zc:inline /Yu"pch.h" /Fp"SERVER\DEBUG\SERVER.PCH" /Fo"SERVER\DEBUG\\" /Fd"SERVER\DEBUG\VC141.PDB" /Gd /TP /FIPCH.H /analyze- /FC C:\BITBUCKET\SPRINTBURST\EZLIB\ZECS\ECSLISTENER.CPP
^C:\BITBUCKET\SPRINTBURST\EZLIB\ZECS\ECSSYSTEM.CPP
/c /I.\SRC /I..\EZLIB /I..\LIB\BULLETPHYSICS\SRC /I..\LIB\DIRECTXTEX\INC /I..\LIB\DIRECTXTK\INC /I..\LIB\JSON11 /I..\LIB\IMGUI /I..\LIB\OPENVR /I..\LIB\CEREAL /I..\LIB /I..\LIB\EFFEKSEER\INCLUDE /I..\COMMON /IC:\BITBUCKET\SPRINTBURST\ /ZI /JMC /nologo /W3 /WX- /diagnostics:classic /Od /Ob2 /Oy- /D WIN32 /D _DEBUG /D _WINDOWS /D DEBUG_DIRECT3D11 /D _MBCS /Gm- /EHsc /RTC1 /MTd /GS /fp:precise /Zc:wchar_t /Zc:forScope /Zc:inline /Yu"pch.h" /Fp"SERVER\DEBUG\SERVER.PCH" /Fo"SERVER\DEBUG\\" /Fd"SERVER\DEBUG\VC141.PDB" /Gd /TP /FIPCH.H /analyze- /FC C:\BITBUCKET\SPRINTBURST\EZLIB\ZECS\ECSSYSTEM.CPP
^C:\BITBUCKET\SPRINTBURST\EZLIB\ZHELPER.CPP
/c /I.\SRC /I..\EZLIB /I..\LIB\BULLETPHYSICS\SRC /I..\LIB\DIRECTXTEX\INC /I..\LIB\DIRECTXTK\INC /I..\LIB\JSON11 /I..\LIB\IMGUI /I..\LIB\OPENVR /I..\LIB\CEREAL /I..\LIB /I..\LIB\EFFEKSEER\INCLUDE /I..\COMMON /IC:\BITBUCKET\SPRINTBURST\ /ZI /JMC /nologo /W3 /WX- /diagnostics:classic /Od /Ob2 /Oy- /D WIN32 /D _DEBUG /D _WINDOWS /D DEBUG_DIRECT3D11 /D _MBCS /Gm- /EHsc /RTC1 /MTd /GS /fp:precise /Zc:wchar_t /Zc:forScope /Zc:inline /Yu"pch.h" /Fp"SERVER\DEBUG\SERVER.PCH" /Fo"SERVER\DEBUG\\" /Fd"SERVER\DEBUG\VC141.PDB" /Gd /TP /FIPCH.H /analyze- /FC C:\BITBUCKET\SPRINTBURST\EZLIB\ZHELPER.CPP
^C:\BITBUCKET\SPRINTBURST\LIB\IMGUI\IMGUI.CPP
/c /I.\SRC /I..\EZLIB /I..\LIB\BULLETPHYSICS\SRC /I..\LIB\DIRECTXTEX\INC /I..\LIB\DIRECTXTK\INC /I..\LIB\JSON11 /I..\LIB\IMGUI /I..\LIB\OPENVR /I..\LIB\CEREAL /I..\LIB /I..\LIB\EFFEKSEER\INCLUDE /I..\COMMON /IC:\BITBUCKET\SPRINTBURST\ /ZI /JMC /nologo /W3 /WX- /diagnostics:classic /Od /Ob2 /Oy- /D WIN32 /D _DEBUG /D _WINDOWS /D DEBUG_DIRECT3D11 /D _MBCS /Gm- /EHsc /RTC1 /MTd /GS /fp:precise /Zc:wchar_t /Zc:forScope /Zc:inline /Yu"pch.h" /Fp"SERVER\DEBUG\SERVER.PCH" /Fo"SERVER\DEBUG\\" /Fd"SERVER\DEBUG\VC141.PDB" /Gd /TP /FIPCH.H /analyze- /FC C:\BITBUCKET\SPRINTBURST\LIB\IMGUI\IMGUI.CPP
^C:\BITBUCKET\SPRINTBURST\LIB\IMGUI\IMGUI_DEMO.CPP
/c /I.\SRC /I..\EZLIB /I..\LIB\BULLETPHYSICS\SRC /I..\LIB\DIRECTXTEX\INC /I..\LIB\DIRECTXTK\INC /I..\LIB\JSON11 /I..\LIB\IMGUI /I..\LIB\OPENVR /I..\LIB\CEREAL /I..\LIB /I..\LIB\EFFEKSEER\INCLUDE /I..\COMMON /IC:\BITBUCKET\SPRINTBURST\ /ZI /JMC /nologo /W3 /WX- /diagnostics:classic /Od /Ob2 /Oy- /D WIN32 /D _DEBUG /D _WINDOWS /D DEBUG_DIRECT3D11 /D _MBCS /Gm- /EHsc /RTC1 /MTd /GS /fp:precise /Zc:wchar_t /Zc:forScope /Zc:inline /Yu"pch.h" /Fp"SERVER\DEBUG\SERVER.PCH" /Fo"SERVER\DEBUG\\" /Fd"SERVER\DEBUG\VC141.PDB" /Gd /TP /FIPCH.H /analyze- /FC C:\BITBUCKET\SPRINTBURST\LIB\IMGUI\IMGUI_DEMO.CPP
^C:\BITBUCKET\SPRINTBURST\LIB\IMGUI\IMGUI_DRAW.CPP
/c /I.\SRC /I..\EZLIB /I..\LIB\BULLETPHYSICS\SRC /I..\LIB\DIRECTXTEX\INC /I..\LIB\DIRECTXTK\INC /I..\LIB\JSON11 /I..\LIB\IMGUI /I..\LIB\OPENVR /I..\LIB\CEREAL /I..\LIB /I..\LIB\EFFEKSEER\INCLUDE /I..\COMMON /IC:\BITBUCKET\SPRINTBURST\ /ZI /JMC /nologo /W3 /WX- /diagnostics:classic /Od /Ob2 /Oy- /D WIN32 /D _DEBUG /D _WINDOWS /D DEBUG_DIRECT3D11 /D _MBCS /Gm- /EHsc /RTC1 /MTd /GS /fp:precise /Zc:wchar_t /Zc:forScope /Zc:inline /Yu"pch.h" /Fp"SERVER\DEBUG\SERVER.PCH" /Fo"SERVER\DEBUG\\" /Fd"SERVER\DEBUG\VC141.PDB" /Gd /TP /FIPCH.H /analyze- /FC C:\BITBUCKET\SPRINTBURST\LIB\IMGUI\IMGUI_DRAW.CPP
^C:\BITBUCKET\SPRINTBURST\LIB\IMGUI\IMGUI_IMPL_DX11.CPP
/c /I.\SRC /I..\EZLIB /I..\LIB\BULLETPHYSICS\SRC /I..\LIB\DIRECTXTEX\INC /I..\LIB\DIRECTXTK\INC /I..\LIB\JSON11 /I..\LIB\IMGUI /I..\LIB\OPENVR /I..\LIB\CEREAL /I..\LIB /I..\LIB\EFFEKSEER\INCLUDE /I..\COMMON /IC:\BITBUCKET\SPRINTBURST\ /ZI /JMC /nologo /W3 /WX- /diagnostics:classic /Od /Ob2 /Oy- /D WIN32 /D _DEBUG /D _WINDOWS /D DEBUG_DIRECT3D11 /D _MBCS /Gm- /EHsc /RTC1 /MTd /GS /fp:precise /Zc:wchar_t /Zc:forScope /Zc:inline /Yu"pch.h" /Fp"SERVER\DEBUG\SERVER.PCH" /Fo"SERVER\DEBUG\\" /Fd"SERVER\DEBUG\VC141.PDB" /Gd /TP /FIPCH.H /analyze- /FC C:\BITBUCKET\SPRINTBURST\LIB\IMGUI\IMGUI_IMPL_DX11.CPP
^C:\BITBUCKET\SPRINTBURST\LIB\IMGUI\IMGUI_IMPL_WIN32.CPP
/c /I.\SRC /I..\EZLIB /I..\LIB\BULLETPHYSICS\SRC /I..\LIB\DIRECTXTEX\INC /I..\LIB\DIRECTXTK\INC /I..\LIB\JSON11 /I..\LIB\IMGUI /I..\LIB\OPENVR /I..\LIB\CEREAL /I..\LIB /I..\LIB\EFFEKSEER\INCLUDE /I..\COMMON /IC:\BITBUCKET\SPRINTBURST\ /ZI /JMC /nologo /W3 /WX- /diagnostics:classic /Od /Ob2 /Oy- /D WIN32 /D _DEBUG /D _WINDOWS /D DEBUG_DIRECT3D11 /D _MBCS /Gm- /EHsc /RTC1 /MTd /GS /fp:precise /Zc:wchar_t /Zc:forScope /Zc:inline /Yu"pch.h" /Fp"SERVER\DEBUG\SERVER.PCH" /Fo"SERVER\DEBUG\\" /Fd"SERVER\DEBUG\VC141.PDB" /Gd /TP /FIPCH.H /analyze- /FC C:\BITBUCKET\SPRINTBURST\LIB\IMGUI\IMGUI_IMPL_WIN32.CPP
^C:\BITBUCKET\SPRINTBURST\LIB\IMGUI\IMGUI_WIDGETS.CPP
/c /I.\SRC /I..\EZLIB /I..\LIB\BULLETPHYSICS\SRC /I..\LIB\DIRECTXTEX\INC /I..\LIB\DIRECTXTK\INC /I..\LIB\JSON11 /I..\LIB\IMGUI /I..\LIB\OPENVR /I..\LIB\CEREAL /I..\LIB /I..\LIB\EFFEKSEER\INCLUDE /I..\COMMON /IC:\BITBUCKET\SPRINTBURST\ /ZI /JMC /nologo /W3 /WX- /diagnostics:classic /Od /Ob2 /Oy- /D WIN32 /D _DEBUG /D _WINDOWS /D DEBUG_DIRECT3D11 /D _MBCS /Gm- /EHsc /RTC1 /MTd /GS /fp:precise /Zc:wchar_t /Zc:forScope /Zc:inline /Yu"pch.h" /Fp"SERVER\DEBUG\SERVER.PCH" /Fo"SERVER\DEBUG\\" /Fd"SERVER\DEBUG\VC141.PDB" /Gd /TP /FIPCH.H /analyze- /FC C:\BITBUCKET\SPRINTBURST\LIB\IMGUI\IMGUI_WIDGETS.CPP
^C:\BITBUCKET\SPRINTBURST\LIB\JSON11\JSON11.CPP
/c /I.\SRC /I..\EZLIB /I..\LIB\BULLETPHYSICS\SRC /I..\LIB\DIRECTXTEX\INC /I..\LIB\DIRECTXTK\INC /I..\LIB\JSON11 /I..\LIB\IMGUI /I..\LIB\OPENVR /I..\LIB\CEREAL /I..\LIB /I..\LIB\EFFEKSEER\INCLUDE /I..\COMMON /IC:\BITBUCKET\SPRINTBURST\ /ZI /JMC /nologo /W3 /WX- /diagnostics:classic /Od /Ob2 /Oy- /D WIN32 /D _DEBUG /D _WINDOWS /D DEBUG_DIRECT3D11 /D _MBCS /Gm- /EHsc /RTC1 /MTd /GS /fp:precise /Zc:wchar_t /Zc:forScope /Zc:inline /Yu"pch.h" /Fp"SERVER\DEBUG\SERVER.PCH" /Fo"SERVER\DEBUG\\" /Fd"SERVER\DEBUG\VC141.PDB" /Gd /TP /FIPCH.H /analyze- /FC C:\BITBUCKET\SPRINTBURST\LIB\JSON11\JSON11.CPP
^C:\BITBUCKET\SPRINTBURST\SERVER\SRC\SERVER\SCENE\SERVERSCENE.CPP
/c /I.\SRC /I..\EZLIB /I..\LIB\BULLETPHYSICS\SRC /I..\LIB\DIRECTXTEX\INC /I..\LIB\DIRECTXTK\INC /I..\LIB\JSON11 /I..\LIB\IMGUI /I..\LIB\OPENVR /I..\LIB\CEREAL /I..\LIB /I..\LIB\EFFEKSEER\INCLUDE /I..\COMMON /IC:\BITBUCKET\SPRINTBURST\ /ZI /JMC /nologo /W3 /WX- /diagnostics:classic /Od /Ob2 /Oy- /D WIN32 /D _DEBUG /D _WINDOWS /D DEBUG_DIRECT3D11 /D _MBCS /Gm- /EHsc /RTC1 /MTd /GS /fp:precise /Zc:wchar_t /Zc:forScope /Zc:inline /Yu"pch.h" /Fp"SERVER\DEBUG\SERVER.PCH" /Fo"SERVER\DEBUG\\" /Fd"SERVER\DEBUG\VC141.PDB" /Gd /TP /FIPCH.H /analyze- /FC C:\BITBUCKET\SPRINTBURST\SERVER\SRC\SERVER\SCENE\SERVERSCENE.CPP
^C:\BITBUCKET\SPRINTBURST\SERVER\SRC\SERVER\SERVERAPP.CPP
/c /I.\SRC /I..\EZLIB /I..\LIB\BULLETPHYSICS\SRC /I..\LIB\DIRECTXTEX\INC /I..\LIB\DIRECTXTK\INC /I..\LIB\JSON11 /I..\LIB\IMGUI /I..\LIB\OPENVR /I..\LIB\CEREAL /I..\LIB /I..\LIB\EFFEKSEER\INCLUDE /I..\COMMON /IC:\BITBUCKET\SPRINTBURST\ /ZI /JMC /nologo /W3 /WX- /diagnostics:classic /Od /Ob2 /Oy- /D WIN32 /D _DEBUG /D _WINDOWS /D DEBUG_DIRECT3D11 /D _MBCS /Gm- /EHsc /RTC1 /MTd /GS /fp:precise /Zc:wchar_t /Zc:forScope /Zc:inline /Yu"pch.h" /Fp"SERVER\DEBUG\SERVER.PCH" /Fo"SERVER\DEBUG\\" /Fd"SERVER\DEBUG\VC141.PDB" /Gd /TP /FIPCH.H /analyze- /FC C:\BITBUCKET\SPRINTBURST\SERVER\SRC\SERVER\SERVERAPP.CPP
^C:\BITBUCKET\SPRINTBURST\SERVER\SRC\MAIN.CPP
/c /I.\SRC /I..\EZLIB /I..\LIB\BULLETPHYSICS\SRC /I..\LIB\DIRECTXTEX\INC /I..\LIB\DIRECTXTK\INC /I..\LIB\JSON11 /I..\LIB\IMGUI /I..\LIB\OPENVR /I..\LIB\CEREAL /I..\LIB /I..\LIB\EFFEKSEER\INCLUDE /I..\COMMON /IC:\BITBUCKET\SPRINTBURST\ /ZI /JMC /nologo /W3 /WX- /diagnostics:classic /Od /Ob2 /Oy- /D WIN32 /D _DEBUG /D _WINDOWS /D DEBUG_DIRECT3D11 /D _MBCS /Gm- /EHsc /RTC1 /MTd /GS /fp:precise /Zc:wchar_t /Zc:forScope /Zc:inline /Yu"pch.h" /Fp"SERVER\DEBUG\SERVER.PCH" /Fo"SERVER\DEBUG\\" /Fd"SERVER\DEBUG\VC141.PDB" /Gd /TP /FIPCH.H /analyze- /FC C:\BITBUCKET\SPRINTBURST\SERVER\SRC\MAIN.CPP
