^C:\BITBUCKET\SPRINTBURST\SERVER\DEBUG\DEBUGWINDOW.OBJ|C:\BITBUCKET\SPRINTBURST\SERVER\DEBUG\ECS.OBJ|C:\BITBUCKET\SPRINTBURST\SERVER\DEBUG\ECSCOMPONENT.OBJ|C:\BITBUCKET\SPRINTBURST\SERVER\DEBUG\ECSENTITY.OBJ|C:\BITBUCKET\SPRINTBURST\SERVER\DEBUG\ECSLISTENER.OBJ|C:\BITBUCKET\SPRINTBURST\SERVER\DEBUG\ECSSYSTEM.OBJ|C:\BITBUCKET\SPRINTBURST\SERVER\DEBUG\IMGUI.OBJ|C:\BITBUCKET\SPRINTBURST\SERVER\DEBUG\IMGUI_DEMO.OBJ|C:\BITBUCKET\SPRINTBURST\SERVER\DEBUG\IMGUI_DRAW.OBJ|C:\BITBUCKET\SPRINTBURST\SERVER\DEBUG\IMGUI_IMPL_DX11.OBJ|C:\BITBUCKET\SPRINTBURST\SERVER\DEBUG\IMGUI_IMPL_WIN32.OBJ|C:\BITBUCKET\SPRINTBURST\SERVER\DEBUG\IMGUI_WIDGETS.OBJ|C:\BITBUCKET\SPRINTBURST\SERVER\DEBUG\JSON11.OBJ|C:\BITBUCKET\SPRINTBURST\SERVER\DEBUG\MAIN.OBJ|C:\BITBUCKET\SPRINTBURST\SERVER\DEBUG\MEMORY.OBJ|C:\BITBUCKET\SPRINTBURST\SERVER\DEBUG\NETWORKCOMMON.OBJ|C:\BITBUCKET\SPRINTBURST\SERVER\DEBUG\PCH.OBJ|C:\BITBUCKET\SPRINTBURST\SERVER\DEBUG\SERVERAPP.OBJ|C:\BITBUCKET\SPRINTBURST\SERVER\DEBUG\SERVERSCENE.OBJ|C:\BITBUCKET\SPRINTBURST\SERVER\DEBUG\TEXTFILEREADER.OBJ|C:\BITBUCKET\SPRINTBURST\SERVER\DEBUG\ZBILLBOARD.OBJ|C:\BITBUCKET\SPRINTBURST\SERVER\DEBUG\ZBONECONTROLLER.OBJ|C:\BITBUCKET\SPRINTBURST\SERVER\DEBUG\ZBULLETPHYSICSENGINE.OBJ|C:\BITBUCKET\SPRINTBURST\SERVER\DEBUG\ZBULLET_DEBUGDRAW.OBJ|C:\BITBUCKET\SPRINTBURST\SERVER\DEBUG\ZBULLET_JOINT.OBJ|C:\BITBUCKET\SPRINTBURST\SERVER\DEBUG\ZBULLET_RIGIDBODY.OBJ|C:\BITBUCKET\SPRINTBURST\SERVER\DEBUG\ZBULLET_SHAPE.OBJ|C:\BITBUCKET\SPRINTBURST\SERVER\DEBUG\ZCAMERA.OBJ|C:\BITBUCKET\SPRINTBURST\SERVER\DEBUG\ZCLIENT.OBJ|C:\BITBUCKET\SPRINTBURST\SERVER\DEBUG\ZCOLLISION.OBJ|C:\BITBUCKET\SPRINTBURST\SERVER\DEBUG\ZCSV.OBJ|C:\BITBUCKET\SPRINTBURST\SERVER\DEBUG\ZDIRECTXGRAPHICS.OBJ|C:\BITBUCKET\SPRINTBURST\SERVER\DEBUG\ZEFFECTMANAGER.OBJ|C:\BITBUCKET\SPRINTBURST\SERVER\DEBUG\ZFILE.OBJ|C:\BITBUCKET\SPRINTBURST\SERVER\DEBUG\ZFONT.OBJ|C:\BITBUCKET\SPRINTBURST\SERVER\DEBUG\ZGAMEMODEL.OBJ|C:\BITBUCKET\SPRINTBURST\SERVER\DEBUG\ZHELPER.OBJ|C:\BITBUCKET\SPRINTBURST\SERVER\DEBUG\ZINPUT.OBJ|C:\BITBUCKET\SPRINTBURST\SERVER\DEBUG\ZKEYFRAMEANIMATION.OBJ|C:\BITBUCKET\SPRINTBURST\SERVER\DEBUG\ZLASER.OBJ|C:\BITBUCKET\SPRINTBURST\SERVER\DEBUG\ZMAINFRAME.OBJ|C:\BITBUCKET\SPRINTBURST\SERVER\DEBUG\ZMATRIX.OBJ|C:\BITBUCKET\SPRINTBURST\SERVER\DEBUG\ZMEMORYALLOCATOR.OBJ|C:\BITBUCKET\SPRINTBURST\SERVER\DEBUG\ZMESH.OBJ|C:\BITBUCKET\SPRINTBURST\SERVER\DEBUG\ZMMDMATERIAL.OBJ|C:\BITBUCKET\SPRINTBURST\SERVER\DEBUG\ZMTRAND.OBJ|C:\BITBUCKET\SPRINTBURST\SERVER\DEBUG\ZPATHUTIL.OBJ|C:\BITBUCKET\SPRINTBURST\SERVER\DEBUG\ZPIXELSHADER.OBJ|C:\BITBUCKET\SPRINTBURST\SERVER\DEBUG\ZPMD.OBJ|C:\BITBUCKET\SPRINTBURST\SERVER\DEBUG\ZPMX.OBJ|C:\BITBUCKET\SPRINTBURST\SERVER\DEBUG\ZPMX2ZGAMEMODEL.OBJ|C:\BITBUCKET\SPRINTBURST\SERVER\DEBUG\ZPOLYGON.OBJ|C:\BITBUCKET\SPRINTBURST\SERVER\DEBUG\ZPOSTEFFECTS.OBJ|C:\BITBUCKET\SPRINTBURST\SERVER\DEBUG\ZQUAT.OBJ|C:\BITBUCKET\SPRINTBURST\SERVER\DEBUG\ZRESOURCESTORAGE.OBJ|C:\BITBUCKET\SPRINTBURST\SERVER\DEBUG\ZSCENE.OBJ|C:\BITBUCKET\SPRINTBURST\SERVER\DEBUG\ZSERVER.OBJ|C:\BITBUCKET\SPRINTBURST\SERVER\DEBUG\ZSHADERSET.OBJ|C:\BITBUCKET\SPRINTBURST\SERVER\DEBUG\ZSINGLEMODEL.OBJ|C:\BITBUCKET\SPRINTBURST\SERVER\DEBUG\ZSMARTPOINTER.OBJ|C:\BITBUCKET\SPRINTBURST\SERVER\DEBUG\ZSOUND.OBJ|C:\BITBUCKET\SPRINTBURST\SERVER\DEBUG\ZSTATES.OBJ|C:\BITBUCKET\SPRINTBURST\SERVER\DEBUG\ZSUBSYSTEM.OBJ|C:\BITBUCKET\SPRINTBURST\SERVER\DEBUG\ZTEXTURE.OBJ|C:\BITBUCKET\SPRINTBURST\SERVER\DEBUG\ZTHREADPOOL.OBJ|C:\BITBUCKET\SPRINTBURST\SERVER\DEBUG\ZUUID.OBJ|C:\BITBUCKET\SPRINTBURST\SERVER\DEBUG\ZUVANIMATION.OBJ|C:\BITBUCKET\SPRINTBURST\SERVER\DEBUG\ZVEC2.OBJ|C:\BITBUCKET\SPRINTBURST\SERVER\DEBUG\ZVEC3.OBJ|C:\BITBUCKET\SPRINTBURST\SERVER\DEBUG\ZVEC4.OBJ|C:\BITBUCKET\SPRINTBURST\SERVER\DEBUG\ZVERTEXSHADER.OBJ|C:\BITBUCKET\SPRINTBURST\SERVER\DEBUG\ZVFS.OBJ|C:\BITBUCKET\SPRINTBURST\SERVER\DEBUG\ZVMD.OBJ|C:\BITBUCKET\SPRINTBURST\SERVER\DEBUG\ZWINDOW.OBJ|C:\BITBUCKET\SPRINTBURST\SERVER\DEBUG\ZXEDLOADER.OBJ
C:\PROGRAM FILES (X86)\WINDOWS KITS\10\LIB\10.0.17763.0\UM\X86\KERNEL32.LIB
C:\PROGRAM FILES (X86)\WINDOWS KITS\10\LIB\10.0.17763.0\UM\X86\USER32.LIB
C:\PROGRAM FILES (X86)\WINDOWS KITS\10\LIB\10.0.17763.0\UM\X86\GDI32.LIB
C:\PROGRAM FILES (X86)\WINDOWS KITS\10\LIB\10.0.17763.0\UM\X86\WINSPOOL.LIB
C:\PROGRAM FILES (X86)\WINDOWS KITS\10\LIB\10.0.17763.0\UM\X86\COMDLG32.LIB
C:\PROGRAM FILES (X86)\WINDOWS KITS\10\LIB\10.0.17763.0\UM\X86\ADVAPI32.LIB
C:\PROGRAM FILES (X86)\WINDOWS KITS\10\LIB\10.0.17763.0\UM\X86\SHELL32.LIB
C:\PROGRAM FILES (X86)\WINDOWS KITS\10\LIB\10.0.17763.0\UM\X86\OLE32.LIB
C:\PROGRAM FILES (X86)\WINDOWS KITS\10\LIB\10.0.17763.0\UM\X86\OLEAUT32.LIB
C:\PROGRAM FILES (X86)\WINDOWS KITS\10\LIB\10.0.17763.0\UM\X86\UUID.LIB
C:\PROGRAM FILES (X86)\WINDOWS KITS\10\LIB\10.0.17763.0\UM\X86\ODBC32.LIB
C:\PROGRAM FILES (X86)\WINDOWS KITS\10\LIB\10.0.17763.0\UM\X86\ODBCCP32.LIB
C:\BITBUCKET\SPRINTBURST\SERVER\DEBUG\ZBONECONTROLLER.OBJ
C:\BITBUCKET\SPRINTBURST\SERVER\DEBUG\ZKEYFRAMEANIMATION.OBJ
C:\BITBUCKET\SPRINTBURST\SERVER\DEBUG\ZUVANIMATION.OBJ
C:\BITBUCKET\SPRINTBURST\SERVER\DEBUG\ZCAMERA.OBJ
C:\BITBUCKET\SPRINTBURST\SERVER\DEBUG\ZCOLLISION.OBJ
C:\BITBUCKET\SPRINTBURST\SERVER\DEBUG\DEBUGWINDOW.OBJ
C:\BITBUCKET\SPRINTBURST\SERVER\DEBUG\ZEFFECTMANAGER.OBJ
C:\BITBUCKET\SPRINTBURST\SERVER\DEBUG\ZFONT.OBJ
C:\BITBUCKET\SPRINTBURST\SERVER\DEBUG\ZBILLBOARD.OBJ
C:\BITBUCKET\SPRINTBURST\SERVER\DEBUG\ZDIRECTXGRAPHICS.OBJ
C:\BITBUCKET\SPRINTBURST\SERVER\DEBUG\ZGAMEMODEL.OBJ
C:\BITBUCKET\SPRINTBURST\SERVER\DEBUG\ZLASER.OBJ
C:\BITBUCKET\SPRINTBURST\SERVER\DEBUG\ZMESH.OBJ
C:\BITBUCKET\SPRINTBURST\SERVER\DEBUG\ZPIXELSHADER.OBJ
C:\BITBUCKET\SPRINTBURST\SERVER\DEBUG\ZPOLYGON.OBJ
C:\BITBUCKET\SPRINTBURST\SERVER\DEBUG\ZPOSTEFFECTS.OBJ
C:\BITBUCKET\SPRINTBURST\SERVER\DEBUG\ZSHADERSET.OBJ
C:\BITBUCKET\SPRINTBURST\SERVER\DEBUG\ZSINGLEMODEL.OBJ
C:\BITBUCKET\SPRINTBURST\SERVER\DEBUG\ZSTATES.OBJ
C:\BITBUCKET\SPRINTBURST\SERVER\DEBUG\ZTEXTURE.OBJ
C:\BITBUCKET\SPRINTBURST\SERVER\DEBUG\ZVERTEXSHADER.OBJ
C:\BITBUCKET\SPRINTBURST\SERVER\DEBUG\ZINPUT.OBJ
C:\BITBUCKET\SPRINTBURST\SERVER\DEBUG\ZMAINFRAME.OBJ
C:\BITBUCKET\SPRINTBURST\SERVER\DEBUG\ZMATRIX.OBJ
C:\BITBUCKET\SPRINTBURST\SERVER\DEBUG\ZQUAT.OBJ
C:\BITBUCKET\SPRINTBURST\SERVER\DEBUG\ZVEC2.OBJ
C:\BITBUCKET\SPRINTBURST\SERVER\DEBUG\ZVEC3.OBJ
C:\BITBUCKET\SPRINTBURST\SERVER\DEBUG\ZVEC4.OBJ
C:\BITBUCKET\SPRINTBURST\SERVER\DEBUG\MEMORY.OBJ
C:\BITBUCKET\SPRINTBURST\SERVER\DEBUG\ZMEMORYALLOCATOR.OBJ
C:\BITBUCKET\SPRINTBURST\SERVER\DEBUG\ZSMARTPOINTER.OBJ
C:\BITBUCKET\SPRINTBURST\SERVER\DEBUG\ZMMDMATERIAL.OBJ
C:\BITBUCKET\SPRINTBURST\SERVER\DEBUG\ZPMD.OBJ
C:\BITBUCKET\SPRINTBURST\SERVER\DEBUG\ZPMX.OBJ
C:\BITBUCKET\SPRINTBURST\SERVER\DEBUG\ZPMX2ZGAMEMODEL.OBJ
C:\BITBUCKET\SPRINTBURST\SERVER\DEBUG\ZVMD.OBJ
C:\BITBUCKET\SPRINTBURST\SERVER\DEBUG\NETWORKCOMMON.OBJ
C:\BITBUCKET\SPRINTBURST\SERVER\DEBUG\ZCLIENT.OBJ
C:\BITBUCKET\SPRINTBURST\SERVER\DEBUG\ZSERVER.OBJ
C:\BITBUCKET\SPRINTBURST\SERVER\DEBUG\PCH.OBJ
C:\BITBUCKET\SPRINTBURST\SERVER\DEBUG\ZBULLETPHYSICSENGINE.OBJ
C:\BITBUCKET\SPRINTBURST\SERVER\DEBUG\ZBULLET_DEBUGDRAW.OBJ
C:\BITBUCKET\SPRINTBURST\SERVER\DEBUG\ZBULLET_JOINT.OBJ
C:\BITBUCKET\SPRINTBURST\SERVER\DEBUG\ZBULLET_RIGIDBODY.OBJ
C:\BITBUCKET\SPRINTBURST\SERVER\DEBUG\ZBULLET_SHAPE.OBJ
C:\BITBUCKET\SPRINTBURST\SERVER\DEBUG\ZSCENE.OBJ
C:\BITBUCKET\SPRINTBURST\SERVER\DEBUG\ZSOUND.OBJ
C:\BITBUCKET\SPRINTBURST\SERVER\DEBUG\ZSUBSYSTEM.OBJ
C:\BITBUCKET\SPRINTBURST\SERVER\DEBUG\ZCSV.OBJ
C:\BITBUCKET\SPRINTBURST\SERVER\DEBUG\ZXEDLOADER.OBJ
C:\BITBUCKET\SPRINTBURST\SERVER\DEBUG\ZRESOURCESTORAGE.OBJ
C:\BITBUCKET\SPRINTBURST\SERVER\DEBUG\TEXTFILEREADER.OBJ
C:\BITBUCKET\SPRINTBURST\SERVER\DEBUG\ZFILE.OBJ
C:\BITBUCKET\SPRINTBURST\SERVER\DEBUG\ZMTRAND.OBJ
C:\BITBUCKET\SPRINTBURST\SERVER\DEBUG\ZPATHUTIL.OBJ
C:\BITBUCKET\SPRINTBURST\SERVER\DEBUG\ZTHREADPOOL.OBJ
C:\BITBUCKET\SPRINTBURST\SERVER\DEBUG\ZUUID.OBJ
C:\BITBUCKET\SPRINTBURST\SERVER\DEBUG\ZVFS.OBJ
C:\BITBUCKET\SPRINTBURST\SERVER\DEBUG\ZWINDOW.OBJ
C:\BITBUCKET\SPRINTBURST\SERVER\DEBUG\ECS.OBJ
C:\BITBUCKET\SPRINTBURST\SERVER\DEBUG\ECSCOMPONENT.OBJ
C:\BITBUCKET\SPRINTBURST\SERVER\DEBUG\ECSENTITY.OBJ
C:\BITBUCKET\SPRINTBURST\SERVER\DEBUG\ECSLISTENER.OBJ
C:\BITBUCKET\SPRINTBURST\SERVER\DEBUG\ECSSYSTEM.OBJ
C:\BITBUCKET\SPRINTBURST\SERVER\DEBUG\ZHELPER.OBJ
C:\BITBUCKET\SPRINTBURST\SERVER\DEBUG\IMGUI.OBJ
C:\BITBUCKET\SPRINTBURST\SERVER\DEBUG\IMGUI_DEMO.OBJ
C:\BITBUCKET\SPRINTBURST\SERVER\DEBUG\IMGUI_DRAW.OBJ
C:\BITBUCKET\SPRINTBURST\SERVER\DEBUG\IMGUI_IMPL_DX11.OBJ
C:\BITBUCKET\SPRINTBURST\SERVER\DEBUG\IMGUI_IMPL_WIN32.OBJ
C:\BITBUCKET\SPRINTBURST\SERVER\DEBUG\IMGUI_WIDGETS.OBJ
C:\BITBUCKET\SPRINTBURST\SERVER\DEBUG\JSON11.OBJ
C:\BITBUCKET\SPRINTBURST\SERVER\DEBUG\MAIN.OBJ
C:\BITBUCKET\SPRINTBURST\SERVER\DEBUG\SERVERSCENE.OBJ
C:\BITBUCKET\SPRINTBURST\SERVER\DEBUG\SERVERAPP.OBJ
C:\WINDOWS\SYSTEM32\TZRES.DLL
C:\WINDOWS\GLOBALIZATION\SORTING\SORTDEFAULT.NLS
C:\PROGRAM FILES (X86)\WINDOWS KITS\10\LIB\10.0.17763.0\UM\X86\D3DCOMPILER.LIB
C:\PROGRAM FILES (X86)\WINDOWS KITS\10\LIB\10.0.17763.0\UM\X86\D3D11.LIB
C:\PROGRAM FILES (X86)\WINDOWS KITS\10\LIB\10.0.17763.0\UM\X86\DXGI.LIB
C:\PROGRAM FILES (X86)\WINDOWS KITS\10\LIB\10.0.17763.0\UM\X86\DXGUID.LIB
C:\PROGRAM FILES (X86)\WINDOWS KITS\10\LIB\10.0.17763.0\UM\X86\DSOUND.LIB
C:\BITBUCKET\SPRINTBURST\LIB\DIRECTXTK\LIB\2017\DEBUG\DIRECTXTK.LIB
C:\BITBUCKET\SPRINTBURST\LIB\DIRECTXTK\LIB\2017\DEBUG\DIRECTXTKAUDIOWIN8.LIB
C:\BITBUCKET\SPRINTBURST\LIB\DIRECTXTEX\LIB\2017\DEBUG\DIRECTXTEX.LIB
C:\BITBUCKET\SPRINTBURST\LIB\BULLETPHYSICS\LIB\DEBUG\BULLETCOLLISION.LIB
C:\BITBUCKET\SPRINTBURST\LIB\BULLETPHYSICS\LIB\DEBUG\BULLETDYNAMICS.LIB
C:\BITBUCKET\SPRINTBURST\LIB\BULLETPHYSICS\LIB\DEBUG\LINEARMATH.LIB
C:\BITBUCKET\SPRINTBURST\LIB\EFFEKSEER\LIB\DEBUG\EFFEKSEER.LIB
C:\BITBUCKET\SPRINTBURST\LIB\EFFEKSEER\LIB\DEBUG\EFFEKSEERRENDERERDX11.LIB
C:\BITBUCKET\SPRINTBURST\LIB\EFFEKSEER\LIB\DEBUG\EFFEKSEERSOUNDXAUDIO2.LIB
C:\BITBUCKET\SPRINTBURST\LIB\ENET\ENET.LIB
C:\PROGRAM FILES (X86)\MICROSOFT VISUAL STUDIO\2017\COMMUNITY\VC\TOOLS\MSVC\14.16.27023\LIB\X86\LIBCPMTD.LIB
C:\PROGRAM FILES (X86)\WINDOWS KITS\10\LIB\10.0.17763.0\UM\X86\WINMM.LIB
C:\PROGRAM FILES (X86)\WINDOWS KITS\10\LIB\10.0.17763.0\UM\X86\WS2_32.LIB
C:\PROGRAM FILES (X86)\WINDOWS KITS\10\LIB\10.0.17763.0\UM\X86\IMM32.LIB
C:\PROGRAM FILES (X86)\WINDOWS KITS\10\LIB\10.0.17763.0\UM\X86\RPCRT4.LIB
C:\PROGRAM FILES (X86)\WINDOWS KITS\10\LIB\10.0.17763.0\UM\X86\XAUDIO2.LIB
C:\PROGRAM FILES (X86)\WINDOWS KITS\10\LIB\10.0.17763.0\UM\X86\GDIPLUS.LIB
C:\PROGRAM FILES (X86)\MICROSOFT VISUAL STUDIO\2017\COMMUNITY\VC\TOOLS\MSVC\14.16.27023\LIB\X86\LIBCMTD.LIB
C:\PROGRAM FILES (X86)\MICROSOFT VISUAL STUDIO\2017\COMMUNITY\VC\TOOLS\MSVC\14.16.27023\LIB\X86\OLDNAMES.LIB
C:\PROGRAM FILES (X86)\WINDOWS KITS\10\LIB\10.0.17763.0\UM\X86\RUNTIMEOBJECT.LIB
C:\PROGRAM FILES (X86)\MICROSOFT VISUAL STUDIO\2017\COMMUNITY\VC\TOOLS\MSVC\14.16.27023\LIB\X86\VCOMPD.LIB
C:\PROGRAM FILES (X86)\MICROSOFT VISUAL STUDIO\2017\COMMUNITY\VC\TOOLS\MSVC\14.16.27023\LIB\X86\LIBCONCRTD.LIB
C:\PROGRAM FILES (X86)\MICROSOFT VISUAL STUDIO\2017\COMMUNITY\VC\TOOLS\MSVC\14.16.27023\LIB\X86\LIBVCRUNTIMED.LIB
C:\PROGRAM FILES (X86)\WINDOWS KITS\10\LIB\10.0.17763.0\UCRT\X86\LIBUCRTD.LIB
C:\PROGRAM FILES (X86)\MICROSOFT VISUAL STUDIO\2017\COMMUNITY\VC\TOOLS\MSVC\14.16.27023\BIN\HOSTX86\X86\LINK.EXE
C:\PROGRAM FILES (X86)\WINDOWS KITS\10\BIN\10.0.17763.0\X86\RC.EXE
C:\PROGRAM FILES (X86)\MICROSOFT VISUAL STUDIO\2017\COMMUNITY\VC\TOOLS\MSVC\14.16.27023\BIN\HOSTX86\X86\CVTRES.EXE
C:\PROGRAM FILES (X86)\MICROSOFT VISUAL STUDIO\2017\COMMUNITY\VC\TOOLS\MSVC\14.16.27023\BIN\HOSTX86\X86\VCTIP.EXE
C:\PROGRAM FILES (X86)\MICROSOFT VISUAL STUDIO\2017\COMMUNITY\VC\TOOLS\MSVC\14.16.27023\BIN\HOSTX86\X86\1041\LINKUI.DLL
