^C:\BITBUCKET\SPRINTBURST\SERVER\RELEASE\DEBUGWINDOW.OBJ|C:\BITBUCKET\SPRINTBURST\SERVER\RELEASE\ECS.OBJ|C:\BITBUCKET\SPRINTBURST\SERVER\RELEASE\ECSCOMPONENT.OBJ|C:\BITBUCKET\SPRINTBURST\SERVER\RELEASE\ECSENTITY.OBJ|C:\BITBUCKET\SPRINTBURST\SERVER\RELEASE\ECSLISTENER.OBJ|C:\BITBUCKET\SPRINTBURST\SERVER\RELEASE\ECSSYSTEM.OBJ|C:\BITBUCKET\SPRINTBURST\SERVER\RELEASE\EXAMPLE.OBJ|C:\BITBUCKET\SPRINTBURST\SERVER\RELEASE\IMGUI.OBJ|C:\BITBUCKET\SPRINTBURST\SERVER\RELEASE\IMGUI_DEMO.OBJ|C:\BITBUCKET\SPRINTBURST\SERVER\RELEASE\IMGUI_DRAW.OBJ|C:\BITBUCKET\SPRINTBURST\SERVER\RELEASE\IMGUI_IMPL_DX11.OBJ|C:\BITBUCKET\SPRINTBURST\SERVER\RELEASE\IMGUI_IMPL_WIN32.OBJ|C:\BITBUCKET\SPRINTBURST\SERVER\RELEASE\IMGUI_WIDGETS.OBJ|C:\BITBUCKET\SPRINTBURST\SERVER\RELEASE\JSON11.OBJ|C:\BITBUCKET\SPRINTBURST\SERVER\RELEASE\MAIN.OBJ|C:\BITBUCKET\SPRINTBURST\SERVER\RELEASE\MEMORY.OBJ|C:\BITBUCKET\SPRINTBURST\SERVER\RELEASE\NETWORKCOMMON.OBJ|C:\BITBUCKET\SPRINTBURST\SERVER\RELEASE\PCH.OBJ|C:\BITBUCKET\SPRINTBURST\SERVER\RELEASE\SERVERAPP.OBJ|C:\BITBUCKET\SPRINTBURST\SERVER\RELEASE\SERVERSCENE.OBJ|C:\BITBUCKET\SPRINTBURST\SERVER\RELEASE\TEXTFILEREADER.OBJ|C:\BITBUCKET\SPRINTBURST\SERVER\RELEASE\ZBILLBOARD.OBJ|C:\BITBUCKET\SPRINTBURST\SERVER\RELEASE\ZBONECONTROLLER.OBJ|C:\BITBUCKET\SPRINTBURST\SERVER\RELEASE\ZBULLETPHYSICSENGINE.OBJ|C:\BITBUCKET\SPRINTBURST\SERVER\RELEASE\ZBULLET_DEBUGDRAW.OBJ|C:\BITBUCKET\SPRINTBURST\SERVER\RELEASE\ZBULLET_JOINT.OBJ|C:\BITBUCKET\SPRINTBURST\SERVER\RELEASE\ZBULLET_RIGIDBODY.OBJ|C:\BITBUCKET\SPRINTBURST\SERVER\RELEASE\ZBULLET_SHAPE.OBJ|C:\BITBUCKET\SPRINTBURST\SERVER\RELEASE\ZCAMERA.OBJ|C:\BITBUCKET\SPRINTBURST\SERVER\RELEASE\ZCLIENT.OBJ|C:\BITBUCKET\SPRINTBURST\SERVER\RELEASE\ZCOLLISION.OBJ|C:\BITBUCKET\SPRINTBURST\SERVER\RELEASE\ZCSV.OBJ|C:\BITBUCKET\SPRINTBURST\SERVER\RELEASE\ZDIRECTXGRAPHICS.OBJ|C:\BITBUCKET\SPRINTBURST\SERVER\RELEASE\ZEFFECTMANAGER.OBJ|C:\BITBUCKET\SPRINTBURST\SERVER\RELEASE\ZFILE.OBJ|C:\BITBUCKET\SPRINTBURST\SERVER\RELEASE\ZFONT.OBJ|C:\BITBUCKET\SPRINTBURST\SERVER\RELEASE\ZGAMEMODEL.OBJ|C:\BITBUCKET\SPRINTBURST\SERVER\RELEASE\ZHELPER.OBJ|C:\BITBUCKET\SPRINTBURST\SERVER\RELEASE\ZINPUT.OBJ|C:\BITBUCKET\SPRINTBURST\SERVER\RELEASE\ZKEYFRAMEANIMATION.OBJ|C:\BITBUCKET\SPRINTBURST\SERVER\RELEASE\ZLASER.OBJ|C:\BITBUCKET\SPRINTBURST\SERVER\RELEASE\ZMAINFRAME.OBJ|C:\BITBUCKET\SPRINTBURST\SERVER\RELEASE\ZMATRIX.OBJ|C:\BITBUCKET\SPRINTBURST\SERVER\RELEASE\ZMEMORYALLOCATOR.OBJ|C:\BITBUCKET\SPRINTBURST\SERVER\RELEASE\ZMESH.OBJ|C:\BITBUCKET\SPRINTBURST\SERVER\RELEASE\ZMMDMATERIAL.OBJ|C:\BITBUCKET\SPRINTBURST\SERVER\RELEASE\ZMTRAND.OBJ|C:\BITBUCKET\SPRINTBURST\SERVER\RELEASE\ZPATHUTIL.OBJ|C:\BITBUCKET\SPRINTBURST\SERVER\RELEASE\ZPIXELSHADER.OBJ|C:\BITBUCKET\SPRINTBURST\SERVER\RELEASE\ZPMD.OBJ|C:\BITBUCKET\SPRINTBURST\SERVER\RELEASE\ZPMX.OBJ|C:\BITBUCKET\SPRINTBURST\SERVER\RELEASE\ZPMX2ZGAMEMODEL.OBJ|C:\BITBUCKET\SPRINTBURST\SERVER\RELEASE\ZPOLYGON.OBJ|C:\BITBUCKET\SPRINTBURST\SERVER\RELEASE\ZPOSTEFFECTS.OBJ|C:\BITBUCKET\SPRINTBURST\SERVER\RELEASE\ZQUAT.OBJ|C:\BITBUCKET\SPRINTBURST\SERVER\RELEASE\ZRESOURCESTORAGE.OBJ|C:\BITBUCKET\SPRINTBURST\SERVER\RELEASE\ZSCENE.OBJ|C:\BITBUCKET\SPRINTBURST\SERVER\RELEASE\ZSERVER.OBJ|C:\BITBUCKET\SPRINTBURST\SERVER\RELEASE\ZSHADERSET.OBJ|C:\BITBUCKET\SPRINTBURST\SERVER\RELEASE\ZSINGLEMODEL.OBJ|C:\BITBUCKET\SPRINTBURST\SERVER\RELEASE\ZSMARTPOINTER.OBJ|C:\BITBUCKET\SPRINTBURST\SERVER\RELEASE\ZSOUND.OBJ|C:\BITBUCKET\SPRINTBURST\SERVER\RELEASE\ZSTATES.OBJ|C:\BITBUCKET\SPRINTBURST\SERVER\RELEASE\ZSUBSYSTEM.OBJ|C:\BITBUCKET\SPRINTBURST\SERVER\RELEASE\ZTEXTURE.OBJ|C:\BITBUCKET\SPRINTBURST\SERVER\RELEASE\ZTHREADPOOL.OBJ|C:\BITBUCKET\SPRINTBURST\SERVER\RELEASE\ZUUID.OBJ|C:\BITBUCKET\SPRINTBURST\SERVER\RELEASE\ZUVANIMATION.OBJ|C:\BITBUCKET\SPRINTBURST\SERVER\RELEASE\ZVEC2.OBJ|C:\BITBUCKET\SPRINTBURST\SERVER\RELEASE\ZVEC3.OBJ|C:\BITBUCKET\SPRINTBURST\SERVER\RELEASE\ZVEC4.OBJ|C:\BITBUCKET\SPRINTBURST\SERVER\RELEASE\ZVERTEXSHADER.OBJ|C:\BITBUCKET\SPRINTBURST\SERVER\RELEASE\ZVFS.OBJ|C:\BITBUCKET\SPRINTBURST\SERVER\RELEASE\ZVMD.OBJ|C:\BITBUCKET\SPRINTBURST\SERVER\RELEASE\ZWINDOW.OBJ|C:\BITBUCKET\SPRINTBURST\SERVER\RELEASE\ZXEDLOADER.OBJ
C:\PROGRAM FILES (X86)\WINDOWS KITS\10\LIB\10.0.17763.0\UM\X86\KERNEL32.LIB
C:\PROGRAM FILES (X86)\WINDOWS KITS\10\LIB\10.0.17763.0\UM\X86\USER32.LIB
C:\PROGRAM FILES (X86)\WINDOWS KITS\10\LIB\10.0.17763.0\UM\X86\GDI32.LIB
C:\PROGRAM FILES (X86)\WINDOWS KITS\10\LIB\10.0.17763.0\UM\X86\WINSPOOL.LIB
C:\PROGRAM FILES (X86)\WINDOWS KITS\10\LIB\10.0.17763.0\UM\X86\COMDLG32.LIB
C:\PROGRAM FILES (X86)\WINDOWS KITS\10\LIB\10.0.17763.0\UM\X86\ADVAPI32.LIB
C:\PROGRAM FILES (X86)\WINDOWS KITS\10\LIB\10.0.17763.0\UM\X86\SHELL32.LIB
C:\PROGRAM FILES (X86)\WINDOWS KITS\10\LIB\10.0.17763.0\UM\X86\OLE32.LIB
C:\PROGRAM FILES (X86)\WINDOWS KITS\10\LIB\10.0.17763.0\UM\X86\OLEAUT32.LIB
C:\PROGRAM FILES (X86)\WINDOWS KITS\10\LIB\10.0.17763.0\UM\X86\UUID.LIB
C:\PROGRAM FILES (X86)\WINDOWS KITS\10\LIB\10.0.17763.0\UM\X86\ODBC32.LIB
C:\PROGRAM FILES (X86)\WINDOWS KITS\10\LIB\10.0.17763.0\UM\X86\ODBCCP32.LIB
C:\BITBUCKET\SPRINTBURST\SERVER\RELEASE\ZBONECONTROLLER.OBJ
C:\BITBUCKET\SPRINTBURST\SERVER\RELEASE\ZKEYFRAMEANIMATION.OBJ
C:\BITBUCKET\SPRINTBURST\SERVER\RELEASE\ZUVANIMATION.OBJ
C:\BITBUCKET\SPRINTBURST\SERVER\RELEASE\ZCAMERA.OBJ
C:\BITBUCKET\SPRINTBURST\SERVER\RELEASE\ZCOLLISION.OBJ
C:\BITBUCKET\SPRINTBURST\SERVER\RELEASE\DEBUGWINDOW.OBJ
C:\BITBUCKET\SPRINTBURST\SERVER\RELEASE\ZEFFECTMANAGER.OBJ
C:\BITBUCKET\SPRINTBURST\SERVER\RELEASE\ZFONT.OBJ
C:\BITBUCKET\SPRINTBURST\SERVER\RELEASE\ZBILLBOARD.OBJ
C:\BITBUCKET\SPRINTBURST\SERVER\RELEASE\ZDIRECTXGRAPHICS.OBJ
C:\BITBUCKET\SPRINTBURST\SERVER\RELEASE\ZGAMEMODEL.OBJ
C:\BITBUCKET\SPRINTBURST\SERVER\RELEASE\ZLASER.OBJ
C:\BITBUCKET\SPRINTBURST\SERVER\RELEASE\ZMESH.OBJ
C:\BITBUCKET\SPRINTBURST\SERVER\RELEASE\ZPIXELSHADER.OBJ
C:\BITBUCKET\SPRINTBURST\SERVER\RELEASE\ZPOLYGON.OBJ
C:\BITBUCKET\SPRINTBURST\SERVER\RELEASE\ZPOSTEFFECTS.OBJ
C:\BITBUCKET\SPRINTBURST\SERVER\RELEASE\ZSHADERSET.OBJ
C:\BITBUCKET\SPRINTBURST\SERVER\RELEASE\ZSINGLEMODEL.OBJ
C:\BITBUCKET\SPRINTBURST\SERVER\RELEASE\ZSTATES.OBJ
C:\BITBUCKET\SPRINTBURST\SERVER\RELEASE\ZTEXTURE.OBJ
C:\BITBUCKET\SPRINTBURST\SERVER\RELEASE\ZVERTEXSHADER.OBJ
C:\BITBUCKET\SPRINTBURST\SERVER\RELEASE\ZINPUT.OBJ
C:\BITBUCKET\SPRINTBURST\SERVER\RELEASE\ZMAINFRAME.OBJ
C:\BITBUCKET\SPRINTBURST\SERVER\RELEASE\ZMATRIX.OBJ
C:\BITBUCKET\SPRINTBURST\SERVER\RELEASE\ZQUAT.OBJ
C:\BITBUCKET\SPRINTBURST\SERVER\RELEASE\ZVEC2.OBJ
C:\BITBUCKET\SPRINTBURST\SERVER\RELEASE\ZVEC3.OBJ
C:\BITBUCKET\SPRINTBURST\SERVER\RELEASE\ZVEC4.OBJ
C:\BITBUCKET\SPRINTBURST\SERVER\RELEASE\MEMORY.OBJ
C:\BITBUCKET\SPRINTBURST\SERVER\RELEASE\ZMEMORYALLOCATOR.OBJ
C:\BITBUCKET\SPRINTBURST\SERVER\RELEASE\ZSMARTPOINTER.OBJ
C:\BITBUCKET\SPRINTBURST\SERVER\RELEASE\ZMMDMATERIAL.OBJ
C:\BITBUCKET\SPRINTBURST\SERVER\RELEASE\ZPMD.OBJ
C:\BITBUCKET\SPRINTBURST\SERVER\RELEASE\ZPMX.OBJ
C:\BITBUCKET\SPRINTBURST\SERVER\RELEASE\ZPMX2ZGAMEMODEL.OBJ
C:\BITBUCKET\SPRINTBURST\SERVER\RELEASE\ZVMD.OBJ
C:\BITBUCKET\SPRINTBURST\SERVER\RELEASE\NETWORKCOMMON.OBJ
C:\BITBUCKET\SPRINTBURST\SERVER\RELEASE\ZCLIENT.OBJ
C:\BITBUCKET\SPRINTBURST\SERVER\RELEASE\ZSERVER.OBJ
C:\BITBUCKET\SPRINTBURST\SERVER\RELEASE\PCH.OBJ
C:\BITBUCKET\SPRINTBURST\SERVER\RELEASE\ZBULLETPHYSICSENGINE.OBJ
C:\BITBUCKET\SPRINTBURST\SERVER\RELEASE\ZBULLET_DEBUGDRAW.OBJ
C:\BITBUCKET\SPRINTBURST\SERVER\RELEASE\ZBULLET_JOINT.OBJ
C:\BITBUCKET\SPRINTBURST\SERVER\RELEASE\ZBULLET_RIGIDBODY.OBJ
C:\BITBUCKET\SPRINTBURST\SERVER\RELEASE\ZBULLET_SHAPE.OBJ
C:\BITBUCKET\SPRINTBURST\SERVER\RELEASE\ZSCENE.OBJ
C:\BITBUCKET\SPRINTBURST\SERVER\RELEASE\ZSOUND.OBJ
C:\BITBUCKET\SPRINTBURST\SERVER\RELEASE\ZSUBSYSTEM.OBJ
C:\BITBUCKET\SPRINTBURST\SERVER\RELEASE\ZCSV.OBJ
C:\BITBUCKET\SPRINTBURST\SERVER\RELEASE\ZXEDLOADER.OBJ
C:\BITBUCKET\SPRINTBURST\SERVER\RELEASE\ZRESOURCESTORAGE.OBJ
C:\BITBUCKET\SPRINTBURST\SERVER\RELEASE\TEXTFILEREADER.OBJ
C:\BITBUCKET\SPRINTBURST\SERVER\RELEASE\ZFILE.OBJ
C:\BITBUCKET\SPRINTBURST\SERVER\RELEASE\ZMTRAND.OBJ
C:\BITBUCKET\SPRINTBURST\SERVER\RELEASE\ZPATHUTIL.OBJ
C:\BITBUCKET\SPRINTBURST\SERVER\RELEASE\ZTHREADPOOL.OBJ
C:\BITBUCKET\SPRINTBURST\SERVER\RELEASE\ZUUID.OBJ
C:\BITBUCKET\SPRINTBURST\SERVER\RELEASE\ZVFS.OBJ
C:\BITBUCKET\SPRINTBURST\SERVER\RELEASE\ZWINDOW.OBJ
C:\BITBUCKET\SPRINTBURST\SERVER\RELEASE\ECS.OBJ
C:\BITBUCKET\SPRINTBURST\SERVER\RELEASE\ECSCOMPONENT.OBJ
C:\BITBUCKET\SPRINTBURST\SERVER\RELEASE\ECSENTITY.OBJ
C:\BITBUCKET\SPRINTBURST\SERVER\RELEASE\ECSLISTENER.OBJ
C:\BITBUCKET\SPRINTBURST\SERVER\RELEASE\ECSSYSTEM.OBJ
C:\BITBUCKET\SPRINTBURST\SERVER\RELEASE\EXAMPLE.OBJ
C:\BITBUCKET\SPRINTBURST\SERVER\RELEASE\ZHELPER.OBJ
C:\BITBUCKET\SPRINTBURST\SERVER\RELEASE\IMGUI.OBJ
C:\BITBUCKET\SPRINTBURST\SERVER\RELEASE\IMGUI_DEMO.OBJ
C:\BITBUCKET\SPRINTBURST\SERVER\RELEASE\IMGUI_DRAW.OBJ
C:\BITBUCKET\SPRINTBURST\SERVER\RELEASE\IMGUI_IMPL_DX11.OBJ
C:\BITBUCKET\SPRINTBURST\SERVER\RELEASE\IMGUI_IMPL_WIN32.OBJ
C:\BITBUCKET\SPRINTBURST\SERVER\RELEASE\IMGUI_WIDGETS.OBJ
C:\BITBUCKET\SPRINTBURST\SERVER\RELEASE\JSON11.OBJ
C:\BITBUCKET\SPRINTBURST\SERVER\RELEASE\MAIN.OBJ
C:\BITBUCKET\SPRINTBURST\SERVER\RELEASE\SERVERSCENE.OBJ
C:\BITBUCKET\SPRINTBURST\SERVER\RELEASE\SERVERAPP.OBJ
C:\WINDOWS\GLOBALIZATION\SORTING\SORTDEFAULT.NLS
C:\PROGRAM FILES (X86)\WINDOWS KITS\10\LIB\10.0.17763.0\UM\X86\D3DCOMPILER.LIB
C:\PROGRAM FILES (X86)\WINDOWS KITS\10\LIB\10.0.17763.0\UM\X86\D3D11.LIB
C:\PROGRAM FILES (X86)\WINDOWS KITS\10\LIB\10.0.17763.0\UM\X86\DXGI.LIB
C:\PROGRAM FILES (X86)\WINDOWS KITS\10\LIB\10.0.17763.0\UM\X86\DXGUID.LIB
C:\PROGRAM FILES (X86)\WINDOWS KITS\10\LIB\10.0.17763.0\UM\X86\DSOUND.LIB
C:\BITBUCKET\SPRINTBURST\LIB\DIRECTXTK\LIB\2017\RELEASE\DIRECTXTK.LIB
C:\BITBUCKET\SPRINTBURST\LIB\DIRECTXTK\LIB\2017\RELEASE\DIRECTXTKAUDIOWIN8.LIB
C:\BITBUCKET\SPRINTBURST\LIB\DIRECTXTEX\LIB\2017\RELEASE\DIRECTXTEX.LIB
C:\BITBUCKET\SPRINTBURST\LIB\BULLETPHYSICS\LIB\RELEASE\BULLETCOLLISION.LIB
C:\BITBUCKET\SPRINTBURST\LIB\BULLETPHYSICS\LIB\RELEASE\BULLETDYNAMICS.LIB
C:\BITBUCKET\SPRINTBURST\LIB\BULLETPHYSICS\LIB\RELEASE\LINEARMATH.LIB
C:\BITBUCKET\SPRINTBURST\LIB\EFFEKSEER\LIB\RELEASE\EFFEKSEER.LIB
C:\BITBUCKET\SPRINTBURST\LIB\EFFEKSEER\LIB\RELEASE\EFFEKSEERRENDERERDX11.LIB
C:\BITBUCKET\SPRINTBURST\LIB\EFFEKSEER\LIB\RELEASE\EFFEKSEERSOUNDXAUDIO2.LIB
C:\BITBUCKET\SPRINTBURST\LIB\ENET\ENET.LIB
C:\PROGRAM FILES (X86)\MICROSOFT VISUAL STUDIO\2017\COMMUNITY\VC\TOOLS\MSVC\14.16.27023\LIB\X86\LIBCPMT.LIB
C:\PROGRAM FILES (X86)\WINDOWS KITS\10\LIB\10.0.17763.0\UM\X86\WINMM.LIB
C:\PROGRAM FILES (X86)\WINDOWS KITS\10\LIB\10.0.17763.0\UM\X86\WS2_32.LIB
C:\PROGRAM FILES (X86)\WINDOWS KITS\10\LIB\10.0.17763.0\UM\X86\IMM32.LIB
C:\PROGRAM FILES (X86)\WINDOWS KITS\10\LIB\10.0.17763.0\UM\X86\RPCRT4.LIB
C:\PROGRAM FILES (X86)\WINDOWS KITS\10\LIB\10.0.17763.0\UM\X86\XAUDIO2.LIB
C:\PROGRAM FILES (X86)\WINDOWS KITS\10\LIB\10.0.17763.0\UM\X86\GDIPLUS.LIB
C:\PROGRAM FILES (X86)\MICROSOFT VISUAL STUDIO\2017\COMMUNITY\VC\TOOLS\MSVC\14.16.27023\LIB\X86\LIBCMT.LIB
C:\PROGRAM FILES (X86)\MICROSOFT VISUAL STUDIO\2017\COMMUNITY\VC\TOOLS\MSVC\14.16.27023\LIB\X86\OLDNAMES.LIB
C:\PROGRAM FILES (X86)\WINDOWS KITS\10\LIB\10.0.17763.0\UM\X86\RUNTIMEOBJECT.LIB
C:\PROGRAM FILES (X86)\MICROSOFT VISUAL STUDIO\2017\COMMUNITY\VC\TOOLS\MSVC\14.16.27023\LIB\X86\VCOMP.LIB
C:\PROGRAM FILES (X86)\MICROSOFT VISUAL STUDIO\2017\COMMUNITY\VC\TOOLS\MSVC\14.16.27023\LIB\X86\LIBCONCRT.LIB
C:\PROGRAM FILES (X86)\MICROSOFT VISUAL STUDIO\2017\COMMUNITY\VC\TOOLS\MSVC\14.16.27023\LIB\X86\LIBVCRUNTIME.LIB
C:\PROGRAM FILES (X86)\WINDOWS KITS\10\LIB\10.0.17763.0\UCRT\X86\LIBUCRT.LIB
C:\PROGRAM FILES (X86)\MICROSOFT VISUAL STUDIO\2017\COMMUNITY\VC\TOOLS\MSVC\14.16.27023\BIN\HOSTX86\X86\1041\LINKUI.DLL
C:\PROGRAM FILES (X86)\WINDOWS KITS\10\BIN\10.0.17763.0\X86\RC.EXE
C:\PROGRAM FILES (X86)\MICROSOFT VISUAL STUDIO\2017\COMMUNITY\VC\TOOLS\MSVC\14.16.27023\BIN\HOSTX86\X86\CVTRES.EXE
C:\WINDOWS\SYSTEM32\TZRES.DLL
