^C:\BITBUCKET\SPRINTBURST\EZLIB\PCH\PCH.CPP
C:\BITBUCKET\SPRINTBURST\CLIENT\DEBUG\CLIENT\CLIENT.PCH
C:\BITBUCKET\SPRINTBURST\CLIENT\DEBUG\CLIENT\VC141.PDB
C:\BITBUCKET\SPRINTBURST\CLIENT\DEBUG\CLIENT\VC141.IDB
C:\BITBUCKET\SPRINTBURST\CLIENT\DEBUG\CLIENT\PCH.OBJ
^C:\BITBUCKET\SPRINTBURST\CLIENT\SRC\CLIENT\CLIENTAPP.CPP|C:\BITBUCKET\SPRINTBURST\CLIENT\SRC\CLIENT\SCENE\CONNECTSCENE.CPP|C:\BITBUCKET\SPRINTBURST\CLIENT\SRC\CLIENT\SCENE\MATCHINGSCENE.CPP|C:\BITBUCKET\SPRINTBURST\CLIENT\SRC\MAIN.CPP|C:\BITBUCKET\SPRINTBURST\COMMON\CAMERA\GAMECAMERA.CPP|C:\BITBUCKET\SPRINTBURST\COMMON\CAMERA\LIGHTCAMERA.CPP|C:\BITBUCKET\SPRINTBURST\COMMON\ECSCOMPONENTS\CHARACTER\CHARACTERCOMPONENTS.CPP|C:\BITBUCKET\SPRINTBURST\COMMON\ECSCOMPONENTS\COMMON\COMMONCOMPONENTS.CPP|C:\BITBUCKET\SPRINTBURST\COMMON\ECSCOMPONENTS\MAPOBJECT\MAPOBJECTCOMPONENTS.CPP|C:\BITBUCKET\SPRINTBURST\COMMON\ECSLISTENERS\COMMON\COMMONLISTENERS.CPP|C:\BITBUCKET\SPRINTBURST\COMMON\ECSSYSTEMS\CHARACTER\HACKERUPDATESYSTEM.CPP|C:\BITBUCKET\SPRINTBURST\COMMON\ECSSYSTEMS\CHARACTER\PLAYERUPDATESYSTEM.CPP|C:\BITBUCKET\SPRINTBURST\COMMON\ECSSYSTEMS\COMMON\COMMONSYSTEMS.CPP|C:\BITBUCKET\SPRINTBURST\COMMON\ECSSYSTEMS\MAPOBJECT\MAPOBJECTSYSTEMS.CPP|C:\BITBUCKET\SPRINTBURST\COMMON\MAINSYSTEMS\CLOSURETASKMANAGER\CLOSURETASKMANAGER.CPP|C:\BITBUCKET\SPRINTBURST\COMMON\MAINSYSTEMS\COLLISIONENGINE\COLLISIONENGINE.CPP|C:\BITBUCKET\SPRINTBURST\COMMON\MAINSYSTEMS\GAMEWORLD\GAMEWORLD.CPP|C:\BITBUCKET\SPRINTBURST\COMMON\MAINSYSTEMS\LEVEL\LEVEL.CPP|C:\BITBUCKET\SPRINTBURST\COMMON\SHADER\LIGHT\LIGHTMANAGER.CPP|C:\BITBUCKET\SPRINTBURST\COMMON\SHADER\LIGHT\LIGHTS.CPP|C:\BITBUCKET\SPRINTBURST\COMMON\SHADER\POSTEFFECT\EFFECTPASS\DOFPASS.CPP|C:\BITBUCKET\SPRINTBURST\COMMON\SHADER\POSTEFFECT\EFFECTPASS\HEPASS.CPP|C:\BITBUCKET\SPRINTBURST\COMMON\SHADER\POSTEFFECT\EFFECTPASS\LIGHTBLOOMPASS.CPP|C:\BITBUCKET\SPRINTBURST\COMMON\SHADER\POSTEFFECT\EFFECTPASS\SETUPPASS.CPP|C:\BITBUCKET\SPRINTBURST\COMMON\SHADER\POSTEFFECT\EFFECTPASS\SSAOPASS.CPP|C:\BITBUCKET\SPRINTBURST\COMMON\SHADER\POSTEFFECT\EFFECTPASS\XRAYPASS.CPP|C:\BITBUCKET\SPRINTBURST\COMMON\SHADER\POSTEFFECT\POSTEFFECTS.CPP|C:\BITBUCKET\SPRINTBURST\COMMON\SHADER\RENDERERSET\RENDERERSET.CPP|C:\BITBUCKET\SPRINTBURST\COMMON\SHADER\RENDERER\BLUR\BLURSHADER.CPP|C:\BITBUCKET\SPRINTBURST\COMMON\SHADER\RENDERER\DOF\DOF_SHADER.CPP|C:\BITBUCKET\SPRINTBURST\COMMON\SHADER\RENDERER\LINERENDERER\LINERENDERER.CPP|C:\BITBUCKET\SPRINTBURST\COMMON\SHADER\RENDERER\MODELRENDERER\DEBUGCOLLIDERMESHRENDERER.CPP|C:\BITBUCKET\SPRINTBURST\COMMON\SHADER\RENDERER\MODELRENDERER\MESHRENDERER.CPP|C:\BITBUCKET\SPRINTBURST\COMMON\SHADER\RENDERER\MODELRENDERER\MODELRENDERINGPIPELINE.CPP|C:\BITBUCKET\SPRINTBURST\COMMON\SHADER\RENDERER\MODELRENDERER\SKINMESHRENDERER.CPP|C:\BITBUCKET\SPRINTBURST\COMMON\SHADER\RENDERER\SPRITERENDERER\SPRITERENDERER.CPP|C:\BITBUCKET\SPRINTBURST\COMMON\SHADER\RENDERER\SSAO\SSAOSHADER.CPP|C:\BITBUCKET\SPRINTBURST\COMMON\SHADER\RENDERER\X-RAY\X-RAY.CPP|C:\BITBUCKET\SPRINTBURST\COMMON\SHADER\SHADERMANAGER.CPP|C:\BITBUCKET\SPRINTBURST\COMMON\STATE\STATE.CPP|C:\BITBUCKET\SPRINTBURST\EZLIB\ANIMATION\ZBONECONTROLLER.CPP|C:\BITBUCKET\SPRINTBURST\EZLIB\ANIMATION\ZKEYFRAMEANIMATION.CPP|C:\BITBUCKET\SPRINTBURST\EZLIB\ANIMATION\ZUVANIMATION.CPP|C:\BITBUCKET\SPRINTBURST\EZLIB\CAMERA\ZCAMERA.CPP|C:\BITBUCKET\SPRINTBURST\EZLIB\COLLISION\ZCOLLISION.CPP|C:\BITBUCKET\SPRINTBURST\EZLIB\DEBUGWINDOW\DEBUGWINDOW.CPP|C:\BITBUCKET\SPRINTBURST\EZLIB\EFFECT\ZEFFECTMANAGER.CPP|C:\BITBUCKET\SPRINTBURST\EZLIB\FONT\ZFONT.CPP|C:\BITBUCKET\SPRINTBURST\EZLIB\GRAPHICS\ZBILLBOARD.CPP|C:\BITBUCKET\SPRINTBURST\EZLIB\GRAPHICS\ZDIRECTXGRAPHICS.CPP|C:\BITBUCKET\SPRINTBURST\EZLIB\GRAPHICS\ZGAMEMODEL.CPP|C:\BITBUCKET\SPRINTBURST\EZLIB\GRAPHICS\ZLASER.CPP|C:\BITBUCKET\SPRINTBURST\EZLIB\GRAPHICS\ZMESH.CPP|C:\BITBUCKET\SPRINTBURST\EZLIB\GRAPHICS\ZPIXELSHADER.CPP|C:\BITBUCKET\SPRINTBURST\EZLIB\GRAPHICS\ZPOLYGON.CPP|C:\BITBUCKET\SPRINTBURST\EZLIB\GRAPHICS\ZPOSTEFFECTS.CPP|C:\BITBUCKET\SPRINTBURST\EZLIB\GRAPHICS\ZSHADERSET.CPP|C:\BITBUCKET\SPRINTBURST\EZLIB\GRAPHICS\ZSINGLEMODEL.CPP|C:\BITBUCKET\SPRINTBURST\EZLIB\GRAPHICS\ZSTATES.CPP|C:\BITBUCKET\SPRINTBURST\EZLIB\GRAPHICS\ZTEXTURE.CPP|C:\BITBUCKET\SPRINTBURST\EZLIB\GRAPHICS\ZVERTEXSHADER.CPP|C:\BITBUCKET\SPRINTBURST\EZLIB\INPUT\ZINPUT.CPP|C:\BITBUCKET\SPRINTBURST\EZLIB\MAINFRAME\ZMAINFRAME.CPP|C:\BITBUCKET\SPRINTBURST\EZLIB\MATH\ZMATRIX.CPP|C:\BITBUCKET\SPRINTBURST\EZLIB\MATH\ZQUAT.CPP|C:\BITBUCKET\SPRINTBURST\EZLIB\MATH\ZVEC2.CPP|C:\BITBUCKET\SPRINTBURST\EZLIB\MATH\ZVEC3.CPP|C:\BITBUCKET\SPRINTBURST\EZLIB\MATH\ZVEC4.CPP|C:\BITBUCKET\SPRINTBURST\EZLIB\MEMORYALLOCATER\MEMORY.CPP|C:\BITBUCKET\SPRINTBURST\EZLIB\MEMORYALLOCATER\ZMEMORYALLOCATOR.CPP|C:\BITBUCKET\SPRINTBURST\EZLIB\MEMORYALLOCATER\ZSMARTPOINTER.CPP|C:\BITBUCKET\SPRINTBURST\EZLIB\MMD\ZMMDMATERIAL.CPP|C:\BITBUCKET\SPRINTBURST\EZLIB\MMD\ZPMD.CPP|C:\BITBUCKET\SPRINTBURST\EZLIB\MMD\ZPMX.CPP|C:\BITBUCKET\SPRINTBURST\EZLIB\MMD\ZPMX2ZGAMEMODEL.CPP|C:\BITBUCKET\SPRINTBURST\EZLIB\MMD\ZVMD.CPP|C:\BITBUCKET\SPRINTBURST\EZLIB\NETWORK\NETWORKCOMMON.CPP|C:\BITBUCKET\SPRINTBURST\EZLIB\NETWORK\ZCLIENT.CPP|C:\BITBUCKET\SPRINTBURST\EZLIB\NETWORK\ZSERVER.CPP|C:\BITBUCKET\SPRINTBURST\EZLIB\PHYSICS\ZBULLETPHYSICSENGINE.CPP|C:\BITBUCKET\SPRINTBURST\EZLIB\PHYSICS\ZBULLET_DEBUGDRAW.CPP|C:\BITBUCKET\SPRINTBURST\EZLIB\PHYSICS\ZBULLET_JOINT.CPP|C:\BITBUCKET\SPRINTBURST\EZLIB\PHYSICS\ZBULLET_RIGIDBODY.CPP|C:\BITBUCKET\SPRINTBURST\EZLIB\PHYSICS\ZBULLET_SHAPE.CPP|C:\BITBUCKET\SPRINTBURST\EZLIB\SCENE\ZSCENE.CPP|C:\BITBUCKET\SPRINTBURST\EZLIB\SOUNDS\ZSOUND.CPP|C:\BITBUCKET\SPRINTBURST\EZLIB\SUBSYSTEM\ZSUBSYSTEM.CPP|C:\BITBUCKET\SPRINTBURST\EZLIB\TOOLS\CSV\ZCSV.CPP|C:\BITBUCKET\SPRINTBURST\EZLIB\TOOLS\XEDLOADER\ZXEDLOADER.CPP|C:\BITBUCKET\SPRINTBURST\EZLIB\TOOLS\ZRESOURCESTORAGE.CPP|C:\BITBUCKET\SPRINTBURST\EZLIB\UTILS\TEXTFILEREADER.CPP|C:\BITBUCKET\SPRINTBURST\EZLIB\UTILS\ZFILE.CPP|C:\BITBUCKET\SPRINTBURST\EZLIB\UTILS\ZMTRAND.CPP|C:\BITBUCKET\SPRINTBURST\EZLIB\UTILS\ZPATHUTIL.CPP|C:\BITBUCKET\SPRINTBURST\EZLIB\UTILS\ZTHREADPOOL.CPP|C:\BITBUCKET\SPRINTBURST\EZLIB\UTILS\ZUUID.CPP|C:\BITBUCKET\SPRINTBURST\EZLIB\UTILS\ZVFS.CPP|C:\BITBUCKET\SPRINTBURST\EZLIB\WINDOW\ZWINDOW.CPP|C:\BITBUCKET\SPRINTBURST\EZLIB\ZECS\ECS.CPP|C:\BITBUCKET\SPRINTBURST\EZLIB\ZECS\ECSCOMPONENT.CPP|C:\BITBUCKET\SPRINTBURST\EZLIB\ZECS\ECSENTITY.CPP|C:\BITBUCKET\SPRINTBURST\EZLIB\ZECS\ECSLISTENER.CPP|C:\BITBUCKET\SPRINTBURST\EZLIB\ZECS\ECSSYSTEM.CPP|C:\BITBUCKET\SPRINTBURST\EZLIB\ZHELPER.CPP|C:\BITBUCKET\SPRINTBURST\LIB\IMGUI\IMGUI.CPP|C:\BITBUCKET\SPRINTBURST\LIB\IMGUI\IMGUI_DEMO.CPP|C:\BITBUCKET\SPRINTBURST\LIB\IMGUI\IMGUI_DRAW.CPP|C:\BITBUCKET\SPRINTBURST\LIB\IMGUI\IMGUI_IMPL_DX11.CPP|C:\BITBUCKET\SPRINTBURST\LIB\IMGUI\IMGUI_IMPL_WIN32.CPP|C:\BITBUCKET\SPRINTBURST\LIB\IMGUI\IMGUI_WIDGETS.CPP|C:\BITBUCKET\SPRINTBURST\LIB\JSON11\JSON11.CPP
C:\BITBUCKET\SPRINTBURST\CLIENT\DEBUG\CLIENT\GAMECAMERA.OBJ
C:\BITBUCKET\SPRINTBURST\CLIENT\DEBUG\CLIENT\MAPOBJECTSYSTEMS.OBJ
C:\BITBUCKET\SPRINTBURST\CLIENT\DEBUG\CLIENT\LEVEL.OBJ
C:\BITBUCKET\SPRINTBURST\CLIENT\DEBUG\CLIENT\LIGHTS.OBJ
C:\BITBUCKET\SPRINTBURST\CLIENT\DEBUG\CLIENT\DOFPASS.OBJ
C:\BITBUCKET\SPRINTBURST\CLIENT\DEBUG\CLIENT\SETUPPASS.OBJ
C:\BITBUCKET\SPRINTBURST\CLIENT\DEBUG\CLIENT\POSTEFFECTS.OBJ
C:\BITBUCKET\SPRINTBURST\CLIENT\DEBUG\CLIENT\MESHRENDERER.OBJ
C:\BITBUCKET\SPRINTBURST\CLIENT\DEBUG\CLIENT\SSAOSHADER.OBJ
C:\BITBUCKET\SPRINTBURST\CLIENT\DEBUG\CLIENT\ZUVANIMATION.OBJ
C:\BITBUCKET\SPRINTBURST\CLIENT\DEBUG\CLIENT\ZCAMERA.OBJ
C:\BITBUCKET\SPRINTBURST\CLIENT\DEBUG\CLIENT\ZFONT.OBJ
C:\BITBUCKET\SPRINTBURST\CLIENT\DEBUG\CLIENT\ZDIRECTXGRAPHICS.OBJ
C:\BITBUCKET\SPRINTBURST\CLIENT\DEBUG\CLIENT\ZMESH.OBJ
C:\BITBUCKET\SPRINTBURST\CLIENT\DEBUG\CLIENT\ZPOLYGON.OBJ
C:\BITBUCKET\SPRINTBURST\CLIENT\DEBUG\CLIENT\ZSINGLEMODEL.OBJ
C:\BITBUCKET\SPRINTBURST\CLIENT\DEBUG\CLIENT\ZTEXTURE.OBJ
C:\BITBUCKET\SPRINTBURST\CLIENT\DEBUG\CLIENT\ZVEC2.OBJ
C:\BITBUCKET\SPRINTBURST\CLIENT\DEBUG\CLIENT\ZVEC4.OBJ
C:\BITBUCKET\SPRINTBURST\CLIENT\DEBUG\CLIENT\ZMEMORYALLOCATOR.OBJ
C:\BITBUCKET\SPRINTBURST\CLIENT\DEBUG\CLIENT\ZPMX.OBJ
C:\BITBUCKET\SPRINTBURST\CLIENT\DEBUG\CLIENT\ZBULLETPHYSICSENGINE.OBJ
C:\BITBUCKET\SPRINTBURST\CLIENT\DEBUG\CLIENT\ZBULLET_JOINT.OBJ
C:\BITBUCKET\SPRINTBURST\CLIENT\DEBUG\CLIENT\ZBULLET_SHAPE.OBJ
C:\BITBUCKET\SPRINTBURST\CLIENT\DEBUG\CLIENT\ZSUBSYSTEM.OBJ
C:\BITBUCKET\SPRINTBURST\CLIENT\DEBUG\CLIENT\TEXTFILEREADER.OBJ
C:\BITBUCKET\SPRINTBURST\CLIENT\DEBUG\CLIENT\ZMTRAND.OBJ
C:\BITBUCKET\SPRINTBURST\CLIENT\DEBUG\CLIENT\ZPATHUTIL.OBJ
C:\BITBUCKET\SPRINTBURST\CLIENT\DEBUG\CLIENT\ZVFS.OBJ
C:\BITBUCKET\SPRINTBURST\CLIENT\DEBUG\CLIENT\ECSENTITY.OBJ
C:\BITBUCKET\SPRINTBURST\CLIENT\DEBUG\CLIENT\IMGUI_DEMO.OBJ
C:\BITBUCKET\SPRINTBURST\CLIENT\DEBUG\CLIENT\IMGUI_IMPL_WIN32.OBJ
C:\BITBUCKET\SPRINTBURST\CLIENT\DEBUG\CLIENT\CONNECTSCENE.OBJ
C:\BITBUCKET\SPRINTBURST\CLIENT\DEBUG\CLIENT\COMMONCOMPONENTS.OBJ
C:\BITBUCKET\SPRINTBURST\CLIENT\DEBUG\CLIENT\PLAYERUPDATESYSTEM.OBJ
C:\BITBUCKET\SPRINTBURST\CLIENT\DEBUG\CLIENT\COMMONSYSTEMS.OBJ
C:\BITBUCKET\SPRINTBURST\CLIENT\DEBUG\CLIENT\LIGHTMANAGER.OBJ
C:\BITBUCKET\SPRINTBURST\CLIENT\DEBUG\CLIENT\HEPASS.OBJ
C:\BITBUCKET\SPRINTBURST\CLIENT\DEBUG\CLIENT\SSAOPASS.OBJ
C:\BITBUCKET\SPRINTBURST\CLIENT\DEBUG\CLIENT\DOF_SHADER.OBJ
C:\BITBUCKET\SPRINTBURST\CLIENT\DEBUG\CLIENT\DEBUGCOLLIDERMESHRENDERER.OBJ
C:\BITBUCKET\SPRINTBURST\CLIENT\DEBUG\CLIENT\MODELRENDERINGPIPELINE.OBJ
C:\BITBUCKET\SPRINTBURST\CLIENT\DEBUG\CLIENT\X-RAY.OBJ
C:\BITBUCKET\SPRINTBURST\CLIENT\DEBUG\CLIENT\STATE.OBJ
C:\BITBUCKET\SPRINTBURST\CLIENT\DEBUG\CLIENT\ZKEYFRAMEANIMATION.OBJ
C:\BITBUCKET\SPRINTBURST\CLIENT\DEBUG\CLIENT\ZBILLBOARD.OBJ
C:\BITBUCKET\SPRINTBURST\CLIENT\DEBUG\CLIENT\ZLASER.OBJ
C:\BITBUCKET\SPRINTBURST\CLIENT\DEBUG\CLIENT\ZPIXELSHADER.OBJ
C:\BITBUCKET\SPRINTBURST\CLIENT\DEBUG\CLIENT\ZSHADERSET.OBJ
C:\BITBUCKET\SPRINTBURST\CLIENT\DEBUG\CLIENT\ZVERTEXSHADER.OBJ
C:\BITBUCKET\SPRINTBURST\CLIENT\DEBUG\CLIENT\MEMORY.OBJ
C:\BITBUCKET\SPRINTBURST\CLIENT\DEBUG\CLIENT\ZVMD.OBJ
C:\BITBUCKET\SPRINTBURST\CLIENT\DEBUG\CLIENT\ZBULLET_DEBUGDRAW.OBJ
C:\BITBUCKET\SPRINTBURST\CLIENT\DEBUG\CLIENT\ZBULLET_RIGIDBODY.OBJ
C:\BITBUCKET\SPRINTBURST\CLIENT\DEBUG\CLIENT\ZSCENE.OBJ
C:\BITBUCKET\SPRINTBURST\CLIENT\DEBUG\CLIENT\ZXEDLOADER.OBJ
C:\BITBUCKET\SPRINTBURST\CLIENT\DEBUG\CLIENT\ECSCOMPONENT.OBJ
C:\BITBUCKET\SPRINTBURST\CLIENT\DEBUG\CLIENT\ZHELPER.OBJ
C:\BITBUCKET\SPRINTBURST\CLIENT\DEBUG\CLIENT\IMGUI_DRAW.OBJ
C:\BITBUCKET\SPRINTBURST\CLIENT\DEBUG\CLIENT\IMGUI_WIDGETS.OBJ
C:\BITBUCKET\SPRINTBURST\CLIENT\DEBUG\CLIENT\MATCHINGSCENE.OBJ
C:\BITBUCKET\SPRINTBURST\CLIENT\DEBUG\CLIENT\CHARACTERCOMPONENTS.OBJ
C:\BITBUCKET\SPRINTBURST\CLIENT\DEBUG\CLIENT\COMMONLISTENERS.OBJ
C:\BITBUCKET\SPRINTBURST\CLIENT\DEBUG\CLIENT\CLOSURETASKMANAGER.OBJ
C:\BITBUCKET\SPRINTBURST\CLIENT\DEBUG\CLIENT\GAMEWORLD.OBJ
C:\BITBUCKET\SPRINTBURST\CLIENT\DEBUG\CLIENT\XRAYPASS.OBJ
C:\BITBUCKET\SPRINTBURST\CLIENT\DEBUG\CLIENT\LINERENDERER.OBJ
C:\BITBUCKET\SPRINTBURST\CLIENT\DEBUG\CLIENT\SPRITERENDERER.OBJ
C:\BITBUCKET\SPRINTBURST\CLIENT\DEBUG\CLIENT\ZBONECONTROLLER.OBJ
C:\BITBUCKET\SPRINTBURST\CLIENT\DEBUG\CLIENT\DEBUGWINDOW.OBJ
C:\BITBUCKET\SPRINTBURST\CLIENT\DEBUG\CLIENT\ZGAMEMODEL.OBJ
C:\BITBUCKET\SPRINTBURST\CLIENT\DEBUG\CLIENT\ZPOSTEFFECTS.OBJ
C:\BITBUCKET\SPRINTBURST\CLIENT\DEBUG\CLIENT\ZMAINFRAME.OBJ
C:\BITBUCKET\SPRINTBURST\CLIENT\DEBUG\CLIENT\ZMMDMATERIAL.OBJ
C:\BITBUCKET\SPRINTBURST\CLIENT\DEBUG\CLIENT\ZPMX2ZGAMEMODEL.OBJ
C:\BITBUCKET\SPRINTBURST\CLIENT\DEBUG\CLIENT\ZCLIENT.OBJ
C:\BITBUCKET\SPRINTBURST\CLIENT\DEBUG\CLIENT\ZCSV.OBJ
C:\BITBUCKET\SPRINTBURST\CLIENT\DEBUG\CLIENT\ZFILE.OBJ
C:\BITBUCKET\SPRINTBURST\CLIENT\DEBUG\CLIENT\ZUUID.OBJ
C:\BITBUCKET\SPRINTBURST\CLIENT\DEBUG\CLIENT\ZWINDOW.OBJ
C:\BITBUCKET\SPRINTBURST\CLIENT\DEBUG\CLIENT\ECSLISTENER.OBJ
C:\BITBUCKET\SPRINTBURST\CLIENT\DEBUG\CLIENT\ECSSYSTEM.OBJ
C:\BITBUCKET\SPRINTBURST\CLIENT\DEBUG\CLIENT\IMGUI.OBJ
C:\BITBUCKET\SPRINTBURST\CLIENT\DEBUG\CLIENT\CLIENTAPP.OBJ
C:\BITBUCKET\SPRINTBURST\CLIENT\DEBUG\CLIENT\LIGHTCAMERA.OBJ
C:\BITBUCKET\SPRINTBURST\CLIENT\DEBUG\CLIENT\MAPOBJECTCOMPONENTS.OBJ
C:\BITBUCKET\SPRINTBURST\CLIENT\DEBUG\CLIENT\HACKERUPDATESYSTEM.OBJ
C:\BITBUCKET\SPRINTBURST\CLIENT\DEBUG\CLIENT\COLLISIONENGINE.OBJ
C:\BITBUCKET\SPRINTBURST\CLIENT\DEBUG\CLIENT\LIGHTBLOOMPASS.OBJ
C:\BITBUCKET\SPRINTBURST\CLIENT\DEBUG\CLIENT\RENDERERSET.OBJ
C:\BITBUCKET\SPRINTBURST\CLIENT\DEBUG\CLIENT\BLURSHADER.OBJ
C:\BITBUCKET\SPRINTBURST\CLIENT\DEBUG\CLIENT\SKINMESHRENDERER.OBJ
C:\BITBUCKET\SPRINTBURST\CLIENT\DEBUG\CLIENT\SHADERMANAGER.OBJ
C:\BITBUCKET\SPRINTBURST\CLIENT\DEBUG\CLIENT\ZCOLLISION.OBJ
C:\BITBUCKET\SPRINTBURST\CLIENT\DEBUG\CLIENT\ZEFFECTMANAGER.OBJ
C:\BITBUCKET\SPRINTBURST\CLIENT\DEBUG\CLIENT\ZSTATES.OBJ
C:\BITBUCKET\SPRINTBURST\CLIENT\DEBUG\CLIENT\ZINPUT.OBJ
C:\BITBUCKET\SPRINTBURST\CLIENT\DEBUG\CLIENT\ZMATRIX.OBJ
C:\BITBUCKET\SPRINTBURST\CLIENT\DEBUG\CLIENT\ZQUAT.OBJ
C:\BITBUCKET\SPRINTBURST\CLIENT\DEBUG\CLIENT\ZVEC3.OBJ
C:\BITBUCKET\SPRINTBURST\CLIENT\DEBUG\CLIENT\ZSMARTPOINTER.OBJ
C:\BITBUCKET\SPRINTBURST\CLIENT\DEBUG\CLIENT\ZPMD.OBJ
C:\BITBUCKET\SPRINTBURST\CLIENT\DEBUG\CLIENT\NETWORKCOMMON.OBJ
C:\BITBUCKET\SPRINTBURST\CLIENT\DEBUG\CLIENT\ZSERVER.OBJ
C:\BITBUCKET\SPRINTBURST\CLIENT\DEBUG\CLIENT\ZSOUND.OBJ
C:\BITBUCKET\SPRINTBURST\CLIENT\DEBUG\CLIENT\ZRESOURCESTORAGE.OBJ
C:\BITBUCKET\SPRINTBURST\CLIENT\DEBUG\CLIENT\ZTHREADPOOL.OBJ
C:\BITBUCKET\SPRINTBURST\CLIENT\DEBUG\CLIENT\ECS.OBJ
C:\BITBUCKET\SPRINTBURST\CLIENT\DEBUG\CLIENT\IMGUI_IMPL_DX11.OBJ
C:\BITBUCKET\SPRINTBURST\CLIENT\DEBUG\CLIENT\JSON11.OBJ
C:\BITBUCKET\SPRINTBURST\CLIENT\DEBUG\CLIENT\MAIN.OBJ
^C:\BITBUCKET\SPRINTBURST\COMMON\CAMERA\GAMECAMERA.CPP
C:\BITBUCKET\SPRINTBURST\CLIENT\DEBUG\CLIENT\VC141.PDB
^C:\BITBUCKET\SPRINTBURST\COMMON\CAMERA\LIGHTCAMERA.CPP
C:\BITBUCKET\SPRINTBURST\CLIENT\DEBUG\CLIENT\VC141.PDB
^C:\BITBUCKET\SPRINTBURST\COMMON\ECSCOMPONENTS\CHARACTER\CHARACTERCOMPONENTS.CPP
C:\BITBUCKET\SPRINTBURST\CLIENT\DEBUG\CLIENT\VC141.PDB
^C:\BITBUCKET\SPRINTBURST\COMMON\ECSCOMPONENTS\COMMON\COMMONCOMPONENTS.CPP
C:\BITBUCKET\SPRINTBURST\CLIENT\DEBUG\CLIENT\VC141.PDB
^C:\BITBUCKET\SPRINTBURST\COMMON\ECSCOMPONENTS\MAPOBJECT\MAPOBJECTCOMPONENTS.CPP
C:\BITBUCKET\SPRINTBURST\CLIENT\DEBUG\CLIENT\VC141.PDB
^C:\BITBUCKET\SPRINTBURST\COMMON\ECSLISTENERS\COMMON\COMMONLISTENERS.CPP
C:\BITBUCKET\SPRINTBURST\CLIENT\DEBUG\CLIENT\VC141.PDB
^C:\BITBUCKET\SPRINTBURST\COMMON\ECSSYSTEMS\CHARACTER\HACKERUPDATESYSTEM.CPP
C:\BITBUCKET\SPRINTBURST\CLIENT\DEBUG\CLIENT\VC141.PDB
^C:\BITBUCKET\SPRINTBURST\COMMON\ECSSYSTEMS\CHARACTER\PLAYERUPDATESYSTEM.CPP
C:\BITBUCKET\SPRINTBURST\CLIENT\DEBUG\CLIENT\VC141.PDB
^C:\BITBUCKET\SPRINTBURST\COMMON\ECSSYSTEMS\COMMON\COMMONSYSTEMS.CPP
C:\BITBUCKET\SPRINTBURST\CLIENT\DEBUG\CLIENT\VC141.PDB
^C:\BITBUCKET\SPRINTBURST\COMMON\ECSSYSTEMS\MAPOBJECT\MAPOBJECTSYSTEMS.CPP
C:\BITBUCKET\SPRINTBURST\CLIENT\DEBUG\CLIENT\VC141.PDB
^C:\BITBUCKET\SPRINTBURST\COMMON\MAINSYSTEMS\CLOSURETASKMANAGER\CLOSURETASKMANAGER.CPP
C:\BITBUCKET\SPRINTBURST\CLIENT\DEBUG\CLIENT\VC141.PDB
^C:\BITBUCKET\SPRINTBURST\COMMON\MAINSYSTEMS\COLLISIONENGINE\COLLISIONENGINE.CPP
C:\BITBUCKET\SPRINTBURST\CLIENT\DEBUG\CLIENT\VC141.PDB
^C:\BITBUCKET\SPRINTBURST\COMMON\MAINSYSTEMS\LEVEL\LEVEL.CPP
C:\BITBUCKET\SPRINTBURST\CLIENT\DEBUG\CLIENT\VC141.PDB
^C:\BITBUCKET\SPRINTBURST\COMMON\SHADER\LIGHT\LIGHTMANAGER.CPP
C:\BITBUCKET\SPRINTBURST\CLIENT\DEBUG\CLIENT\VC141.PDB
^C:\BITBUCKET\SPRINTBURST\COMMON\SHADER\LIGHT\LIGHTS.CPP
C:\BITBUCKET\SPRINTBURST\CLIENT\DEBUG\CLIENT\VC141.PDB
^C:\BITBUCKET\SPRINTBURST\COMMON\SHADER\POSTEFFECT\EFFECTPASS\DOFPASS.CPP
C:\BITBUCKET\SPRINTBURST\CLIENT\DEBUG\CLIENT\VC141.PDB
^C:\BITBUCKET\SPRINTBURST\COMMON\SHADER\POSTEFFECT\EFFECTPASS\HEPASS.CPP
C:\BITBUCKET\SPRINTBURST\CLIENT\DEBUG\CLIENT\VC141.PDB
^C:\BITBUCKET\SPRINTBURST\COMMON\SHADER\POSTEFFECT\EFFECTPASS\LIGHTBLOOMPASS.CPP
C:\BITBUCKET\SPRINTBURST\CLIENT\DEBUG\CLIENT\VC141.PDB
^C:\BITBUCKET\SPRINTBURST\COMMON\SHADER\POSTEFFECT\EFFECTPASS\SETUPPASS.CPP
C:\BITBUCKET\SPRINTBURST\CLIENT\DEBUG\CLIENT\VC141.PDB
^C:\BITBUCKET\SPRINTBURST\COMMON\SHADER\POSTEFFECT\EFFECTPASS\SSAOPASS.CPP
C:\BITBUCKET\SPRINTBURST\CLIENT\DEBUG\CLIENT\VC141.PDB
^C:\BITBUCKET\SPRINTBURST\COMMON\SHADER\POSTEFFECT\EFFECTPASS\XRAYPASS.CPP
C:\BITBUCKET\SPRINTBURST\CLIENT\DEBUG\CLIENT\VC141.PDB
^C:\BITBUCKET\SPRINTBURST\COMMON\SHADER\POSTEFFECT\POSTEFFECTS.CPP
C:\BITBUCKET\SPRINTBURST\CLIENT\DEBUG\CLIENT\VC141.PDB
^C:\BITBUCKET\SPRINTBURST\COMMON\SHADER\RENDERERSET\RENDERERSET.CPP
C:\BITBUCKET\SPRINTBURST\CLIENT\DEBUG\CLIENT\VC141.PDB
^C:\BITBUCKET\SPRINTBURST\COMMON\SHADER\RENDERER\BLUR\BLURSHADER.CPP
C:\BITBUCKET\SPRINTBURST\CLIENT\DEBUG\CLIENT\VC141.PDB
^C:\BITBUCKET\SPRINTBURST\COMMON\SHADER\RENDERER\DOF\DOF_SHADER.CPP
C:\BITBUCKET\SPRINTBURST\CLIENT\DEBUG\CLIENT\VC141.PDB
^C:\BITBUCKET\SPRINTBURST\COMMON\SHADER\RENDERER\LINERENDERER\LINERENDERER.CPP
C:\BITBUCKET\SPRINTBURST\CLIENT\DEBUG\CLIENT\VC141.PDB
^C:\BITBUCKET\SPRINTBURST\COMMON\SHADER\RENDERER\MODELRENDERER\DEBUGCOLLIDERMESHRENDERER.CPP
C:\BITBUCKET\SPRINTBURST\CLIENT\DEBUG\CLIENT\VC141.PDB
^C:\BITBUCKET\SPRINTBURST\COMMON\SHADER\RENDERER\MODELRENDERER\MESHRENDERER.CPP
C:\BITBUCKET\SPRINTBURST\CLIENT\DEBUG\CLIENT\VC141.PDB
^C:\BITBUCKET\SPRINTBURST\COMMON\SHADER\RENDERER\MODELRENDERER\MODELRENDERINGPIPELINE.CPP
C:\BITBUCKET\SPRINTBURST\CLIENT\DEBUG\CLIENT\VC141.PDB
^C:\BITBUCKET\SPRINTBURST\COMMON\SHADER\RENDERER\MODELRENDERER\SKINMESHRENDERER.CPP
C:\BITBUCKET\SPRINTBURST\CLIENT\DEBUG\CLIENT\VC141.PDB
^C:\BITBUCKET\SPRINTBURST\COMMON\SHADER\RENDERER\SPRITERENDERER\SPRITERENDERER.CPP
C:\BITBUCKET\SPRINTBURST\CLIENT\DEBUG\CLIENT\VC141.PDB
^C:\BITBUCKET\SPRINTBURST\COMMON\SHADER\RENDERER\SSAO\SSAOSHADER.CPP
C:\BITBUCKET\SPRINTBURST\CLIENT\DEBUG\CLIENT\VC141.PDB
^C:\BITBUCKET\SPRINTBURST\COMMON\SHADER\RENDERER\X-RAY\X-RAY.CPP
C:\BITBUCKET\SPRINTBURST\CLIENT\DEBUG\CLIENT\VC141.PDB
^C:\BITBUCKET\SPRINTBURST\COMMON\SHADER\SHADERMANAGER.CPP
C:\BITBUCKET\SPRINTBURST\CLIENT\DEBUG\CLIENT\VC141.PDB
^C:\BITBUCKET\SPRINTBURST\COMMON\STATE\STATE.CPP
C:\BITBUCKET\SPRINTBURST\CLIENT\DEBUG\CLIENT\VC141.PDB
^C:\BITBUCKET\SPRINTBURST\EZLIB\ANIMATION\ZBONECONTROLLER.CPP
C:\BITBUCKET\SPRINTBURST\CLIENT\DEBUG\CLIENT\VC141.PDB
^C:\BITBUCKET\SPRINTBURST\EZLIB\ANIMATION\ZKEYFRAMEANIMATION.CPP
C:\BITBUCKET\SPRINTBURST\CLIENT\DEBUG\CLIENT\VC141.PDB
^C:\BITBUCKET\SPRINTBURST\EZLIB\ANIMATION\ZUVANIMATION.CPP
C:\BITBUCKET\SPRINTBURST\CLIENT\DEBUG\CLIENT\VC141.PDB
^C:\BITBUCKET\SPRINTBURST\EZLIB\CAMERA\ZCAMERA.CPP
C:\BITBUCKET\SPRINTBURST\CLIENT\DEBUG\CLIENT\VC141.PDB
^C:\BITBUCKET\SPRINTBURST\EZLIB\COLLISION\ZCOLLISION.CPP
C:\BITBUCKET\SPRINTBURST\CLIENT\DEBUG\CLIENT\VC141.PDB
^C:\BITBUCKET\SPRINTBURST\EZLIB\DEBUGWINDOW\DEBUGWINDOW.CPP
C:\BITBUCKET\SPRINTBURST\CLIENT\DEBUG\CLIENT\VC141.PDB
^C:\BITBUCKET\SPRINTBURST\EZLIB\EFFECT\ZEFFECTMANAGER.CPP
C:\BITBUCKET\SPRINTBURST\CLIENT\DEBUG\CLIENT\VC141.PDB
^C:\BITBUCKET\SPRINTBURST\EZLIB\FONT\ZFONT.CPP
C:\BITBUCKET\SPRINTBURST\CLIENT\DEBUG\CLIENT\VC141.PDB
^C:\BITBUCKET\SPRINTBURST\EZLIB\GRAPHICS\ZBILLBOARD.CPP
C:\BITBUCKET\SPRINTBURST\CLIENT\DEBUG\CLIENT\VC141.PDB
^C:\BITBUCKET\SPRINTBURST\EZLIB\GRAPHICS\ZDIRECTXGRAPHICS.CPP
C:\BITBUCKET\SPRINTBURST\CLIENT\DEBUG\CLIENT\VC141.PDB
^C:\BITBUCKET\SPRINTBURST\EZLIB\GRAPHICS\ZGAMEMODEL.CPP
C:\BITBUCKET\SPRINTBURST\CLIENT\DEBUG\CLIENT\VC141.PDB
^C:\BITBUCKET\SPRINTBURST\EZLIB\GRAPHICS\ZLASER.CPP
C:\BITBUCKET\SPRINTBURST\CLIENT\DEBUG\CLIENT\VC141.PDB
^C:\BITBUCKET\SPRINTBURST\EZLIB\GRAPHICS\ZMESH.CPP
C:\BITBUCKET\SPRINTBURST\CLIENT\DEBUG\CLIENT\VC141.PDB
^C:\BITBUCKET\SPRINTBURST\EZLIB\GRAPHICS\ZPIXELSHADER.CPP
C:\BITBUCKET\SPRINTBURST\CLIENT\DEBUG\CLIENT\VC141.PDB
^C:\BITBUCKET\SPRINTBURST\EZLIB\GRAPHICS\ZPOLYGON.CPP
C:\BITBUCKET\SPRINTBURST\CLIENT\DEBUG\CLIENT\VC141.PDB
^C:\BITBUCKET\SPRINTBURST\EZLIB\GRAPHICS\ZPOSTEFFECTS.CPP
C:\BITBUCKET\SPRINTBURST\CLIENT\DEBUG\CLIENT\VC141.PDB
^C:\BITBUCKET\SPRINTBURST\EZLIB\GRAPHICS\ZSHADERSET.CPP
C:\BITBUCKET\SPRINTBURST\CLIENT\DEBUG\CLIENT\VC141.PDB
^C:\BITBUCKET\SPRINTBURST\EZLIB\GRAPHICS\ZSINGLEMODEL.CPP
C:\BITBUCKET\SPRINTBURST\CLIENT\DEBUG\CLIENT\VC141.PDB
^C:\BITBUCKET\SPRINTBURST\EZLIB\GRAPHICS\ZSTATES.CPP
C:\BITBUCKET\SPRINTBURST\CLIENT\DEBUG\CLIENT\VC141.PDB
^C:\BITBUCKET\SPRINTBURST\EZLIB\GRAPHICS\ZTEXTURE.CPP
C:\BITBUCKET\SPRINTBURST\CLIENT\DEBUG\CLIENT\VC141.PDB
^C:\BITBUCKET\SPRINTBURST\EZLIB\GRAPHICS\ZVERTEXSHADER.CPP
C:\BITBUCKET\SPRINTBURST\CLIENT\DEBUG\CLIENT\VC141.PDB
^C:\BITBUCKET\SPRINTBURST\EZLIB\INPUT\ZINPUT.CPP
C:\BITBUCKET\SPRINTBURST\CLIENT\DEBUG\CLIENT\VC141.PDB
^C:\BITBUCKET\SPRINTBURST\EZLIB\MAINFRAME\ZMAINFRAME.CPP
C:\BITBUCKET\SPRINTBURST\CLIENT\DEBUG\CLIENT\VC141.PDB
^C:\BITBUCKET\SPRINTBURST\EZLIB\MATH\ZMATRIX.CPP
C:\BITBUCKET\SPRINTBURST\CLIENT\DEBUG\CLIENT\VC141.PDB
^C:\BITBUCKET\SPRINTBURST\EZLIB\MATH\ZQUAT.CPP
C:\BITBUCKET\SPRINTBURST\CLIENT\DEBUG\CLIENT\VC141.PDB
^C:\BITBUCKET\SPRINTBURST\EZLIB\MATH\ZVEC2.CPP
C:\BITBUCKET\SPRINTBURST\CLIENT\DEBUG\CLIENT\VC141.PDB
^C:\BITBUCKET\SPRINTBURST\EZLIB\MATH\ZVEC3.CPP
C:\BITBUCKET\SPRINTBURST\CLIENT\DEBUG\CLIENT\VC141.PDB
^C:\BITBUCKET\SPRINTBURST\EZLIB\MATH\ZVEC4.CPP
C:\BITBUCKET\SPRINTBURST\CLIENT\DEBUG\CLIENT\VC141.PDB
^C:\BITBUCKET\SPRINTBURST\EZLIB\MEMORYALLOCATER\MEMORY.CPP
C:\BITBUCKET\SPRINTBURST\CLIENT\DEBUG\CLIENT\VC141.PDB
^C:\BITBUCKET\SPRINTBURST\EZLIB\MEMORYALLOCATER\ZMEMORYALLOCATOR.CPP
C:\BITBUCKET\SPRINTBURST\CLIENT\DEBUG\CLIENT\VC141.PDB
^C:\BITBUCKET\SPRINTBURST\EZLIB\MEMORYALLOCATER\ZSMARTPOINTER.CPP
C:\BITBUCKET\SPRINTBURST\CLIENT\DEBUG\CLIENT\VC141.PDB
^C:\BITBUCKET\SPRINTBURST\EZLIB\MMD\ZMMDMATERIAL.CPP
C:\BITBUCKET\SPRINTBURST\CLIENT\DEBUG\CLIENT\VC141.PDB
^C:\BITBUCKET\SPRINTBURST\EZLIB\MMD\ZPMD.CPP
C:\BITBUCKET\SPRINTBURST\CLIENT\DEBUG\CLIENT\VC141.PDB
^C:\BITBUCKET\SPRINTBURST\EZLIB\MMD\ZPMX.CPP
C:\BITBUCKET\SPRINTBURST\CLIENT\DEBUG\CLIENT\VC141.PDB
^C:\BITBUCKET\SPRINTBURST\EZLIB\MMD\ZPMX2ZGAMEMODEL.CPP
C:\BITBUCKET\SPRINTBURST\CLIENT\DEBUG\CLIENT\VC141.PDB
^C:\BITBUCKET\SPRINTBURST\EZLIB\MMD\ZVMD.CPP
C:\BITBUCKET\SPRINTBURST\CLIENT\DEBUG\CLIENT\VC141.PDB
^C:\BITBUCKET\SPRINTBURST\EZLIB\NETWORK\NETWORKCOMMON.CPP
C:\BITBUCKET\SPRINTBURST\CLIENT\DEBUG\CLIENT\VC141.PDB
^C:\BITBUCKET\SPRINTBURST\EZLIB\NETWORK\ZCLIENT.CPP
C:\BITBUCKET\SPRINTBURST\CLIENT\DEBUG\CLIENT\VC141.PDB
^C:\BITBUCKET\SPRINTBURST\EZLIB\NETWORK\ZSERVER.CPP
C:\BITBUCKET\SPRINTBURST\CLIENT\DEBUG\CLIENT\VC141.PDB
^C:\BITBUCKET\SPRINTBURST\EZLIB\PHYSICS\ZBULLETPHYSICSENGINE.CPP
C:\BITBUCKET\SPRINTBURST\CLIENT\DEBUG\CLIENT\VC141.PDB
^C:\BITBUCKET\SPRINTBURST\EZLIB\PHYSICS\ZBULLET_DEBUGDRAW.CPP
C:\BITBUCKET\SPRINTBURST\CLIENT\DEBUG\CLIENT\VC141.PDB
^C:\BITBUCKET\SPRINTBURST\EZLIB\PHYSICS\ZBULLET_JOINT.CPP
C:\BITBUCKET\SPRINTBURST\CLIENT\DEBUG\CLIENT\VC141.PDB
^C:\BITBUCKET\SPRINTBURST\EZLIB\PHYSICS\ZBULLET_RIGIDBODY.CPP
C:\BITBUCKET\SPRINTBURST\CLIENT\DEBUG\CLIENT\VC141.PDB
^C:\BITBUCKET\SPRINTBURST\EZLIB\PHYSICS\ZBULLET_SHAPE.CPP
C:\BITBUCKET\SPRINTBURST\CLIENT\DEBUG\CLIENT\VC141.PDB
^C:\BITBUCKET\SPRINTBURST\EZLIB\SCENE\ZSCENE.CPP
C:\BITBUCKET\SPRINTBURST\CLIENT\DEBUG\CLIENT\VC141.PDB
^C:\BITBUCKET\SPRINTBURST\EZLIB\SOUNDS\ZSOUND.CPP
C:\BITBUCKET\SPRINTBURST\CLIENT\DEBUG\CLIENT\VC141.PDB
^C:\BITBUCKET\SPRINTBURST\EZLIB\SUBSYSTEM\ZSUBSYSTEM.CPP
C:\BITBUCKET\SPRINTBURST\CLIENT\DEBUG\CLIENT\VC141.PDB
^C:\BITBUCKET\SPRINTBURST\EZLIB\TOOLS\CSV\ZCSV.CPP
C:\BITBUCKET\SPRINTBURST\CLIENT\DEBUG\CLIENT\VC141.PDB
^C:\BITBUCKET\SPRINTBURST\EZLIB\TOOLS\XEDLOADER\ZXEDLOADER.CPP
C:\BITBUCKET\SPRINTBURST\CLIENT\DEBUG\CLIENT\VC141.PDB
^C:\BITBUCKET\SPRINTBURST\EZLIB\TOOLS\ZRESOURCESTORAGE.CPP
C:\BITBUCKET\SPRINTBURST\CLIENT\DEBUG\CLIENT\VC141.PDB
^C:\BITBUCKET\SPRINTBURST\EZLIB\UTILS\TEXTFILEREADER.CPP
C:\BITBUCKET\SPRINTBURST\CLIENT\DEBUG\CLIENT\VC141.PDB
^C:\BITBUCKET\SPRINTBURST\EZLIB\UTILS\ZFILE.CPP
C:\BITBUCKET\SPRINTBURST\CLIENT\DEBUG\CLIENT\VC141.PDB
^C:\BITBUCKET\SPRINTBURST\EZLIB\UTILS\ZMTRAND.CPP
C:\BITBUCKET\SPRINTBURST\CLIENT\DEBUG\CLIENT\VC141.PDB
^C:\BITBUCKET\SPRINTBURST\EZLIB\UTILS\ZPATHUTIL.CPP
C:\BITBUCKET\SPRINTBURST\CLIENT\DEBUG\CLIENT\VC141.PDB
^C:\BITBUCKET\SPRINTBURST\EZLIB\UTILS\ZTHREADPOOL.CPP
C:\BITBUCKET\SPRINTBURST\CLIENT\DEBUG\CLIENT\VC141.PDB
^C:\BITBUCKET\SPRINTBURST\EZLIB\UTILS\ZUUID.CPP
C:\BITBUCKET\SPRINTBURST\CLIENT\DEBUG\CLIENT\VC141.PDB
^C:\BITBUCKET\SPRINTBURST\EZLIB\UTILS\ZVFS.CPP
C:\BITBUCKET\SPRINTBURST\CLIENT\DEBUG\CLIENT\VC141.PDB
^C:\BITBUCKET\SPRINTBURST\EZLIB\WINDOW\ZWINDOW.CPP
C:\BITBUCKET\SPRINTBURST\CLIENT\DEBUG\CLIENT\VC141.PDB
^C:\BITBUCKET\SPRINTBURST\EZLIB\ZECS\ECS.CPP
C:\BITBUCKET\SPRINTBURST\CLIENT\DEBUG\CLIENT\VC141.PDB
^C:\BITBUCKET\SPRINTBURST\EZLIB\ZECS\ECSCOMPONENT.CPP
C:\BITBUCKET\SPRINTBURST\CLIENT\DEBUG\CLIENT\VC141.PDB
^C:\BITBUCKET\SPRINTBURST\EZLIB\ZECS\ECSENTITY.CPP
C:\BITBUCKET\SPRINTBURST\CLIENT\DEBUG\CLIENT\VC141.PDB
^C:\BITBUCKET\SPRINTBURST\EZLIB\ZECS\ECSLISTENER.CPP
C:\BITBUCKET\SPRINTBURST\CLIENT\DEBUG\CLIENT\VC141.PDB
^C:\BITBUCKET\SPRINTBURST\EZLIB\ZECS\ECSSYSTEM.CPP
C:\BITBUCKET\SPRINTBURST\CLIENT\DEBUG\CLIENT\VC141.PDB
^C:\BITBUCKET\SPRINTBURST\EZLIB\ZHELPER.CPP
C:\BITBUCKET\SPRINTBURST\CLIENT\DEBUG\CLIENT\VC141.PDB
^C:\BITBUCKET\SPRINTBURST\LIB\IMGUI\IMGUI.CPP
C:\BITBUCKET\SPRINTBURST\CLIENT\DEBUG\CLIENT\VC141.PDB
^C:\BITBUCKET\SPRINTBURST\LIB\IMGUI\IMGUI_DEMO.CPP
C:\BITBUCKET\SPRINTBURST\CLIENT\DEBUG\CLIENT\VC141.PDB
^C:\BITBUCKET\SPRINTBURST\LIB\IMGUI\IMGUI_DRAW.CPP
C:\BITBUCKET\SPRINTBURST\CLIENT\DEBUG\CLIENT\VC141.PDB
^C:\BITBUCKET\SPRINTBURST\LIB\IMGUI\IMGUI_IMPL_DX11.CPP
C:\BITBUCKET\SPRINTBURST\CLIENT\DEBUG\CLIENT\VC141.PDB
^C:\BITBUCKET\SPRINTBURST\LIB\IMGUI\IMGUI_IMPL_WIN32.CPP
C:\BITBUCKET\SPRINTBURST\CLIENT\DEBUG\CLIENT\VC141.PDB
^C:\BITBUCKET\SPRINTBURST\LIB\IMGUI\IMGUI_WIDGETS.CPP
C:\BITBUCKET\SPRINTBURST\CLIENT\DEBUG\CLIENT\VC141.PDB
^C:\BITBUCKET\SPRINTBURST\LIB\JSON11\JSON11.CPP
C:\BITBUCKET\SPRINTBURST\CLIENT\DEBUG\CLIENT\VC141.PDB
^C:\BITBUCKET\SPRINTBURST\CLIENT\SRC\CLIENT\CLIENTAPP.CPP
C:\BITBUCKET\SPRINTBURST\CLIENT\DEBUG\CLIENT\VC141.PDB
^C:\BITBUCKET\SPRINTBURST\CLIENT\SRC\CLIENT\SCENE\CONNECTSCENE.CPP
C:\BITBUCKET\SPRINTBURST\CLIENT\DEBUG\CLIENT\VC141.PDB
^C:\BITBUCKET\SPRINTBURST\CLIENT\SRC\MAIN.CPP
C:\BITBUCKET\SPRINTBURST\CLIENT\DEBUG\CLIENT\VC141.PDB
^C:\BITBUCKET\SPRINTBURST\CLIENT\SRC\CLIENT\SCENE\MATCHINGSCENE.CPP
C:\BITBUCKET\SPRINTBURST\CLIENT\DEBUG\CLIENT\VC141.PDB
C:\BITBUCKET\SPRINTBURST\CLIENT\DEBUG\CLIENT\VC141.IDB
C:\BITBUCKET\SPRINTBURST\CLIENT\DEBUG\CLIENT\MATCHINGSCENE.OBJ
^C:\BITBUCKET\SPRINTBURST\COMMON\MAINSYSTEMS\GAMEWORLD\GAMEWORLD.CPP
C:\BITBUCKET\SPRINTBURST\CLIENT\DEBUG\CLIENT\VC141.PDB
C:\BITBUCKET\SPRINTBURST\CLIENT\DEBUG\CLIENT\VC141.IDB
C:\BITBUCKET\SPRINTBURST\CLIENT\DEBUG\CLIENT\GAMEWORLD.OBJ
^C:\DEV\BITBUCKET\SPRINTBURST\EZLIB\PCH\PCH.CPP
C:\DEV\BITBUCKET\SPRINTBURST\CLIENT\DEBUG\CLIENT\CLIENT.PCH
C:\DEV\BITBUCKET\SPRINTBURST\CLIENT\DEBUG\CLIENT\VC141.PDB
C:\DEV\BITBUCKET\SPRINTBURST\CLIENT\DEBUG\CLIENT\VC141.IDB
C:\DEV\BITBUCKET\SPRINTBURST\CLIENT\DEBUG\CLIENT\PCH.OBJ
^C:\DEV\BITBUCKET\SPRINTBURST\CLIENT\SRC\CLIENT\CLIENTAPP.CPP|C:\DEV\BITBUCKET\SPRINTBURST\CLIENT\SRC\CLIENT\SCENE\CONNECTSCENE.CPP|C:\DEV\BITBUCKET\SPRINTBURST\CLIENT\SRC\CLIENT\SCENE\MATCHINGSCENE.CPP|C:\DEV\BITBUCKET\SPRINTBURST\CLIENT\SRC\MAIN.CPP|C:\DEV\BITBUCKET\SPRINTBURST\COMMON\CAMERA\GAMECAMERA.CPP|C:\DEV\BITBUCKET\SPRINTBURST\COMMON\CAMERA\LIGHTCAMERA.CPP|C:\DEV\BITBUCKET\SPRINTBURST\COMMON\ECSCOMPONENTS\CHARACTER\CHARACTERCOMPONENTS.CPP|C:\DEV\BITBUCKET\SPRINTBURST\COMMON\ECSCOMPONENTS\COMMON\COMMONCOMPONENTS.CPP|C:\DEV\BITBUCKET\SPRINTBURST\COMMON\ECSCOMPONENTS\MAPOBJECT\MAPOBJECTCOMPONENTS.CPP|C:\DEV\BITBUCKET\SPRINTBURST\COMMON\ECSLISTENERS\COMMON\COMMONLISTENERS.CPP|C:\DEV\BITBUCKET\SPRINTBURST\COMMON\ECSSYSTEMS\CHARACTER\HACKERUPDATESYSTEM.CPP|C:\DEV\BITBUCKET\SPRINTBURST\COMMON\ECSSYSTEMS\CHARACTER\PLAYERUPDATESYSTEM.CPP|C:\DEV\BITBUCKET\SPRINTBURST\COMMON\ECSSYSTEMS\COMMON\COMMONSYSTEMS.CPP|C:\DEV\BITBUCKET\SPRINTBURST\COMMON\ECSSYSTEMS\MAPOBJECT\MAPOBJECTSYSTEMS.CPP|C:\DEV\BITBUCKET\SPRINTBURST\COMMON\MAINSYSTEMS\CLOSURETASKMANAGER\CLOSURETASKMANAGER.CPP|C:\DEV\BITBUCKET\SPRINTBURST\COMMON\MAINSYSTEMS\COLLISIONENGINE\COLLISIONENGINE.CPP|C:\DEV\BITBUCKET\SPRINTBURST\COMMON\MAINSYSTEMS\GAMEWORLD\GAMEWORLD.CPP|C:\DEV\BITBUCKET\SPRINTBURST\COMMON\MAINSYSTEMS\LEVEL\LEVEL.CPP|C:\DEV\BITBUCKET\SPRINTBURST\COMMON\SHADER\LIGHT\LIGHTMANAGER.CPP|C:\DEV\BITBUCKET\SPRINTBURST\COMMON\SHADER\LIGHT\LIGHTS.CPP|C:\DEV\BITBUCKET\SPRINTBURST\COMMON\SHADER\POSTEFFECT\EFFECTPASS\DOFPASS.CPP|C:\DEV\BITBUCKET\SPRINTBURST\COMMON\SHADER\POSTEFFECT\EFFECTPASS\HEPASS.CPP|C:\DEV\BITBUCKET\SPRINTBURST\COMMON\SHADER\POSTEFFECT\EFFECTPASS\LIGHTBLOOMPASS.CPP|C:\DEV\BITBUCKET\SPRINTBURST\COMMON\SHADER\POSTEFFECT\EFFECTPASS\SETUPPASS.CPP|C:\DEV\BITBUCKET\SPRINTBURST\COMMON\SHADER\POSTEFFECT\EFFECTPASS\SSAOPASS.CPP|C:\DEV\BITBUCKET\SPRINTBURST\COMMON\SHADER\POSTEFFECT\EFFECTPASS\XRAYPASS.CPP|C:\DEV\BITBUCKET\SPRINTBURST\COMMON\SHADER\POSTEFFECT\POSTEFFECTS.CPP|C:\DEV\BITBUCKET\SPRINTBURST\COMMON\SHADER\RENDERERSET\RENDERERSET.CPP|C:\DEV\BITBUCKET\SPRINTBURST\COMMON\SHADER\RENDERER\BLUR\BLURSHADER.CPP|C:\DEV\BITBUCKET\SPRINTBURST\COMMON\SHADER\RENDERER\DOF\DOF_SHADER.CPP|C:\DEV\BITBUCKET\SPRINTBURST\COMMON\SHADER\RENDERER\LINERENDERER\LINERENDERER.CPP|C:\DEV\BITBUCKET\SPRINTBURST\COMMON\SHADER\RENDERER\MODELRENDERER\DEBUGCOLLIDERMESHRENDERER.CPP|C:\DEV\BITBUCKET\SPRINTBURST\COMMON\SHADER\RENDERER\MODELRENDERER\MESHRENDERER.CPP|C:\DEV\BITBUCKET\SPRINTBURST\COMMON\SHADER\RENDERER\MODELRENDERER\MODELRENDERINGPIPELINE.CPP|C:\DEV\BITBUCKET\SPRINTBURST\COMMON\SHADER\RENDERER\MODELRENDERER\SKINMESHRENDERER.CPP|C:\DEV\BITBUCKET\SPRINTBURST\COMMON\SHADER\RENDERER\SPRITERENDERER\SPRITERENDERER.CPP|C:\DEV\BITBUCKET\SPRINTBURST\COMMON\SHADER\RENDERER\SSAO\SSAOSHADER.CPP|C:\DEV\BITBUCKET\SPRINTBURST\COMMON\SHADER\RENDERER\X-RAY\X-RAY.CPP|C:\DEV\BITBUCKET\SPRINTBURST\COMMON\SHADER\SHADERMANAGER.CPP|C:\DEV\BITBUCKET\SPRINTBURST\COMMON\STATE\STATE.CPP|C:\DEV\BITBUCKET\SPRINTBURST\EZLIB\ANIMATION\ZBONECONTROLLER.CPP|C:\DEV\BITBUCKET\SPRINTBURST\EZLIB\ANIMATION\ZKEYFRAMEANIMATION.CPP|C:\DEV\BITBUCKET\SPRINTBURST\EZLIB\ANIMATION\ZUVANIMATION.CPP|C:\DEV\BITBUCKET\SPRINTBURST\EZLIB\CAMERA\ZCAMERA.CPP|C:\DEV\BITBUCKET\SPRINTBURST\EZLIB\COLLISION\ZCOLLISION.CPP|C:\DEV\BITBUCKET\SPRINTBURST\EZLIB\DEBUGWINDOW\DEBUGWINDOW.CPP|C:\DEV\BITBUCKET\SPRINTBURST\EZLIB\EFFECT\ZEFFECTMANAGER.CPP|C:\DEV\BITBUCKET\SPRINTBURST\EZLIB\FONT\ZFONT.CPP|C:\DEV\BITBUCKET\SPRINTBURST\EZLIB\GRAPHICS\ZBILLBOARD.CPP|C:\DEV\BITBUCKET\SPRINTBURST\EZLIB\GRAPHICS\ZDIRECTXGRAPHICS.CPP|C:\DEV\BITBUCKET\SPRINTBURST\EZLIB\GRAPHICS\ZGAMEMODEL.CPP|C:\DEV\BITBUCKET\SPRINTBURST\EZLIB\GRAPHICS\ZLASER.CPP|C:\DEV\BITBUCKET\SPRINTBURST\EZLIB\GRAPHICS\ZMESH.CPP|C:\DEV\BITBUCKET\SPRINTBURST\EZLIB\GRAPHICS\ZPIXELSHADER.CPP|C:\DEV\BITBUCKET\SPRINTBURST\EZLIB\GRAPHICS\ZPOLYGON.CPP|C:\DEV\BITBUCKET\SPRINTBURST\EZLIB\GRAPHICS\ZPOSTEFFECTS.CPP|C:\DEV\BITBUCKET\SPRINTBURST\EZLIB\GRAPHICS\ZSHADERSET.CPP|C:\DEV\BITBUCKET\SPRINTBURST\EZLIB\GRAPHICS\ZSINGLEMODEL.CPP|C:\DEV\BITBUCKET\SPRINTBURST\EZLIB\GRAPHICS\ZSTATES.CPP|C:\DEV\BITBUCKET\SPRINTBURST\EZLIB\GRAPHICS\ZTEXTURE.CPP|C:\DEV\BITBUCKET\SPRINTBURST\EZLIB\GRAPHICS\ZVERTEXSHADER.CPP|C:\DEV\BITBUCKET\SPRINTBURST\EZLIB\INPUT\ZINPUT.CPP|C:\DEV\BITBUCKET\SPRINTBURST\EZLIB\MAINFRAME\ZMAINFRAME.CPP|C:\DEV\BITBUCKET\SPRINTBURST\EZLIB\MATH\ZMATRIX.CPP|C:\DEV\BITBUCKET\SPRINTBURST\EZLIB\MATH\ZQUAT.CPP|C:\DEV\BITBUCKET\SPRINTBURST\EZLIB\MATH\ZVEC2.CPP|C:\DEV\BITBUCKET\SPRINTBURST\EZLIB\MATH\ZVEC3.CPP|C:\DEV\BITBUCKET\SPRINTBURST\EZLIB\MATH\ZVEC4.CPP|C:\DEV\BITBUCKET\SPRINTBURST\EZLIB\MEMORYALLOCATER\MEMORY.CPP|C:\DEV\BITBUCKET\SPRINTBURST\EZLIB\MEMORYALLOCATER\ZMEMORYALLOCATOR.CPP|C:\DEV\BITBUCKET\SPRINTBURST\EZLIB\MEMORYALLOCATER\ZSMARTPOINTER.CPP|C:\DEV\BITBUCKET\SPRINTBURST\EZLIB\MMD\ZMMDMATERIAL.CPP|C:\DEV\BITBUCKET\SPRINTBURST\EZLIB\MMD\ZPMD.CPP|C:\DEV\BITBUCKET\SPRINTBURST\EZLIB\MMD\ZPMX.CPP|C:\DEV\BITBUCKET\SPRINTBURST\EZLIB\MMD\ZPMX2ZGAMEMODEL.CPP|C:\DEV\BITBUCKET\SPRINTBURST\EZLIB\MMD\ZVMD.CPP|C:\DEV\BITBUCKET\SPRINTBURST\EZLIB\NETWORK\NETWORKCOMMON.CPP|C:\DEV\BITBUCKET\SPRINTBURST\EZLIB\NETWORK\ZCLIENT.CPP|C:\DEV\BITBUCKET\SPRINTBURST\EZLIB\NETWORK\ZSERVER.CPP|C:\DEV\BITBUCKET\SPRINTBURST\EZLIB\PHYSICS\ZBULLETPHYSICSENGINE.CPP|C:\DEV\BITBUCKET\SPRINTBURST\EZLIB\PHYSICS\ZBULLET_DEBUGDRAW.CPP|C:\DEV\BITBUCKET\SPRINTBURST\EZLIB\PHYSICS\ZBULLET_JOINT.CPP|C:\DEV\BITBUCKET\SPRINTBURST\EZLIB\PHYSICS\ZBULLET_RIGIDBODY.CPP|C:\DEV\BITBUCKET\SPRINTBURST\EZLIB\PHYSICS\ZBULLET_SHAPE.CPP|C:\DEV\BITBUCKET\SPRINTBURST\EZLIB\SCENE\ZSCENE.CPP|C:\DEV\BITBUCKET\SPRINTBURST\EZLIB\SOUNDS\ZSOUND.CPP|C:\DEV\BITBUCKET\SPRINTBURST\EZLIB\SUBSYSTEM\ZSUBSYSTEM.CPP|C:\DEV\BITBUCKET\SPRINTBURST\EZLIB\TOOLS\CSV\ZCSV.CPP|C:\DEV\BITBUCKET\SPRINTBURST\EZLIB\TOOLS\XEDLOADER\ZXEDLOADER.CPP|C:\DEV\BITBUCKET\SPRINTBURST\EZLIB\TOOLS\ZRESOURCESTORAGE.CPP|C:\DEV\BITBUCKET\SPRINTBURST\EZLIB\UTILS\TEXTFILEREADER.CPP|C:\DEV\BITBUCKET\SPRINTBURST\EZLIB\UTILS\ZFILE.CPP|C:\DEV\BITBUCKET\SPRINTBURST\EZLIB\UTILS\ZMTRAND.CPP|C:\DEV\BITBUCKET\SPRINTBURST\EZLIB\UTILS\ZPATHUTIL.CPP|C:\DEV\BITBUCKET\SPRINTBURST\EZLIB\UTILS\ZTHREADPOOL.CPP|C:\DEV\BITBUCKET\SPRINTBURST\EZLIB\UTILS\ZUUID.CPP|C:\DEV\BITBUCKET\SPRINTBURST\EZLIB\UTILS\ZVFS.CPP|C:\DEV\BITBUCKET\SPRINTBURST\EZLIB\WINDOW\ZWINDOW.CPP|C:\DEV\BITBUCKET\SPRINTBURST\EZLIB\ZECS\ECS.CPP|C:\DEV\BITBUCKET\SPRINTBURST\EZLIB\ZECS\ECSCOMPONENT.CPP|C:\DEV\BITBUCKET\SPRINTBURST\EZLIB\ZECS\ECSENTITY.CPP|C:\DEV\BITBUCKET\SPRINTBURST\EZLIB\ZECS\ECSLISTENER.CPP|C:\DEV\BITBUCKET\SPRINTBURST\EZLIB\ZECS\ECSSYSTEM.CPP|C:\DEV\BITBUCKET\SPRINTBURST\EZLIB\ZHELPER.CPP|C:\DEV\BITBUCKET\SPRINTBURST\LIB\IMGUI\IMGUI.CPP|C:\DEV\BITBUCKET\SPRINTBURST\LIB\IMGUI\IMGUI_DEMO.CPP|C:\DEV\BITBUCKET\SPRINTBURST\LIB\IMGUI\IMGUI_DRAW.CPP|C:\DEV\BITBUCKET\SPRINTBURST\LIB\IMGUI\IMGUI_IMPL_DX11.CPP|C:\DEV\BITBUCKET\SPRINTBURST\LIB\IMGUI\IMGUI_IMPL_WIN32.CPP|C:\DEV\BITBUCKET\SPRINTBURST\LIB\IMGUI\IMGUI_WIDGETS.CPP|C:\DEV\BITBUCKET\SPRINTBURST\LIB\JSON11\JSON11.CPP
C:\DEV\BITBUCKET\SPRINTBURST\CLIENT\DEBUG\CLIENT\CHARACTERCOMPONENTS.OBJ
C:\DEV\BITBUCKET\SPRINTBURST\CLIENT\DEBUG\CLIENT\HEPASS.OBJ
C:\DEV\BITBUCKET\SPRINTBURST\CLIENT\DEBUG\CLIENT\DEBUGCOLLIDERMESHRENDERER.OBJ
C:\DEV\BITBUCKET\SPRINTBURST\CLIENT\DEBUG\CLIENT\ZUVANIMATION.OBJ
C:\DEV\BITBUCKET\SPRINTBURST\CLIENT\DEBUG\CLIENT\ZBILLBOARD.OBJ
C:\DEV\BITBUCKET\SPRINTBURST\CLIENT\DEBUG\CLIENT\ZSINGLEMODEL.OBJ
C:\DEV\BITBUCKET\SPRINTBURST\CLIENT\DEBUG\CLIENT\ZVEC4.OBJ
C:\DEV\BITBUCKET\SPRINTBURST\CLIENT\DEBUG\CLIENT\ZSERVER.OBJ
C:\DEV\BITBUCKET\SPRINTBURST\CLIENT\DEBUG\CLIENT\ZUUID.OBJ
C:\DEV\BITBUCKET\SPRINTBURST\CLIENT\DEBUG\CLIENT\IMGUI_DRAW.OBJ
C:\DEV\BITBUCKET\SPRINTBURST\CLIENT\DEBUG\CLIENT\MAPOBJECTCOMPONENTS.OBJ
C:\DEV\BITBUCKET\SPRINTBURST\CLIENT\DEBUG\CLIENT\GAMEWORLD.OBJ
C:\DEV\BITBUCKET\SPRINTBURST\CLIENT\DEBUG\CLIENT\SHADERMANAGER.OBJ
C:\DEV\BITBUCKET\SPRINTBURST\CLIENT\DEBUG\CLIENT\ZSHADERSET.OBJ
C:\DEV\BITBUCKET\SPRINTBURST\CLIENT\DEBUG\CLIENT\MEMORY.OBJ
C:\DEV\BITBUCKET\SPRINTBURST\CLIENT\DEBUG\CLIENT\ZBULLET_SHAPE.OBJ
C:\DEV\BITBUCKET\SPRINTBURST\CLIENT\DEBUG\CLIENT\ZTHREADPOOL.OBJ
C:\DEV\BITBUCKET\SPRINTBURST\CLIENT\DEBUG\CLIENT\IMGUI_IMPL_DX11.OBJ
C:\DEV\BITBUCKET\SPRINTBURST\CLIENT\DEBUG\CLIENT\LIGHTCAMERA.OBJ
C:\DEV\BITBUCKET\SPRINTBURST\CLIENT\DEBUG\CLIENT\LEVEL.OBJ
C:\DEV\BITBUCKET\SPRINTBURST\CLIENT\DEBUG\CLIENT\POSTEFFECTS.OBJ
C:\DEV\BITBUCKET\SPRINTBURST\CLIENT\DEBUG\CLIENT\ZKEYFRAMEANIMATION.OBJ
C:\DEV\BITBUCKET\SPRINTBURST\CLIENT\DEBUG\CLIENT\ZMESH.OBJ
C:\DEV\BITBUCKET\SPRINTBURST\CLIENT\DEBUG\CLIENT\ZVEC2.OBJ
C:\DEV\BITBUCKET\SPRINTBURST\CLIENT\DEBUG\CLIENT\ZVMD.OBJ
C:\DEV\BITBUCKET\SPRINTBURST\CLIENT\DEBUG\CLIENT\ZSCENE.OBJ
C:\DEV\BITBUCKET\SPRINTBURST\CLIENT\DEBUG\CLIENT\ZWINDOW.OBJ
C:\DEV\BITBUCKET\SPRINTBURST\CLIENT\DEBUG\CLIENT\IMGUI_WIDGETS.OBJ
C:\DEV\BITBUCKET\SPRINTBURST\CLIENT\DEBUG\CLIENT\GAMECAMERA.OBJ
C:\DEV\BITBUCKET\SPRINTBURST\CLIENT\DEBUG\CLIENT\SSAOPASS.OBJ
C:\DEV\BITBUCKET\SPRINTBURST\CLIENT\DEBUG\CLIENT\SSAOSHADER.OBJ
C:\DEV\BITBUCKET\SPRINTBURST\CLIENT\DEBUG\CLIENT\ZPOLYGON.OBJ
C:\DEV\BITBUCKET\SPRINTBURST\CLIENT\DEBUG\CLIENT\ZMATRIX.OBJ
C:\DEV\BITBUCKET\SPRINTBURST\CLIENT\DEBUG\CLIENT\ZPMD.OBJ
C:\DEV\BITBUCKET\SPRINTBURST\CLIENT\DEBUG\CLIENT\ZSUBSYSTEM.OBJ
C:\DEV\BITBUCKET\SPRINTBURST\CLIENT\DEBUG\CLIENT\ECSCOMPONENT.OBJ
C:\DEV\BITBUCKET\SPRINTBURST\CLIENT\DEBUG\CLIENT\IMGUI_IMPL_WIN32.OBJ
C:\DEV\BITBUCKET\SPRINTBURST\CLIENT\DEBUG\CLIENT\COMMONCOMPONENTS.OBJ
C:\DEV\BITBUCKET\SPRINTBURST\CLIENT\DEBUG\CLIENT\DOFPASS.OBJ
C:\DEV\BITBUCKET\SPRINTBURST\CLIENT\DEBUG\CLIENT\MODELRENDERINGPIPELINE.OBJ
C:\DEV\BITBUCKET\SPRINTBURST\CLIENT\DEBUG\CLIENT\ZDIRECTXGRAPHICS.OBJ
C:\DEV\BITBUCKET\SPRINTBURST\CLIENT\DEBUG\CLIENT\ZSTATES.OBJ
C:\DEV\BITBUCKET\SPRINTBURST\CLIENT\DEBUG\CLIENT\ZMEMORYALLOCATOR.OBJ
C:\DEV\BITBUCKET\SPRINTBURST\CLIENT\DEBUG\CLIENT\ZBULLETPHYSICSENGINE.OBJ
C:\DEV\BITBUCKET\SPRINTBURST\CLIENT\DEBUG\CLIENT\ZXEDLOADER.OBJ
C:\DEV\BITBUCKET\SPRINTBURST\CLIENT\DEBUG\CLIENT\IMGUI_DEMO.OBJ
C:\DEV\BITBUCKET\SPRINTBURST\CLIENT\DEBUG\CLIENT\CLOSURETASKMANAGER.OBJ
C:\DEV\BITBUCKET\SPRINTBURST\CLIENT\DEBUG\CLIENT\LIGHTMANAGER.OBJ
C:\DEV\BITBUCKET\SPRINTBURST\CLIENT\DEBUG\CLIENT\DOF_SHADER.OBJ
C:\DEV\BITBUCKET\SPRINTBURST\CLIENT\DEBUG\CLIENT\SPRITERENDERER.OBJ
C:\DEV\BITBUCKET\SPRINTBURST\CLIENT\DEBUG\CLIENT\ZPIXELSHADER.OBJ
C:\DEV\BITBUCKET\SPRINTBURST\CLIENT\DEBUG\CLIENT\ZQUAT.OBJ
C:\DEV\BITBUCKET\SPRINTBURST\CLIENT\DEBUG\CLIENT\ZPMX2ZGAMEMODEL.OBJ
C:\DEV\BITBUCKET\SPRINTBURST\CLIENT\DEBUG\CLIENT\ZCSV.OBJ
C:\DEV\BITBUCKET\SPRINTBURST\CLIENT\DEBUG\CLIENT\ECS.OBJ
C:\DEV\BITBUCKET\SPRINTBURST\CLIENT\DEBUG\CLIENT\MATCHINGSCENE.OBJ
C:\DEV\BITBUCKET\SPRINTBURST\CLIENT\DEBUG\CLIENT\COMMONLISTENERS.OBJ
C:\DEV\BITBUCKET\SPRINTBURST\CLIENT\DEBUG\CLIENT\LIGHTBLOOMPASS.OBJ
C:\DEV\BITBUCKET\SPRINTBURST\CLIENT\DEBUG\CLIENT\X-RAY.OBJ
C:\DEV\BITBUCKET\SPRINTBURST\CLIENT\DEBUG\CLIENT\ZEFFECTMANAGER.OBJ
C:\DEV\BITBUCKET\SPRINTBURST\CLIENT\DEBUG\CLIENT\ZSMARTPOINTER.OBJ
C:\DEV\BITBUCKET\SPRINTBURST\CLIENT\DEBUG\CLIENT\ZBULLET_DEBUGDRAW.OBJ
C:\DEV\BITBUCKET\SPRINTBURST\CLIENT\DEBUG\CLIENT\ZFILE.OBJ
C:\DEV\BITBUCKET\SPRINTBURST\CLIENT\DEBUG\CLIENT\ZHELPER.OBJ
C:\DEV\BITBUCKET\SPRINTBURST\CLIENT\DEBUG\CLIENT\COLLISIONENGINE.OBJ
C:\DEV\BITBUCKET\SPRINTBURST\CLIENT\DEBUG\CLIENT\LINERENDERER.OBJ
C:\DEV\BITBUCKET\SPRINTBURST\CLIENT\DEBUG\CLIENT\ZBONECONTROLLER.OBJ
C:\DEV\BITBUCKET\SPRINTBURST\CLIENT\DEBUG\CLIENT\ZGAMEMODEL.OBJ
C:\DEV\BITBUCKET\SPRINTBURST\CLIENT\DEBUG\CLIENT\ZINPUT.OBJ
C:\DEV\BITBUCKET\SPRINTBURST\CLIENT\DEBUG\CLIENT\ZMMDMATERIAL.OBJ
C:\DEV\BITBUCKET\SPRINTBURST\CLIENT\DEBUG\CLIENT\ZBULLET_RIGIDBODY.OBJ
C:\DEV\BITBUCKET\SPRINTBURST\CLIENT\DEBUG\CLIENT\ZMTRAND.OBJ
C:\DEV\BITBUCKET\SPRINTBURST\CLIENT\DEBUG\CLIENT\ECSLISTENER.OBJ
C:\DEV\BITBUCKET\SPRINTBURST\CLIENT\DEBUG\CLIENT\CLIENTAPP.OBJ
C:\DEV\BITBUCKET\SPRINTBURST\CLIENT\DEBUG\CLIENT\COMMONSYSTEMS.OBJ
C:\DEV\BITBUCKET\SPRINTBURST\CLIENT\DEBUG\CLIENT\BLURSHADER.OBJ
C:\DEV\BITBUCKET\SPRINTBURST\CLIENT\DEBUG\CLIENT\ZCAMERA.OBJ
C:\DEV\BITBUCKET\SPRINTBURST\CLIENT\DEBUG\CLIENT\ZLASER.OBJ
C:\DEV\BITBUCKET\SPRINTBURST\CLIENT\DEBUG\CLIENT\ZTEXTURE.OBJ
C:\DEV\BITBUCKET\SPRINTBURST\CLIENT\DEBUG\CLIENT\ZPMX.OBJ
C:\DEV\BITBUCKET\SPRINTBURST\CLIENT\DEBUG\CLIENT\ZRESOURCESTORAGE.OBJ
C:\DEV\BITBUCKET\SPRINTBURST\CLIENT\DEBUG\CLIENT\ECSSYSTEM.OBJ
C:\DEV\BITBUCKET\SPRINTBURST\CLIENT\DEBUG\CLIENT\CONNECTSCENE.OBJ
C:\DEV\BITBUCKET\SPRINTBURST\CLIENT\DEBUG\CLIENT\MAPOBJECTSYSTEMS.OBJ
C:\DEV\BITBUCKET\SPRINTBURST\CLIENT\DEBUG\CLIENT\SETUPPASS.OBJ
C:\DEV\BITBUCKET\SPRINTBURST\CLIENT\DEBUG\CLIENT\SKINMESHRENDERER.OBJ
C:\DEV\BITBUCKET\SPRINTBURST\CLIENT\DEBUG\CLIENT\ZFONT.OBJ
C:\DEV\BITBUCKET\SPRINTBURST\CLIENT\DEBUG\CLIENT\ZVERTEXSHADER.OBJ
C:\DEV\BITBUCKET\SPRINTBURST\CLIENT\DEBUG\CLIENT\NETWORKCOMMON.OBJ
C:\DEV\BITBUCKET\SPRINTBURST\CLIENT\DEBUG\CLIENT\ZSOUND.OBJ
C:\DEV\BITBUCKET\SPRINTBURST\CLIENT\DEBUG\CLIENT\ZVFS.OBJ
C:\DEV\BITBUCKET\SPRINTBURST\CLIENT\DEBUG\CLIENT\JSON11.OBJ
C:\DEV\BITBUCKET\SPRINTBURST\CLIENT\DEBUG\CLIENT\HACKERUPDATESYSTEM.OBJ
C:\DEV\BITBUCKET\SPRINTBURST\CLIENT\DEBUG\CLIENT\XRAYPASS.OBJ
C:\DEV\BITBUCKET\SPRINTBURST\CLIENT\DEBUG\CLIENT\STATE.OBJ
C:\DEV\BITBUCKET\SPRINTBURST\CLIENT\DEBUG\CLIENT\DEBUGWINDOW.OBJ
C:\DEV\BITBUCKET\SPRINTBURST\CLIENT\DEBUG\CLIENT\ZMAINFRAME.OBJ
C:\DEV\BITBUCKET\SPRINTBURST\CLIENT\DEBUG\CLIENT\ZBULLET_JOINT.OBJ
C:\DEV\BITBUCKET\SPRINTBURST\CLIENT\DEBUG\CLIENT\TEXTFILEREADER.OBJ
C:\DEV\BITBUCKET\SPRINTBURST\CLIENT\DEBUG\CLIENT\ECSENTITY.OBJ
C:\DEV\BITBUCKET\SPRINTBURST\CLIENT\DEBUG\CLIENT\MAIN.OBJ
C:\DEV\BITBUCKET\SPRINTBURST\CLIENT\DEBUG\CLIENT\PLAYERUPDATESYSTEM.OBJ
C:\DEV\BITBUCKET\SPRINTBURST\CLIENT\DEBUG\CLIENT\LIGHTS.OBJ
C:\DEV\BITBUCKET\SPRINTBURST\CLIENT\DEBUG\CLIENT\RENDERERSET.OBJ
C:\DEV\BITBUCKET\SPRINTBURST\CLIENT\DEBUG\CLIENT\MESHRENDERER.OBJ
C:\DEV\BITBUCKET\SPRINTBURST\CLIENT\DEBUG\CLIENT\ZCOLLISION.OBJ
C:\DEV\BITBUCKET\SPRINTBURST\CLIENT\DEBUG\CLIENT\ZPOSTEFFECTS.OBJ
C:\DEV\BITBUCKET\SPRINTBURST\CLIENT\DEBUG\CLIENT\ZVEC3.OBJ
C:\DEV\BITBUCKET\SPRINTBURST\CLIENT\DEBUG\CLIENT\ZCLIENT.OBJ
C:\DEV\BITBUCKET\SPRINTBURST\CLIENT\DEBUG\CLIENT\ZPATHUTIL.OBJ
C:\DEV\BITBUCKET\SPRINTBURST\CLIENT\DEBUG\CLIENT\IMGUI.OBJ
^C:\DEV\BITBUCKET\SPRINTBURST\COMMON\CAMERA\GAMECAMERA.CPP
C:\DEV\BITBUCKET\SPRINTBURST\CLIENT\DEBUG\CLIENT\VC141.PDB
^C:\DEV\BITBUCKET\SPRINTBURST\COMMON\CAMERA\LIGHTCAMERA.CPP
C:\DEV\BITBUCKET\SPRINTBURST\CLIENT\DEBUG\CLIENT\VC141.PDB
^C:\DEV\BITBUCKET\SPRINTBURST\COMMON\ECSCOMPONENTS\CHARACTER\CHARACTERCOMPONENTS.CPP
C:\DEV\BITBUCKET\SPRINTBURST\CLIENT\DEBUG\CLIENT\VC141.PDB
^C:\DEV\BITBUCKET\SPRINTBURST\COMMON\ECSCOMPONENTS\COMMON\COMMONCOMPONENTS.CPP
C:\DEV\BITBUCKET\SPRINTBURST\CLIENT\DEBUG\CLIENT\VC141.PDB
^C:\DEV\BITBUCKET\SPRINTBURST\COMMON\ECSCOMPONENTS\MAPOBJECT\MAPOBJECTCOMPONENTS.CPP
C:\DEV\BITBUCKET\SPRINTBURST\CLIENT\DEBUG\CLIENT\VC141.PDB
^C:\DEV\BITBUCKET\SPRINTBURST\COMMON\ECSLISTENERS\COMMON\COMMONLISTENERS.CPP
C:\DEV\BITBUCKET\SPRINTBURST\CLIENT\DEBUG\CLIENT\VC141.PDB
^C:\DEV\BITBUCKET\SPRINTBURST\COMMON\ECSSYSTEMS\CHARACTER\HACKERUPDATESYSTEM.CPP
C:\DEV\BITBUCKET\SPRINTBURST\CLIENT\DEBUG\CLIENT\VC141.PDB
^C:\DEV\BITBUCKET\SPRINTBURST\COMMON\ECSSYSTEMS\CHARACTER\PLAYERUPDATESYSTEM.CPP
C:\DEV\BITBUCKET\SPRINTBURST\CLIENT\DEBUG\CLIENT\VC141.PDB
^C:\DEV\BITBUCKET\SPRINTBURST\COMMON\ECSSYSTEMS\COMMON\COMMONSYSTEMS.CPP
C:\DEV\BITBUCKET\SPRINTBURST\CLIENT\DEBUG\CLIENT\VC141.PDB
^C:\DEV\BITBUCKET\SPRINTBURST\COMMON\ECSSYSTEMS\MAPOBJECT\MAPOBJECTSYSTEMS.CPP
C:\DEV\BITBUCKET\SPRINTBURST\CLIENT\DEBUG\CLIENT\VC141.PDB
^C:\DEV\BITBUCKET\SPRINTBURST\COMMON\MAINSYSTEMS\CLOSURETASKMANAGER\CLOSURETASKMANAGER.CPP
C:\DEV\BITBUCKET\SPRINTBURST\CLIENT\DEBUG\CLIENT\VC141.PDB
^C:\DEV\BITBUCKET\SPRINTBURST\COMMON\MAINSYSTEMS\COLLISIONENGINE\COLLISIONENGINE.CPP
C:\DEV\BITBUCKET\SPRINTBURST\CLIENT\DEBUG\CLIENT\VC141.PDB
^C:\DEV\BITBUCKET\SPRINTBURST\COMMON\MAINSYSTEMS\GAMEWORLD\GAMEWORLD.CPP
C:\DEV\BITBUCKET\SPRINTBURST\CLIENT\DEBUG\CLIENT\VC141.PDB
^C:\DEV\BITBUCKET\SPRINTBURST\COMMON\MAINSYSTEMS\LEVEL\LEVEL.CPP
C:\DEV\BITBUCKET\SPRINTBURST\CLIENT\DEBUG\CLIENT\VC141.PDB
^C:\DEV\BITBUCKET\SPRINTBURST\COMMON\SHADER\LIGHT\LIGHTMANAGER.CPP
C:\DEV\BITBUCKET\SPRINTBURST\CLIENT\DEBUG\CLIENT\VC141.PDB
^C:\DEV\BITBUCKET\SPRINTBURST\COMMON\SHADER\LIGHT\LIGHTS.CPP
C:\DEV\BITBUCKET\SPRINTBURST\CLIENT\DEBUG\CLIENT\VC141.PDB
^C:\DEV\BITBUCKET\SPRINTBURST\COMMON\SHADER\POSTEFFECT\EFFECTPASS\DOFPASS.CPP
C:\DEV\BITBUCKET\SPRINTBURST\CLIENT\DEBUG\CLIENT\VC141.PDB
^C:\DEV\BITBUCKET\SPRINTBURST\COMMON\SHADER\POSTEFFECT\EFFECTPASS\HEPASS.CPP
C:\DEV\BITBUCKET\SPRINTBURST\CLIENT\DEBUG\CLIENT\VC141.PDB
^C:\DEV\BITBUCKET\SPRINTBURST\COMMON\SHADER\POSTEFFECT\EFFECTPASS\LIGHTBLOOMPASS.CPP
C:\DEV\BITBUCKET\SPRINTBURST\CLIENT\DEBUG\CLIENT\VC141.PDB
^C:\DEV\BITBUCKET\SPRINTBURST\COMMON\SHADER\POSTEFFECT\EFFECTPASS\SETUPPASS.CPP
C:\DEV\BITBUCKET\SPRINTBURST\CLIENT\DEBUG\CLIENT\VC141.PDB
^C:\DEV\BITBUCKET\SPRINTBURST\COMMON\SHADER\POSTEFFECT\EFFECTPASS\SSAOPASS.CPP
C:\DEV\BITBUCKET\SPRINTBURST\CLIENT\DEBUG\CLIENT\VC141.PDB
^C:\DEV\BITBUCKET\SPRINTBURST\COMMON\SHADER\POSTEFFECT\EFFECTPASS\XRAYPASS.CPP
C:\DEV\BITBUCKET\SPRINTBURST\CLIENT\DEBUG\CLIENT\VC141.PDB
^C:\DEV\BITBUCKET\SPRINTBURST\COMMON\SHADER\POSTEFFECT\POSTEFFECTS.CPP
C:\DEV\BITBUCKET\SPRINTBURST\CLIENT\DEBUG\CLIENT\VC141.PDB
^C:\DEV\BITBUCKET\SPRINTBURST\COMMON\SHADER\RENDERERSET\RENDERERSET.CPP
C:\DEV\BITBUCKET\SPRINTBURST\CLIENT\DEBUG\CLIENT\VC141.PDB
^C:\DEV\BITBUCKET\SPRINTBURST\COMMON\SHADER\RENDERER\BLUR\BLURSHADER.CPP
C:\DEV\BITBUCKET\SPRINTBURST\CLIENT\DEBUG\CLIENT\VC141.PDB
^C:\DEV\BITBUCKET\SPRINTBURST\COMMON\SHADER\RENDERER\DOF\DOF_SHADER.CPP
C:\DEV\BITBUCKET\SPRINTBURST\CLIENT\DEBUG\CLIENT\VC141.PDB
^C:\DEV\BITBUCKET\SPRINTBURST\COMMON\SHADER\RENDERER\LINERENDERER\LINERENDERER.CPP
C:\DEV\BITBUCKET\SPRINTBURST\CLIENT\DEBUG\CLIENT\VC141.PDB
^C:\DEV\BITBUCKET\SPRINTBURST\COMMON\SHADER\RENDERER\MODELRENDERER\DEBUGCOLLIDERMESHRENDERER.CPP
C:\DEV\BITBUCKET\SPRINTBURST\CLIENT\DEBUG\CLIENT\VC141.PDB
^C:\DEV\BITBUCKET\SPRINTBURST\COMMON\SHADER\RENDERER\MODELRENDERER\MESHRENDERER.CPP
C:\DEV\BITBUCKET\SPRINTBURST\CLIENT\DEBUG\CLIENT\VC141.PDB
^C:\DEV\BITBUCKET\SPRINTBURST\COMMON\SHADER\RENDERER\MODELRENDERER\MODELRENDERINGPIPELINE.CPP
C:\DEV\BITBUCKET\SPRINTBURST\CLIENT\DEBUG\CLIENT\VC141.PDB
^C:\DEV\BITBUCKET\SPRINTBURST\COMMON\SHADER\RENDERER\MODELRENDERER\SKINMESHRENDERER.CPP
C:\DEV\BITBUCKET\SPRINTBURST\CLIENT\DEBUG\CLIENT\VC141.PDB
^C:\DEV\BITBUCKET\SPRINTBURST\COMMON\SHADER\RENDERER\SPRITERENDERER\SPRITERENDERER.CPP
C:\DEV\BITBUCKET\SPRINTBURST\CLIENT\DEBUG\CLIENT\VC141.PDB
^C:\DEV\BITBUCKET\SPRINTBURST\COMMON\SHADER\RENDERER\SSAO\SSAOSHADER.CPP
C:\DEV\BITBUCKET\SPRINTBURST\CLIENT\DEBUG\CLIENT\VC141.PDB
^C:\DEV\BITBUCKET\SPRINTBURST\COMMON\SHADER\RENDERER\X-RAY\X-RAY.CPP
C:\DEV\BITBUCKET\SPRINTBURST\CLIENT\DEBUG\CLIENT\VC141.PDB
^C:\DEV\BITBUCKET\SPRINTBURST\COMMON\SHADER\SHADERMANAGER.CPP
C:\DEV\BITBUCKET\SPRINTBURST\CLIENT\DEBUG\CLIENT\VC141.PDB
^C:\DEV\BITBUCKET\SPRINTBURST\COMMON\STATE\STATE.CPP
C:\DEV\BITBUCKET\SPRINTBURST\CLIENT\DEBUG\CLIENT\VC141.PDB
^C:\DEV\BITBUCKET\SPRINTBURST\EZLIB\ANIMATION\ZBONECONTROLLER.CPP
C:\DEV\BITBUCKET\SPRINTBURST\CLIENT\DEBUG\CLIENT\VC141.PDB
^C:\DEV\BITBUCKET\SPRINTBURST\EZLIB\ANIMATION\ZKEYFRAMEANIMATION.CPP
C:\DEV\BITBUCKET\SPRINTBURST\CLIENT\DEBUG\CLIENT\VC141.PDB
^C:\DEV\BITBUCKET\SPRINTBURST\EZLIB\ANIMATION\ZUVANIMATION.CPP
C:\DEV\BITBUCKET\SPRINTBURST\CLIENT\DEBUG\CLIENT\VC141.PDB
^C:\DEV\BITBUCKET\SPRINTBURST\EZLIB\CAMERA\ZCAMERA.CPP
C:\DEV\BITBUCKET\SPRINTBURST\CLIENT\DEBUG\CLIENT\VC141.PDB
^C:\DEV\BITBUCKET\SPRINTBURST\EZLIB\COLLISION\ZCOLLISION.CPP
C:\DEV\BITBUCKET\SPRINTBURST\CLIENT\DEBUG\CLIENT\VC141.PDB
^C:\DEV\BITBUCKET\SPRINTBURST\EZLIB\DEBUGWINDOW\DEBUGWINDOW.CPP
C:\DEV\BITBUCKET\SPRINTBURST\CLIENT\DEBUG\CLIENT\VC141.PDB
^C:\DEV\BITBUCKET\SPRINTBURST\EZLIB\EFFECT\ZEFFECTMANAGER.CPP
C:\DEV\BITBUCKET\SPRINTBURST\CLIENT\DEBUG\CLIENT\VC141.PDB
^C:\DEV\BITBUCKET\SPRINTBURST\EZLIB\FONT\ZFONT.CPP
C:\DEV\BITBUCKET\SPRINTBURST\CLIENT\DEBUG\CLIENT\VC141.PDB
^C:\DEV\BITBUCKET\SPRINTBURST\EZLIB\GRAPHICS\ZBILLBOARD.CPP
C:\DEV\BITBUCKET\SPRINTBURST\CLIENT\DEBUG\CLIENT\VC141.PDB
^C:\DEV\BITBUCKET\SPRINTBURST\EZLIB\GRAPHICS\ZDIRECTXGRAPHICS.CPP
C:\DEV\BITBUCKET\SPRINTBURST\CLIENT\DEBUG\CLIENT\VC141.PDB
^C:\DEV\BITBUCKET\SPRINTBURST\EZLIB\GRAPHICS\ZGAMEMODEL.CPP
C:\DEV\BITBUCKET\SPRINTBURST\CLIENT\DEBUG\CLIENT\VC141.PDB
^C:\DEV\BITBUCKET\SPRINTBURST\EZLIB\GRAPHICS\ZLASER.CPP
C:\DEV\BITBUCKET\SPRINTBURST\CLIENT\DEBUG\CLIENT\VC141.PDB
^C:\DEV\BITBUCKET\SPRINTBURST\EZLIB\GRAPHICS\ZMESH.CPP
C:\DEV\BITBUCKET\SPRINTBURST\CLIENT\DEBUG\CLIENT\VC141.PDB
^C:\DEV\BITBUCKET\SPRINTBURST\EZLIB\GRAPHICS\ZPIXELSHADER.CPP
C:\DEV\BITBUCKET\SPRINTBURST\CLIENT\DEBUG\CLIENT\VC141.PDB
^C:\DEV\BITBUCKET\SPRINTBURST\EZLIB\GRAPHICS\ZPOLYGON.CPP
C:\DEV\BITBUCKET\SPRINTBURST\CLIENT\DEBUG\CLIENT\VC141.PDB
^C:\DEV\BITBUCKET\SPRINTBURST\EZLIB\GRAPHICS\ZPOSTEFFECTS.CPP
C:\DEV\BITBUCKET\SPRINTBURST\CLIENT\DEBUG\CLIENT\VC141.PDB
^C:\DEV\BITBUCKET\SPRINTBURST\EZLIB\GRAPHICS\ZSHADERSET.CPP
C:\DEV\BITBUCKET\SPRINTBURST\CLIENT\DEBUG\CLIENT\VC141.PDB
^C:\DEV\BITBUCKET\SPRINTBURST\EZLIB\GRAPHICS\ZSINGLEMODEL.CPP
C:\DEV\BITBUCKET\SPRINTBURST\CLIENT\DEBUG\CLIENT\VC141.PDB
^C:\DEV\BITBUCKET\SPRINTBURST\EZLIB\GRAPHICS\ZSTATES.CPP
C:\DEV\BITBUCKET\SPRINTBURST\CLIENT\DEBUG\CLIENT\VC141.PDB
^C:\DEV\BITBUCKET\SPRINTBURST\EZLIB\GRAPHICS\ZTEXTURE.CPP
C:\DEV\BITBUCKET\SPRINTBURST\CLIENT\DEBUG\CLIENT\VC141.PDB
^C:\DEV\BITBUCKET\SPRINTBURST\EZLIB\GRAPHICS\ZVERTEXSHADER.CPP
C:\DEV\BITBUCKET\SPRINTBURST\CLIENT\DEBUG\CLIENT\VC141.PDB
^C:\DEV\BITBUCKET\SPRINTBURST\EZLIB\INPUT\ZINPUT.CPP
C:\DEV\BITBUCKET\SPRINTBURST\CLIENT\DEBUG\CLIENT\VC141.PDB
^C:\DEV\BITBUCKET\SPRINTBURST\EZLIB\MAINFRAME\ZMAINFRAME.CPP
C:\DEV\BITBUCKET\SPRINTBURST\CLIENT\DEBUG\CLIENT\VC141.PDB
^C:\DEV\BITBUCKET\SPRINTBURST\EZLIB\MATH\ZMATRIX.CPP
C:\DEV\BITBUCKET\SPRINTBURST\CLIENT\DEBUG\CLIENT\VC141.PDB
^C:\DEV\BITBUCKET\SPRINTBURST\EZLIB\MATH\ZQUAT.CPP
C:\DEV\BITBUCKET\SPRINTBURST\CLIENT\DEBUG\CLIENT\VC141.PDB
^C:\DEV\BITBUCKET\SPRINTBURST\EZLIB\MATH\ZVEC2.CPP
C:\DEV\BITBUCKET\SPRINTBURST\CLIENT\DEBUG\CLIENT\VC141.PDB
^C:\DEV\BITBUCKET\SPRINTBURST\EZLIB\MATH\ZVEC3.CPP
C:\DEV\BITBUCKET\SPRINTBURST\CLIENT\DEBUG\CLIENT\VC141.PDB
^C:\DEV\BITBUCKET\SPRINTBURST\EZLIB\MATH\ZVEC4.CPP
C:\DEV\BITBUCKET\SPRINTBURST\CLIENT\DEBUG\CLIENT\VC141.PDB
^C:\DEV\BITBUCKET\SPRINTBURST\EZLIB\MEMORYALLOCATER\MEMORY.CPP
C:\DEV\BITBUCKET\SPRINTBURST\CLIENT\DEBUG\CLIENT\VC141.PDB
^C:\DEV\BITBUCKET\SPRINTBURST\EZLIB\MEMORYALLOCATER\ZMEMORYALLOCATOR.CPP
C:\DEV\BITBUCKET\SPRINTBURST\CLIENT\DEBUG\CLIENT\VC141.PDB
^C:\DEV\BITBUCKET\SPRINTBURST\EZLIB\MEMORYALLOCATER\ZSMARTPOINTER.CPP
C:\DEV\BITBUCKET\SPRINTBURST\CLIENT\DEBUG\CLIENT\VC141.PDB
^C:\DEV\BITBUCKET\SPRINTBURST\EZLIB\MMD\ZMMDMATERIAL.CPP
C:\DEV\BITBUCKET\SPRINTBURST\CLIENT\DEBUG\CLIENT\VC141.PDB
^C:\DEV\BITBUCKET\SPRINTBURST\EZLIB\MMD\ZPMD.CPP
C:\DEV\BITBUCKET\SPRINTBURST\CLIENT\DEBUG\CLIENT\VC141.PDB
^C:\DEV\BITBUCKET\SPRINTBURST\EZLIB\MMD\ZPMX.CPP
C:\DEV\BITBUCKET\SPRINTBURST\CLIENT\DEBUG\CLIENT\VC141.PDB
^C:\DEV\BITBUCKET\SPRINTBURST\EZLIB\MMD\ZPMX2ZGAMEMODEL.CPP
C:\DEV\BITBUCKET\SPRINTBURST\CLIENT\DEBUG\CLIENT\VC141.PDB
^C:\DEV\BITBUCKET\SPRINTBURST\EZLIB\MMD\ZVMD.CPP
C:\DEV\BITBUCKET\SPRINTBURST\CLIENT\DEBUG\CLIENT\VC141.PDB
^C:\DEV\BITBUCKET\SPRINTBURST\EZLIB\NETWORK\NETWORKCOMMON.CPP
C:\DEV\BITBUCKET\SPRINTBURST\CLIENT\DEBUG\CLIENT\VC141.PDB
^C:\DEV\BITBUCKET\SPRINTBURST\EZLIB\NETWORK\ZCLIENT.CPP
C:\DEV\BITBUCKET\SPRINTBURST\CLIENT\DEBUG\CLIENT\VC141.PDB
^C:\DEV\BITBUCKET\SPRINTBURST\EZLIB\NETWORK\ZSERVER.CPP
C:\DEV\BITBUCKET\SPRINTBURST\CLIENT\DEBUG\CLIENT\VC141.PDB
^C:\DEV\BITBUCKET\SPRINTBURST\EZLIB\PHYSICS\ZBULLETPHYSICSENGINE.CPP
C:\DEV\BITBUCKET\SPRINTBURST\CLIENT\DEBUG\CLIENT\VC141.PDB
^C:\DEV\BITBUCKET\SPRINTBURST\EZLIB\PHYSICS\ZBULLET_DEBUGDRAW.CPP
C:\DEV\BITBUCKET\SPRINTBURST\CLIENT\DEBUG\CLIENT\VC141.PDB
^C:\DEV\BITBUCKET\SPRINTBURST\EZLIB\PHYSICS\ZBULLET_JOINT.CPP
C:\DEV\BITBUCKET\SPRINTBURST\CLIENT\DEBUG\CLIENT\VC141.PDB
^C:\DEV\BITBUCKET\SPRINTBURST\EZLIB\PHYSICS\ZBULLET_RIGIDBODY.CPP
C:\DEV\BITBUCKET\SPRINTBURST\CLIENT\DEBUG\CLIENT\VC141.PDB
^C:\DEV\BITBUCKET\SPRINTBURST\EZLIB\PHYSICS\ZBULLET_SHAPE.CPP
C:\DEV\BITBUCKET\SPRINTBURST\CLIENT\DEBUG\CLIENT\VC141.PDB
^C:\DEV\BITBUCKET\SPRINTBURST\EZLIB\SCENE\ZSCENE.CPP
C:\DEV\BITBUCKET\SPRINTBURST\CLIENT\DEBUG\CLIENT\VC141.PDB
^C:\DEV\BITBUCKET\SPRINTBURST\EZLIB\SOUNDS\ZSOUND.CPP
C:\DEV\BITBUCKET\SPRINTBURST\CLIENT\DEBUG\CLIENT\VC141.PDB
^C:\DEV\BITBUCKET\SPRINTBURST\EZLIB\SUBSYSTEM\ZSUBSYSTEM.CPP
C:\DEV\BITBUCKET\SPRINTBURST\CLIENT\DEBUG\CLIENT\VC141.PDB
^C:\DEV\BITBUCKET\SPRINTBURST\EZLIB\TOOLS\CSV\ZCSV.CPP
C:\DEV\BITBUCKET\SPRINTBURST\CLIENT\DEBUG\CLIENT\VC141.PDB
^C:\DEV\BITBUCKET\SPRINTBURST\EZLIB\TOOLS\XEDLOADER\ZXEDLOADER.CPP
C:\DEV\BITBUCKET\SPRINTBURST\CLIENT\DEBUG\CLIENT\VC141.PDB
^C:\DEV\BITBUCKET\SPRINTBURST\EZLIB\TOOLS\ZRESOURCESTORAGE.CPP
C:\DEV\BITBUCKET\SPRINTBURST\CLIENT\DEBUG\CLIENT\VC141.PDB
^C:\DEV\BITBUCKET\SPRINTBURST\EZLIB\UTILS\TEXTFILEREADER.CPP
C:\DEV\BITBUCKET\SPRINTBURST\CLIENT\DEBUG\CLIENT\VC141.PDB
^C:\DEV\BITBUCKET\SPRINTBURST\EZLIB\UTILS\ZFILE.CPP
C:\DEV\BITBUCKET\SPRINTBURST\CLIENT\DEBUG\CLIENT\VC141.PDB
^C:\DEV\BITBUCKET\SPRINTBURST\EZLIB\UTILS\ZMTRAND.CPP
C:\DEV\BITBUCKET\SPRINTBURST\CLIENT\DEBUG\CLIENT\VC141.PDB
^C:\DEV\BITBUCKET\SPRINTBURST\EZLIB\UTILS\ZPATHUTIL.CPP
C:\DEV\BITBUCKET\SPRINTBURST\CLIENT\DEBUG\CLIENT\VC141.PDB
^C:\DEV\BITBUCKET\SPRINTBURST\EZLIB\UTILS\ZTHREADPOOL.CPP
C:\DEV\BITBUCKET\SPRINTBURST\CLIENT\DEBUG\CLIENT\VC141.PDB
^C:\DEV\BITBUCKET\SPRINTBURST\EZLIB\UTILS\ZUUID.CPP
C:\DEV\BITBUCKET\SPRINTBURST\CLIENT\DEBUG\CLIENT\VC141.PDB
^C:\DEV\BITBUCKET\SPRINTBURST\EZLIB\UTILS\ZVFS.CPP
C:\DEV\BITBUCKET\SPRINTBURST\CLIENT\DEBUG\CLIENT\VC141.PDB
^C:\DEV\BITBUCKET\SPRINTBURST\EZLIB\WINDOW\ZWINDOW.CPP
C:\DEV\BITBUCKET\SPRINTBURST\CLIENT\DEBUG\CLIENT\VC141.PDB
^C:\DEV\BITBUCKET\SPRINTBURST\EZLIB\ZECS\ECS.CPP
C:\DEV\BITBUCKET\SPRINTBURST\CLIENT\DEBUG\CLIENT\VC141.PDB
^C:\DEV\BITBUCKET\SPRINTBURST\EZLIB\ZECS\ECSCOMPONENT.CPP
C:\DEV\BITBUCKET\SPRINTBURST\CLIENT\DEBUG\CLIENT\VC141.PDB
^C:\DEV\BITBUCKET\SPRINTBURST\EZLIB\ZECS\ECSENTITY.CPP
C:\DEV\BITBUCKET\SPRINTBURST\CLIENT\DEBUG\CLIENT\VC141.PDB
^C:\DEV\BITBUCKET\SPRINTBURST\EZLIB\ZECS\ECSLISTENER.CPP
C:\DEV\BITBUCKET\SPRINTBURST\CLIENT\DEBUG\CLIENT\VC141.PDB
^C:\DEV\BITBUCKET\SPRINTBURST\EZLIB\ZECS\ECSSYSTEM.CPP
C:\DEV\BITBUCKET\SPRINTBURST\CLIENT\DEBUG\CLIENT\VC141.PDB
^C:\DEV\BITBUCKET\SPRINTBURST\EZLIB\ZHELPER.CPP
C:\DEV\BITBUCKET\SPRINTBURST\CLIENT\DEBUG\CLIENT\VC141.PDB
^C:\DEV\BITBUCKET\SPRINTBURST\LIB\IMGUI\IMGUI.CPP
C:\DEV\BITBUCKET\SPRINTBURST\CLIENT\DEBUG\CLIENT\VC141.PDB
^C:\DEV\BITBUCKET\SPRINTBURST\LIB\IMGUI\IMGUI_DEMO.CPP
C:\DEV\BITBUCKET\SPRINTBURST\CLIENT\DEBUG\CLIENT\VC141.PDB
^C:\DEV\BITBUCKET\SPRINTBURST\LIB\IMGUI\IMGUI_DRAW.CPP
C:\DEV\BITBUCKET\SPRINTBURST\CLIENT\DEBUG\CLIENT\VC141.PDB
^C:\DEV\BITBUCKET\SPRINTBURST\LIB\IMGUI\IMGUI_IMPL_DX11.CPP
C:\DEV\BITBUCKET\SPRINTBURST\CLIENT\DEBUG\CLIENT\VC141.PDB
^C:\DEV\BITBUCKET\SPRINTBURST\LIB\IMGUI\IMGUI_IMPL_WIN32.CPP
C:\DEV\BITBUCKET\SPRINTBURST\CLIENT\DEBUG\CLIENT\VC141.PDB
^C:\DEV\BITBUCKET\SPRINTBURST\LIB\IMGUI\IMGUI_WIDGETS.CPP
C:\DEV\BITBUCKET\SPRINTBURST\CLIENT\DEBUG\CLIENT\VC141.PDB
^C:\DEV\BITBUCKET\SPRINTBURST\LIB\JSON11\JSON11.CPP
C:\DEV\BITBUCKET\SPRINTBURST\CLIENT\DEBUG\CLIENT\VC141.PDB
^C:\DEV\BITBUCKET\SPRINTBURST\CLIENT\SRC\CLIENT\CLIENTAPP.CPP
C:\DEV\BITBUCKET\SPRINTBURST\CLIENT\DEBUG\CLIENT\VC141.PDB
^C:\DEV\BITBUCKET\SPRINTBURST\CLIENT\SRC\CLIENT\SCENE\CONNECTSCENE.CPP
C:\DEV\BITBUCKET\SPRINTBURST\CLIENT\DEBUG\CLIENT\VC141.PDB
^C:\DEV\BITBUCKET\SPRINTBURST\CLIENT\SRC\CLIENT\SCENE\MATCHINGSCENE.CPP
C:\DEV\BITBUCKET\SPRINTBURST\CLIENT\DEBUG\CLIENT\VC141.PDB
^C:\DEV\BITBUCKET\SPRINTBURST\CLIENT\SRC\MAIN.CPP
C:\DEV\BITBUCKET\SPRINTBURST\CLIENT\DEBUG\CLIENT\VC141.PDB
