^C:\DEV\BITBUCKET\SPRINTBURST\COMMON\SHADER\HLSL\BLUR\BLURPS_1.HLSL
C:\DEV\BITBUCKET\SPRINTBURST\SHADER\BLURPS_1.CSO
^C:\DEV\BITBUCKET\SPRINTBURST\COMMON\SHADER\HLSL\BLUR\BLURPS_2.HLSL
C:\DEV\BITBUCKET\SPRINTBURST\SHADER\BLURPS_2.CSO
^C:\DEV\BITBUCKET\SPRINTBURST\COMMON\SHADER\HLSL\BLUR\BLURVS_1.HLSL
C:\DEV\BITBUCKET\SPRINTBURST\SHADER\BLURVS_1.CSO
^C:\DEV\BITBUCKET\SPRINTBURST\COMMON\SHADER\HLSL\BLUR\BLURVS_2.HLSL
C:\DEV\BITBUCKET\SPRINTBURST\SHADER\BLURVS_2.CSO
^C:\DEV\BITBUCKET\SPRINTBURST\COMMON\SHADER\HLSL\BLUR\HIE_PS.HLSL
C:\DEV\BITBUCKET\SPRINTBURST\SHADER\HIE_PS.CSO
^C:\DEV\BITBUCKET\SPRINTBURST\COMMON\SHADER\HLSL\BLUR\HIE_VS.HLSL
C:\DEV\BITBUCKET\SPRINTBURST\SHADER\HIE_VS.CSO
^C:\DEV\BITBUCKET\SPRINTBURST\COMMON\SHADER\HLSL\DOF\DOF_EXTRACTIONPS.HLSL
C:\DEV\BITBUCKET\SPRINTBURST\SHADER\DOF_EXTRACTIONPS.CSO
^C:\DEV\BITBUCKET\SPRINTBURST\COMMON\SHADER\HLSL\DOF\DOF_PS.HLSL
C:\DEV\BITBUCKET\SPRINTBURST\SHADER\DOF_PS.CSO
^C:\DEV\BITBUCKET\SPRINTBURST\COMMON\SHADER\HLSL\DOF\DOF_VS.HLSL
C:\DEV\BITBUCKET\SPRINTBURST\SHADER\DOF_VS.CSO
^C:\DEV\BITBUCKET\SPRINTBURST\COMMON\SHADER\HLSL\EFFECT\EFFECT_PS.HLSL
C:\DEV\BITBUCKET\SPRINTBURST\SHADER\EFFECT_PS.CSO
^C:\DEV\BITBUCKET\SPRINTBURST\COMMON\SHADER\HLSL\EFFECT\EFFECT_VS.HLSL
C:\DEV\BITBUCKET\SPRINTBURST\SHADER\EFFECT_VS.CSO
^C:\DEV\BITBUCKET\SPRINTBURST\COMMON\SHADER\HLSL\LINE\LINE_PS.HLSL
C:\DEV\BITBUCKET\SPRINTBURST\SHADER\LINE_PS.CSO
^C:\DEV\BITBUCKET\SPRINTBURST\COMMON\SHADER\HLSL\LINE\LINE_VS.HLSL
C:\DEV\BITBUCKET\SPRINTBURST\SHADER\LINE_VS.CSO
^C:\DEV\BITBUCKET\SPRINTBURST\COMMON\SHADER\HLSL\MODEL\MODEL_CHARAPS.HLSL
C:\DEV\BITBUCKET\SPRINTBURST\SHADER\MODEL_CHARAPS.CSO
^C:\DEV\BITBUCKET\SPRINTBURST\COMMON\SHADER\HLSL\MODEL\MODEL_INSTANCINGVS.HLSL
C:\DEV\BITBUCKET\SPRINTBURST\SHADER\MODEL_INSTANCINGVS.CSO
^C:\DEV\BITBUCKET\SPRINTBURST\COMMON\SHADER\HLSL\MODEL\MODEL_MONOPS.HLSL
C:\DEV\BITBUCKET\SPRINTBURST\SHADER\MODEL_MONOPS.CSO
^C:\DEV\BITBUCKET\SPRINTBURST\COMMON\SHADER\HLSL\MODEL\MODEL_PS.HLSL
C:\DEV\BITBUCKET\SPRINTBURST\SHADER\MODEL_PS.CSO
^C:\DEV\BITBUCKET\SPRINTBURST\COMMON\SHADER\HLSL\MODEL\MODEL_SKINVS.HLSL
C:\DEV\BITBUCKET\SPRINTBURST\SHADER\MODEL_SKINVS.CSO
^C:\DEV\BITBUCKET\SPRINTBURST\COMMON\SHADER\HLSL\MODEL\MODEL_VS.HLSL
C:\DEV\BITBUCKET\SPRINTBURST\SHADER\MODEL_VS.CSO
^C:\DEV\BITBUCKET\SPRINTBURST\COMMON\SHADER\HLSL\SHADOW\SHADOWINSTANCINGVS.HLSL
C:\DEV\BITBUCKET\SPRINTBURST\SHADER\SHADOWINSTANCINGVS.CSO
^C:\DEV\BITBUCKET\SPRINTBURST\COMMON\SHADER\HLSL\SHADOW\SHADOWPS.HLSL
C:\DEV\BITBUCKET\SPRINTBURST\SHADER\SHADOWPS.CSO
^C:\DEV\BITBUCKET\SPRINTBURST\COMMON\SHADER\HLSL\SHADOW\SHADOWSKINVS.HLSL
C:\DEV\BITBUCKET\SPRINTBURST\SHADER\SHADOWSKINVS.CSO
^C:\DEV\BITBUCKET\SPRINTBURST\COMMON\SHADER\HLSL\SHADOW\SHADOWVS.HLSL
C:\DEV\BITBUCKET\SPRINTBURST\SHADER\SHADOWVS.CSO
^C:\DEV\BITBUCKET\SPRINTBURST\COMMON\SHADER\HLSL\SPRITE\SPRITE_PS.HLSL
C:\DEV\BITBUCKET\SPRINTBURST\SHADER\SPRITE_PS.CSO
^C:\DEV\BITBUCKET\SPRINTBURST\COMMON\SHADER\HLSL\SPRITE\SPRITE_VS.HLSL
C:\DEV\BITBUCKET\SPRINTBURST\SHADER\SPRITE_VS.CSO
^C:\DEV\BITBUCKET\SPRINTBURST\COMMON\SHADER\HLSL\SSAO\LINERDEPTH_PS.HLSL
C:\DEV\BITBUCKET\SPRINTBURST\SHADER\LINERDEPTH_PS.CSO
^C:\DEV\BITBUCKET\SPRINTBURST\COMMON\SHADER\HLSL\SSAO\MERGE_PS.HLSL
C:\DEV\BITBUCKET\SPRINTBURST\SHADER\MERGE_PS.CSO
^C:\DEV\BITBUCKET\SPRINTBURST\COMMON\SHADER\HLSL\SSAO\SSAO_PS.HLSL
C:\DEV\BITBUCKET\SPRINTBURST\SHADER\SSAO_PS.CSO
^C:\DEV\BITBUCKET\SPRINTBURST\COMMON\SHADER\HLSL\SSAO\SSAO_VS.HLSL
C:\DEV\BITBUCKET\SPRINTBURST\SHADER\SSAO_VS.CSO
^C:\DEV\BITBUCKET\SPRINTBURST\COMMON\SHADER\HLSL\X-RAY\X-RAY_PS.HLSL
C:\DEV\BITBUCKET\SPRINTBURST\SHADER\X-RAY_PS.CSO
^C:\DEV\BITBUCKET\SPRINTBURST\COMMON\SHADER\HLSL\X-RAY\X-RAY_VS.HLSL
C:\DEV\BITBUCKET\SPRINTBURST\SHADER\X-RAY_VS.CSO
