{
    "Flgs": {
        "Setup": true,
        "HE": true,
        "DoF": false,
        "LightBloom": true,
        "SSAO": true,
        "XRay": true
    },
    "SSAOState": {
        "Strength": 3.380000114440918,
        "Falloff": -5.369999885559082,
        "Rad": 0.11999999731779099
    },
    "DoFState": {
        "Far": [
            1.0,
            0.0
        ],
        "Near": [
            0.12999999523162843,
            100.0
        ],
        "UseFar": 0
    },
    "XRayState": {
        "Color": [
            1.0,
            0.0,
            0.0,
            1.0
        ]
    },
    "BloomState": {
        "Loop": 2,
        "Disp": 0.10000000149011612,
        "MipLoop": 5,
        "BlurRenderCnt": 7,
        "BlurPow": [
            0.800000011920929,
            1.5,
            1.600000023841858,
            2.0,
            1.899999976158142,
            2.0,
            2.0
        ]
    }
}